# Calibration data for Hamamatsu S1337-1010BQ 
# photodiode with serial number #1 (Lot 61), the calibration was done by Hamamatsu at 2nd Dec. 2016
# The calibration presision is 5%
#
#     wavelength (nm)             QE (%)
2.000000000000000000e+02 7.740000000000000568e+01
2.100000000000000000e+02 7.529999999999999716e+01
2.200000000000000000e+02 7.109999999999999432e+01
2.300000000000000000e+02 6.979999999999999716e+01
2.400000000000000000e+02 6.840000000000000568e+01
2.500000000000000000e+02 6.039999999999999858e+01
2.600000000000000000e+02 5.179999999999999716e+01
2.700000000000000000e+02 4.489999999999999858e+01
2.800000000000000000e+02 4.429999999999999716e+01
2.900000000000000000e+02 4.810000000000000142e+01
3.000000000000000000e+02 5.260000000000000142e+01
3.100000000000000000e+02 5.439999999999999858e+01
3.200000000000000000e+02 5.460000000000000142e+01
3.300000000000000000e+02 5.410000000000000142e+01
3.400000000000000000e+02 5.360000000000000142e+01
3.500000000000000000e+02 5.229999999999999716e+01
3.600000000000000000e+02 4.989999999999999858e+01
3.700000000000000000e+02 4.870000000000000284e+01
3.800000000000000000e+02 5.110000000000000142e+01
3.900000000000000000e+02 5.389999999999999858e+01
4.000000000000000000e+02 5.579999999999999716e+01
4.100000000000000000e+02 5.710000000000000142e+01
4.200000000000000000e+02 5.839999999999999858e+01
4.300000000000000000e+02 5.920000000000000284e+01
4.400000000000000000e+02 6.000000000000000000e+01
4.500000000000000000e+02 6.054999999999999716e+01
4.600000000000000000e+02 6.110000000000000142e+01
4.700000000000000000e+02 6.150000000000000000e+01
4.800000000000000000e+02 6.189999999999999858e+01
4.900000000000000000e+02 6.225000000000000000e+01
5.000000000000000000e+02 6.260000000000000142e+01
5.100000000000000000e+02 6.279999999999999716e+01
5.200000000000000000e+02 6.300000000000000000e+01
5.300000000000000000e+02 6.325000000000000000e+01
5.400000000000000000e+02 6.350000000000000000e+01
5.500000000000000000e+02 6.364999999999999858e+01
5.600000000000000000e+02 6.379999999999999716e+01
5.700000000000000000e+02 6.395000000000000284e+01
5.800000000000000000e+02 6.409999999999999432e+01
5.900000000000000000e+02 6.425000000000000000e+01
6.000000000000000000e+02 6.440000000000000568e+01
6.100000000000000000e+02 6.445000000000000284e+01
6.200000000000000000e+02 6.450000000000000000e+01
6.300000000000000000e+02 6.459999999999999432e+01
6.400000000000000000e+02 6.470000000000000284e+01
6.500000000000000000e+02 6.479999999999999716e+01
6.600000000000000000e+02 6.490000000000000568e+01
6.700000000000000000e+02 6.495000000000000284e+01
6.800000000000000000e+02 6.500000000000000000e+01
6.900000000000000000e+02 6.509999999999999432e+01
7.000000000000000000e+02 6.520000000000000284e+01
7.100000000000000000e+02 6.525000000000000000e+01
7.200000000000000000e+02 6.529999999999999716e+01
7.300000000000000000e+02 6.529999999999999716e+01
7.400000000000000000e+02 6.529999999999999716e+01
7.500000000000000000e+02 6.534999999999999432e+01
7.600000000000000000e+02 6.540000000000000568e+01
7.700000000000000000e+02 6.540000000000000568e+01
7.800000000000000000e+02 6.540000000000000568e+01
7.900000000000000000e+02 6.545000000000000284e+01
8.000000000000000000e+02 6.550000000000000000e+01
8.100000000000000000e+02 6.554999999999999716e+01
8.200000000000000000e+02 6.559999999999999432e+01
8.300000000000000000e+02 6.559999999999999432e+01
8.400000000000000000e+02 6.559999999999999432e+01
8.500000000000000000e+02 6.565000000000000568e+01
8.600000000000000000e+02 6.570000000000000284e+01
8.700000000000000000e+02 6.570000000000000284e+01
8.800000000000000000e+02 6.570000000000000284e+01
8.900000000000000000e+02 6.570000000000000284e+01
9.000000000000000000e+02 6.570000000000000284e+01
9.100000000000000000e+02 6.575000000000000000e+01
9.200000000000000000e+02 6.579999999999999716e+01
9.300000000000000000e+02 6.579999999999999716e+01
9.400000000000000000e+02 6.579999999999999716e+01
9.500000000000000000e+02 6.554999999999999716e+01
9.600000000000000000e+02 6.529999999999999716e+01
9.700000000000000000e+02 6.440000000000000568e+01
9.800000000000000000e+02 6.350000000000000000e+01
9.900000000000000000e+02 6.139999999999999858e+01
1.000000000000000000e+03 5.929999999999999716e+01
1.010000000000000000e+03 5.520000000000000284e+01
1.020000000000000000e+03 5.110000000000000142e+01
1.030000000000000000e+03 4.514999999999999858e+01
1.040000000000000000e+03 3.920000000000000284e+01
1.050000000000000000e+03 3.245000000000000284e+01
1.060000000000000000e+03 2.569999999999999929e+01
1.070000000000000000e+03 2.119999999999999929e+01
1.080000000000000000e+03 1.669999999999999929e+01
1.090000000000000000e+03 1.369999999999999929e+01
1.100000000000000000e+03 1.069999999999999929e+01
1.110000000000000000e+03 8.599999999999999645e+00
1.120000000000000000e+03 6.500000000000000000e+00
1.130000000000000000e+03 4.950000000000000178e+00
1.140000000000000000e+03 3.399999999999999911e+00
1.150000000000000000e+03 2.399999999999999911e+00
1.160000000000000000e+03 1.399999999999999911e+00
1.170000000000000000e+03 8.000000000000000444e-01
1.180000000000000000e+03 2.000000000000000111e-01
1.190000000000000000e+03 0.000000000000000000e+00
