Voltage(V)	Current(A)	DiodeCurrent(A)	DiodeCurrent Std(A)
0.0000E+0	2.2213E-12	-40.0602E-9	89.5095E-12
2.0000E+0	38.4706E-12	-40.2915E-9	234.3008E-12
4.0000E+0	67.4985E-12	-40.1866E-9	181.8013E-12
6.0000E+0	177.0090E-12	-40.3286E-9	134.0674E-12
8.0000E+0	232.2991E-12	-40.1257E-9	190.4967E-12
10.0000E+0	274.3249E-12	-40.0670E-9	77.5442E-12
12.0000E+0	307.5063E-12	-40.0261E-9	207.4031E-12
14.0000E+0	337.7979E-12	-39.9626E-9	153.2445E-12
16.0000E+0	365.9410E-12	-40.1009E-9	263.0574E-12
18.0000E+0	399.3278E-12	-40.2505E-9	126.7556E-12
20.0000E+0	438.2409E-12	-40.1487E-9	211.0424E-12
22.0000E+0	475.0826E-12	-40.0108E-9	60.0444E-12
24.0000E+0	512.3126E-12	-40.1083E-9	146.4051E-12
26.0000E+0	539.0941E-12	-40.0307E-9	218.1362E-12
28.0000E+0	554.7651E-12	-40.1531E-9	208.1600E-12
30.0000E+0	570.0671E-12	-40.2270E-9	104.6174E-12
32.0000E+0	578.2111E-12	-40.1613E-9	131.1760E-12
34.0000E+0	591.1405E-12	-40.2703E-9	88.6193E-12
36.0000E+0	602.5057E-12	-40.1924E-9	188.3471E-12
38.0000E+0	615.3998E-12	-40.2158E-9	194.0512E-12
40.0000E+0	630.0109E-12	-40.1868E-9	89.8455E-12
42.0000E+0	645.4357E-12	-40.0288E-9	57.3709E-12
44.0000E+0	662.5847E-12	-39.9545E-9	195.6528E-12
46.0000E+0	683.0831E-12	-40.1301E-9	183.9964E-12
48.0000E+0	708.6558E-12	-40.2066E-9	241.6761E-12
50.0000E+0	755.1503E-12	-40.0990E-9	251.5614E-12
50.1000E+0	758.7693E-12	-40.2378E-9	289.8006E-12
50.2000E+0	763.0783E-12	-40.1045E-9	152.6269E-12
50.3000E+0	767.7388E-12	-40.2432E-9	244.7553E-12
50.4000E+0	772.1424E-12	-40.0858E-9	132.6323E-12
50.5000E+0	779.9025E-12	-40.1696E-9	171.5558E-12
50.6000E+0	786.7022E-12	-40.0264E-9	168.1678E-12
50.7000E+0	795.2372E-12	-40.2201E-9	148.9271E-12
50.8000E+0	803.2721E-12	-40.2127E-9	168.0437E-12
50.9000E+0	817.8230E-12	-40.1201E-9	169.2033E-12
51.0000E+0	829.7307E-12	-40.1627E-9	141.0885E-12
51.1000E+0	848.5719E-12	-40.1730E-9	151.8185E-12
51.2000E+0	873.7054E-12	-40.2852E-9	181.4380E-12
51.3000E+0	910.5663E-12	-40.1449E-9	94.0146E-12
51.4000E+0	958.2257E-12	-40.0640E-9	202.7557E-12
51.5000E+0	1.0496E-9	-40.3219E-9	166.8417E-12
51.6000E+0	1.2464E-9	-40.0402E-9	216.5466E-12
51.7000E+0	1.8316E-9	-40.2634E-9	216.3589E-12
51.8000E+0	4.5320E-9	-40.2738E-9	145.8147E-12
51.9000E+0	18.0016E-9	-40.1367E-9	289.1134E-12
52.0000E+0	54.9590E-9	-40.0590E-9	108.3869E-12
52.1000E+0	114.6759E-9	-40.1622E-9	123.4312E-12
52.2000E+0	190.6675E-9	-39.9995E-9	128.5904E-12
52.3000E+0	279.5981E-9	-40.1856E-9	130.4615E-12
52.4000E+0	385.9002E-9	-40.0233E-9	176.2940E-12
52.5000E+0	497.7767E-9	-40.1409E-9	75.6489E-12
52.6000E+0	617.8657E-9	-40.0008E-9	91.1868E-12
52.7000E+0	752.2456E-9	-40.0881E-9	278.1412E-12
52.8000E+0	896.4935E-9	-40.1189E-9	326.0507E-12
52.9000E+0	1.0495E-6	-40.1996E-9	219.2564E-12
53.0000E+0	1.1929E-6	-40.2119E-9	115.2536E-12
53.1000E+0	1.3726E-6	-40.0483E-9	152.7056E-12
53.2000E+0	1.5458E-6	-40.1281E-9	233.9920E-12
53.3000E+0	1.7140E-6	-39.9637E-9	65.1914E-12
53.4000E+0	1.8935E-6	-39.9350E-9	90.5116E-12
53.5000E+0	2.0885E-6	-40.0092E-9	128.8114E-12
53.6000E+0	2.2454E-6	-40.0365E-9	98.0353E-12
53.7000E+0	2.4608E-6	-40.1296E-9	163.7565E-12
53.8000E+0	2.6886E-6	-40.0750E-9	188.4107E-12
53.9000E+0	2.8454E-6	-40.0698E-9	169.6877E-12
54.0000E+0	3.1021E-6	-40.1896E-9	182.7490E-12
54.1000E+0	3.2595E-6	-40.0624E-9	237.9158E-12
54.2000E+0	3.4501E-6	-40.2401E-9	168.0195E-12
54.3000E+0	3.6813E-6	-39.9266E-9	205.7319E-12
54.4000E+0	3.9153E-6	-40.2152E-9	133.8403E-12
54.5000E+0	4.1559E-6	-40.0632E-9	98.4289E-12
54.6000E+0	4.3140E-6	-40.1635E-9	81.1531E-12
54.7000E+0	4.5977E-6	-40.2788E-9	170.4385E-12
54.8000E+0	4.8380E-6	-40.0617E-9	88.6678E-12
54.9000E+0	5.0551E-6	-40.0174E-9	117.3911E-12
55.0000E+0	5.2755E-6	-40.0770E-9	183.4060E-12
55.1000E+0	5.5100E-6	-40.0722E-9	89.8274E-12
55.2000E+0	5.7140E-6	-40.0624E-9	198.8258E-12
55.3000E+0	6.0719E-6	-39.9082E-9	69.4271E-12
55.4000E+0	6.1994E-6	-40.0653E-9	51.8061E-12
55.5000E+0	6.4415E-6	-40.2261E-9	139.6292E-12
55.6000E+0	6.6899E-6	-40.1693E-9	153.7804E-12
55.7000E+0	7.0492E-6	-40.1254E-9	206.7794E-12
55.8000E+0	7.2022E-6	-40.2331E-9	217.2036E-12
55.9000E+0	7.5228E-6	-40.2984E-9	101.6655E-12
56.0000E+0	7.8079E-6	-40.2012E-9	148.1883E-12
56.1000E+0	8.0999E-6	-40.1723E-9	175.1011E-12
56.2000E+0	8.3066E-6	-39.9933E-9	91.5683E-12
56.3000E+0	8.5804E-6	-40.0584E-9	154.4980E-12
56.4000E+0	8.8066E-6	-40.1386E-9	166.6782E-12
56.5000E+0	9.1124E-6	-40.0770E-9	124.6181E-12
56.6000E+0	9.2875E-6	-40.1502E-9	162.9542E-12
56.7000E+0	9.6115E-6	-40.1229E-9	191.0932E-12
56.8000E+0	9.9727E-6	-40.1885E-9	206.4161E-12
56.9000E+0	10.2521E-6	-40.3017E-9	121.1242E-12
57.0000E+0	10.5292E-6	-40.1827E-9	270.5296E-12
57.1000E+0	10.8461E-6	-40.2356E-9	154.5252E-12
57.2000E+0	10.9695E-6	-40.0733E-9	51.0341E-12
57.3000E+0	11.5000E-6	-40.1948E-9	151.3492E-12
57.4000E+0	11.7226E-6	-40.1073E-9	124.3032E-12
57.5000E+0	12.0284E-6	-40.4185E-9	219.2291E-12
57.6000E+0	12.2505E-6	-40.1874E-9	130.2647E-12
57.7000E+0	12.6634E-6	-40.2025E-9	168.0830E-12
57.8000E+0	12.9248E-6	-40.2594E-9	110.5062E-12
57.9000E+0	13.1496E-6	-40.2473E-9	203.9879E-12
58.0000E+0	13.5315E-6	-40.1295E-9	144.0193E-12
58.1000E+0	13.9139E-6	-40.3013E-9	246.2327E-12
58.2000E+0	14.0699E-6	-40.1572E-9	123.8309E-12
58.3000E+0	14.3943E-6	-40.0827E-9	150.1230E-12
58.4000E+0	14.8627E-6	-39.9793E-9	135.4631E-12
58.5000E+0	15.1048E-6	-40.1191E-9	217.8031E-12
58.6000E+0	15.3578E-6	-40.1408E-9	180.8537E-12
58.7000E+0	15.8912E-6	-40.1549E-9	254.5134E-12
58.8000E+0	16.3015E-6	-40.2424E-9	144.3977E-12
58.9000E+0	16.4631E-6	-40.1452E-9	176.8481E-12
59.0000E+0	16.8324E-6	-40.1245E-9	189.4068E-12
59.1000E+0	17.3615E-6	-40.0021E-9	133.9372E-12
59.2000E+0	17.4925E-6	-40.2661E-9	167.5138E-12
59.3000E+0	17.9619E-6	-40.0908E-9	149.9595E-12
59.4000E+0	18.5272E-6	-40.1614E-9	208.8443E-12
59.5000E+0	18.7708E-6	-40.2898E-9	187.4418E-12
59.6000E+0	19.0589E-6	-40.1393E-9	103.7515E-12
59.7000E+0	19.7108E-6	-40.1112E-9	187.5751E-12
59.8000E+0	19.8856E-6	-40.2039E-9	170.8382E-12
59.9000E+0	20.4303E-6	-40.2439E-9	58.6395E-12
60.0000E+0	20.6156E-6	-40.1022E-9	99.2373E-12
60.1000E+0	21.0471E-6	-40.1689E-9	211.1362E-12
60.2000E+0	21.4972E-6	-40.2039E-9	220.3796E-12
60.3000E+0	21.8054E-6	-40.1830E-9	166.4814E-12
60.4000E+0	22.4828E-6	-40.1186E-9	152.0365E-12
60.5000E+0	22.7043E-6	-40.1465E-9	139.5172E-12
60.6000E+0	23.3783E-6	-40.2330E-9	193.3579E-12
60.7000E+0	23.7443E-6	-40.1050E-9	122.0930E-12
60.8000E+0	24.4763E-6	-40.2118E-9	92.2737E-12
60.9000E+0	24.5172E-6	-40.0569E-9	138.6967E-12
61.0000E+0	24.9484E-6	-40.0977E-9	164.1350E-12
61.1000E+0	25.4632E-6	-40.0851E-9	190.2152E-12
61.2000E+0	25.8324E-6	-40.1843E-9	153.4988E-12
61.3000E+0	26.5491E-6	-40.2186E-9	112.2683E-12
61.4000E+0	27.0279E-6	-39.9303E-9	162.5152E-12
61.5000E+0	27.5855E-6	-39.9657E-9	177.8048E-12
61.6000E+0	28.1868E-6	-39.9982E-9	110.7151E-12
61.7000E+0	28.3329E-6	-40.0199E-9	126.4195E-12
61.8000E+0	29.2439E-6	-40.0352E-9	119.1047E-12
61.9000E+0	29.5988E-6	-40.1305E-9	161.4192E-12
62.0000E+0	30.0433E-6	-40.0823E-9	172.4277E-12
62.1000E+0	31.1261E-6	-40.2271E-9	120.5398E-12
62.2000E+0	31.3272E-6	-40.1386E-9	53.6954E-12
62.3000E+0	31.9972E-6	-40.2004E-9	146.4081E-12
62.4000E+0	32.6060E-6	-40.0159E-9	95.6404E-12
62.5000E+0	33.1501E-6	-40.2083E-9	147.3981E-12
62.6000E+0	33.8509E-6	-40.0345E-9	71.5464E-12
62.7000E+0	34.4627E-6	-40.0858E-9	117.6303E-12
62.8000E+0	34.8355E-6	-40.0958E-9	163.0420E-12
62.9000E+0	35.9113E-6	-40.0781E-9	94.8230E-12
63.0000E+0	36.1940E-6	-40.2208E-9	209.4619E-12
63.1000E+0	37.3075E-6	-40.1836E-9	161.2103E-12
63.2000E+0	37.7342E-6	-40.2125E-9	120.7245E-12
63.3000E+0	38.1780E-6	-40.0582E-9	169.2578E-12
63.4000E+0	39.1095E-6	-40.2050E-9	95.7343E-12
63.5000E+0	39.7847E-6	-40.2174E-9	144.0162E-12
63.6000E+0	40.7637E-6	-39.9861E-9	113.2311E-12
63.7000E+0	40.9669E-6	-39.9963E-9	187.6931E-12
63.8000E+0	42.2665E-6	-40.1157E-9	116.1619E-12
63.9000E+0	42.5201E-6	-40.0466E-9	139.1205E-12
