Voltage(V)	Current(A)	DiodeCurrent(A)	DiodeCurrent Std(A)
0.0000E+0	6.4898E-12	-44.3361E-9	80.0178E-12
2.0000E+0	38.6163E-12	-44.2819E-9	62.2636E-12
4.0000E+0	70.4235E-12	-44.1061E-9	107.1001E-12
6.0000E+0	184.5831E-12	-43.9456E-9	100.3545E-12
8.0000E+0	244.8556E-12	-43.5189E-9	105.6680E-12
10.0000E+0	287.7215E-12	-43.6598E-9	83.2029E-12
12.0000E+0	326.8557E-12	-43.7819E-9	104.5448E-12
14.0000E+0	358.6659E-12	-43.6044E-9	91.0293E-12
16.0000E+0	388.7684E-12	-43.6638E-9	108.0599E-12
18.0000E+0	424.7880E-12	-43.7794E-9	95.0743E-12
20.0000E+0	462.4018E-12	-43.9177E-9	62.3030E-12
22.0000E+0	502.2074E-12	-43.8533E-9	166.8266E-12
24.0000E+0	544.3276E-12	-44.0797E-9	163.8776E-12
26.0000E+0	568.7226E-12	-44.2957E-9	156.4720E-12
28.0000E+0	586.0587E-12	-44.2986E-9	72.9119E-12
30.0000E+0	598.5838E-12	-44.3129E-9	88.2318E-12
32.0000E+0	610.0297E-12	-44.1674E-9	141.3973E-12
34.0000E+0	621.7573E-12	-44.1185E-9	92.7188E-12
36.0000E+0	634.9860E-12	-43.8733E-9	46.8862E-12
38.0000E+0	649.3853E-12	-43.7478E-9	108.4686E-12
40.0000E+0	662.7713E-12	-43.6918E-9	121.9053E-12
42.0000E+0	678.2042E-12	-43.8471E-9	94.6686E-12
44.0000E+0	694.3955E-12	-43.7499E-9	36.9737E-12
46.0000E+0	713.4500E-12	-43.6892E-9	119.7042E-12
48.0000E+0	736.4789E-12	-43.9174E-9	59.9111E-12
50.0000E+0	771.9188E-12	-43.8791E-9	104.8990E-12
50.1000E+0	772.9374E-12	-43.8726E-9	119.0321E-12
50.2000E+0	776.7456E-12	-44.1827E-9	209.6618E-12
50.3000E+0	779.9780E-12	-44.0161E-9	306.8524E-12
50.4000E+0	783.0829E-12	-44.3105E-9	141.6365E-12
50.5000E+0	786.7983E-12	-44.4610E-9	95.9099E-12
50.6000E+0	791.4990E-12	-44.2833E-9	175.7097E-12
50.7000E+0	796.4575E-12	-44.1651E-9	89.8455E-12
50.8000E+0	801.1623E-12	-43.9938E-9	68.3916E-12
50.9000E+0	808.8770E-12	-43.8346E-9	141.4821E-12
51.0000E+0	817.7422E-12	-43.7336E-9	150.2502E-12
51.1000E+0	826.0476E-12	-43.8293E-9	93.4545E-12
51.2000E+0	838.7067E-12	-43.7162E-9	74.6467E-12
51.3000E+0	858.5553E-12	-43.7396E-9	115.7501E-12
51.4000E+0	884.0739E-12	-43.8450E-9	85.4342E-12
51.5000E+0	926.4594E-12	-43.9238E-9	113.0101E-12
51.6000E+0	1.0036E-9	-43.9436E-9	121.3694E-12
51.7000E+0	1.2007E-9	-43.9848E-9	79.0641E-12
51.8000E+0	1.9833E-9	-44.4210E-9	110.1853E-12
51.9000E+0	6.0378E-9	-44.2673E-9	226.2987E-12
52.0000E+0	21.3507E-9	-44.5064E-9	120.0675E-12
52.1000E+0	52.5721E-9	-44.6117E-9	132.7201E-12
52.2000E+0	92.5099E-9	-44.3910E-9	133.8040E-12
52.3000E+0	144.8831E-9	-44.0135E-9	136.0777E-12
52.4000E+0	200.2140E-9	-43.9157E-9	89.4398E-12
52.5000E+0	269.9959E-9	-43.9024E-9	42.1237E-12
52.6000E+0	341.6109E-9	-43.8654E-9	103.8090E-12
52.7000E+0	426.5649E-9	-43.7444E-9	34.9573E-12
52.8000E+0	511.0670E-9	-43.6256E-9	102.4133E-12
52.9000E+0	602.4214E-9	-43.8815E-9	62.5513E-12
53.0000E+0	710.0681E-9	-43.9674E-9	88.2318E-12
53.1000E+0	799.2635E-9	-43.9758E-9	81.1168E-12
53.2000E+0	918.5275E-9	-43.9279E-9	147.1711E-12
53.3000E+0	1.0255E-6	-44.1580E-9	198.2263E-12
53.4000E+0	1.1601E-6	-44.1269E-9	95.9735E-12
53.5000E+0	1.2861E-6	-44.0166E-9	200.6484E-12
53.6000E+0	1.4081E-6	-44.0746E-9	344.9432E-12
53.7000E+0	1.5448E-6	-44.1879E-9	299.2106E-12
53.8000E+0	1.6642E-6	-44.1941E-9	85.6522E-12
53.9000E+0	1.8083E-6	-44.0352E-9	68.3008E-12
54.0000E+0	1.9479E-6	-43.9791E-9	40.2526E-12
54.1000E+0	2.0890E-6	-43.7770E-9	53.5379E-12
54.2000E+0	2.2091E-6	-43.6668E-9	19.1075E-12
54.3000E+0	2.3602E-6	-43.7844E-9	115.9045E-12
54.4000E+0	2.5099E-6	-43.7471E-9	139.8774E-12
54.5000E+0	2.6529E-6	-43.7786E-9	95.2287E-12
54.6000E+0	2.8270E-6	-43.8122E-9	209.5407E-12
54.7000E+0	3.0076E-6	-43.8049E-9	58.0431E-12
54.8000E+0	3.1651E-6	-44.0964E-9	136.5834E-12
54.9000E+0	3.3641E-6	-44.0890E-9	125.7958E-12
55.0000E+0	3.5240E-6	-44.4897E-9	115.2566E-12
55.1000E+0	3.6915E-6	-44.2082E-9	121.4360E-12
55.2000E+0	3.9103E-6	-44.5556E-9	123.8006E-12
55.3000E+0	4.0923E-6	-44.1049E-9	173.0726E-12
55.4000E+0	4.2614E-6	-44.1550E-9	109.0257E-12
55.5000E+0	4.4486E-6	-44.0123E-9	97.1906E-12
55.6000E+0	4.5887E-6	-43.7731E-9	120.6337E-12
55.7000E+0	4.7565E-6	-43.6665E-9	102.7161E-12
55.8000E+0	4.9216E-6	-43.5603E-9	70.7622E-12
55.9000E+0	5.1296E-6	-43.5694E-9	119.5710E-12
56.0000E+0	5.4022E-6	-43.6843E-9	151.1585E-12
56.1000E+0	5.5186E-6	-43.6313E-9	84.9650E-12
56.2000E+0	5.7480E-6	-43.6969E-9	103.5426E-12
56.3000E+0	5.9387E-6	-43.7544E-9	180.8173E-12
56.4000E+0	6.1807E-6	-43.8636E-9	159.8569E-12
56.5000E+0	6.4791E-6	-44.0746E-9	138.3788E-12
56.6000E+0	6.6468E-6	-44.1006E-9	138.3455E-12
56.7000E+0	6.9483E-6	-44.4437E-9	54.8701E-12
56.8000E+0	7.1677E-6	-44.4449E-9	201.5295E-12
56.9000E+0	7.3713E-6	-44.2699E-9	110.5304E-12
57.0000E+0	7.5901E-6	-44.1879E-9	115.3716E-12
57.1000E+0	7.7969E-6	-44.0768E-9	96.6608E-12
57.2000E+0	7.9616E-6	-44.0153E-9	92.1829E-12
57.3000E+0	8.1581E-6	-43.8619E-9	135.1725E-12
57.4000E+0	8.4023E-6	-43.7444E-9	81.9827E-12
57.5000E+0	8.6273E-6	-43.8618E-9	145.7541E-12
57.6000E+0	8.9430E-6	-43.9218E-9	88.4286E-12
57.7000E+0	9.1890E-6	-44.0192E-9	79.6514E-12
57.8000E+0	9.2778E-6	-43.7318E-9	196.5520E-12
57.9000E+0	9.6774E-6	-44.0776E-9	192.0166E-12
58.0000E+0	9.9679E-6	-44.2640E-9	102.0318E-12
58.1000E+0	10.3167E-6	-44.1352E-9	185.6434E-12
58.2000E+0	10.5200E-6	-44.4453E-9	130.6068E-12
58.3000E+0	10.8885E-6	-44.3558E-9	232.0422E-12
58.4000E+0	11.1057E-6	-44.4246E-9	31.5178E-12
58.5000E+0	11.4701E-6	-44.1530E-9	133.8131E-12
58.6000E+0	11.6357E-6	-44.0289E-9	158.6761E-12
58.7000E+0	11.9730E-6	-43.7586E-9	164.6133E-12
58.8000E+0	12.0781E-6	-43.9351E-9	61.6823E-12
58.9000E+0	12.5170E-6	-43.8391E-9	107.5331E-12
59.0000E+0	12.7831E-6	-43.6320E-9	109.9007E-12
59.1000E+0	12.9949E-6	-43.7923E-9	73.2177E-12
59.2000E+0	13.3594E-6	-43.9004E-9	61.5158E-12
59.3000E+0	13.6334E-6	-43.8357E-9	143.2291E-12
59.4000E+0	14.1503E-6	-43.9053E-9	78.1285E-12
59.5000E+0	14.3159E-6	-44.0395E-9	161.5403E-12
59.6000E+0	14.8295E-6	-44.2725E-9	64.2346E-12
59.7000E+0	15.0631E-6	-44.4332E-9	145.8086E-12
59.8000E+0	15.4401E-6	-44.4977E-9	144.8428E-12
59.9000E+0	15.8455E-6	-44.3355E-9	214.5454E-12
60.0000E+0	16.1764E-6	-44.3404E-9	44.7033E-12
60.1000E+0	16.4798E-6	-44.0798E-9	66.4721E-12
60.2000E+0	16.6743E-6	-43.9911E-9	143.0413E-12
60.3000E+0	17.1313E-6	-43.8211E-9	68.5793E-12
60.4000E+0	17.4735E-6	-43.6384E-9	92.0557E-12
60.5000E+0	17.7818E-6	-43.6689E-9	53.5379E-12
60.6000E+0	18.2761E-6	-43.7176E-9	139.5686E-12
60.7000E+0	18.5776E-6	-43.7779E-9	128.1514E-12
60.8000E+0	19.0324E-6	-43.7556E-9	233.0716E-12
60.9000E+0	19.4484E-6	-43.9912E-9	107.0517E-12
61.0000E+0	19.9372E-6	-44.0497E-9	109.3678E-12
61.1000E+0	20.4901E-6	-43.9838E-9	261.7162E-12
61.2000E+0	20.8158E-6	-44.1789E-9	298.6565E-12
61.3000E+0	21.2260E-6	-44.2307E-9	148.5759E-12
61.4000E+0	22.0415E-6	-44.4766E-9	204.1787E-12
61.5000E+0	22.3499E-6	-43.9007E-9	290.4728E-12
61.6000E+0	22.8835E-6	-44.1251E-9	31.4603E-12
61.7000E+0	23.3264E-6	-44.0955E-9	34.5394E-12
61.8000E+0	23.7711E-6	-43.9594E-9	188.7104E-12
61.9000E+0	23.9290E-6	-43.8573E-9	146.7290E-12
62.0000E+0	24.5577E-6	-43.9643E-9	153.8016E-12
62.1000E+0	25.0402E-6	-43.6814E-9	153.9227E-12
62.2000E+0	25.6939E-6	-43.8752E-9	153.8379E-12
62.3000E+0	26.0983E-6	-43.8058E-9	128.7811E-12
62.4000E+0	26.5472E-6	-43.9415E-9	61.0919E-12
62.5000E+0	27.3463E-6	-43.9895E-9	140.5193E-12
62.6000E+0	27.8497E-6	-44.1174E-9	78.4676E-12
62.7000E+0	28.5828E-6	-44.0957E-9	192.2346E-12
62.8000E+0	29.2038E-6	-44.4368E-9	108.2991E-12
62.9000E+0	29.8533E-6	-44.3944E-9	91.6591E-12
63.0000E+0	30.4905E-6	-44.1677E-9	257.3927E-12
63.1000E+0	30.7840E-6	-44.2418E-9	58.6335E-12
63.2000E+0	31.3382E-6	-44.1091E-9	74.1229E-12
63.3000E+0	32.2259E-6	-43.8523E-9	95.9795E-12
63.4000E+0	32.5117E-6	-43.8972E-9	56.8290E-12
63.5000E+0	32.8987E-6	-43.7788E-9	46.7711E-12
63.6000E+0	33.9111E-6	-43.8378E-9	100.6754E-12
63.7000E+0	34.7769E-6	-43.9360E-9	43.7829E-12
63.8000E+0	35.2427E-6	-43.9040E-9	75.5913E-12
63.9000E+0	35.9692E-6	-43.9049E-9	113.0737E-12
