Voltage(V)	Current(A)	DiodeCurrent(A)	DiodeCurrent Std(A)
0.0000E+0	3.6402E-12	-72.1134E-9	118.4477E-12
2.0000E+0	41.1665E-12	-72.0764E-9	162.9542E-12
4.0000E+0	72.0398E-12	-72.3541E-9	224.4004E-12
6.0000E+0	191.2474E-12	-72.5395E-9	139.9410E-12
8.0000E+0	245.9350E-12	-72.7233E-9	233.3592E-12
10.0000E+0	295.4241E-12	-73.0056E-9	197.5875E-12
12.0000E+0	328.7148E-12	-73.1128E-9	137.5219E-12
14.0000E+0	363.1762E-12	-72.8172E-9	329.9473E-12
16.0000E+0	394.3060E-12	-72.5420E-9	155.2064E-12
18.0000E+0	431.4824E-12	-72.3066E-9	199.7916E-12
20.0000E+0	472.2198E-12	-72.0774E-9	168.4706E-12
22.0000E+0	511.8996E-12	-72.0908E-9	203.8668E-12
24.0000E+0	551.6085E-12	-71.9671E-9	186.9695E-12
26.0000E+0	579.1532E-12	-71.8744E-9	206.2799E-12
28.0000E+0	594.8874E-12	-71.7367E-9	219.2867E-12
30.0000E+0	607.7198E-12	-71.7597E-9	165.5126E-12
32.0000E+0	620.2348E-12	-71.9810E-9	168.1012E-12
34.0000E+0	633.6744E-12	-71.9851E-9	183.3787E-12
36.0000E+0	645.0916E-12	-71.9170E-9	311.9479E-12
38.0000E+0	659.5371E-12	-72.4238E-9	164.4377E-12
40.0000E+0	675.0714E-12	-72.7210E-9	176.9026E-12
42.0000E+0	690.4575E-12	-72.6271E-9	262.0522E-12
44.0000E+0	710.5638E-12	-73.1657E-9	281.3262E-12
46.0000E+0	732.2529E-12	-72.7310E-9	157.8496E-12
48.0000E+0	761.3201E-12	-72.5629E-9	103.9635E-12
50.0000E+0	814.4663E-12	-72.4786E-9	213.7794E-12
50.1000E+0	818.1610E-12	-72.2890E-9	285.7436E-12
50.2000E+0	823.5309E-12	-72.2469E-9	222.8956E-12
50.3000E+0	827.3570E-12	-71.9619E-9	340.3079E-12
50.4000E+0	834.1324E-12	-72.0612E-9	150.7861E-12
50.5000E+0	840.4338E-12	-72.1407E-9	209.9494E-12
50.6000E+0	848.0130E-12	-72.2714E-9	207.8421E-12
50.7000E+0	858.2838E-12	-72.4362E-9	266.2213E-12
50.8000E+0	869.6207E-12	-72.0946E-9	221.0790E-12
50.9000E+0	881.3035E-12	-72.3711E-9	174.9740E-12
51.0000E+0	899.7131E-12	-72.5872E-9	164.5104E-12
51.1000E+0	917.3001E-12	-72.7886E-9	199.2557E-12
51.2000E+0	944.3666E-12	-72.9188E-9	193.2428E-12
51.3000E+0	981.3139E-12	-73.3205E-9	57.3861E-12
51.4000E+0	1.0328E-9	-72.7125E-9	243.8439E-12
51.5000E+0	1.1178E-9	-72.6675E-9	144.0314E-12
51.6000E+0	1.2738E-9	-72.4282E-9	125.3508E-12
51.7000E+0	1.6534E-9	-71.9543E-9	218.6024E-12
51.8000E+0	3.0978E-9	-72.2027E-9	151.9608E-12
51.9000E+0	10.7835E-9	-71.7978E-9	173.8265E-12
52.0000E+0	40.4590E-9	-71.8870E-9	135.7205E-12
52.1000E+0	101.8503E-9	-71.9155E-9	224.4670E-12
52.2000E+0	185.6262E-9	-72.1219E-9	247.2591E-12
52.3000E+0	290.7838E-9	-71.9791E-9	188.8891E-12
52.4000E+0	412.0052E-9	-72.1245E-9	237.6282E-12
52.5000E+0	554.9411E-9	-72.1814E-9	128.4844E-12
52.6000E+0	706.5900E-9	-72.4780E-9	328.2700E-12
52.7000E+0	875.2220E-9	-72.6823E-9	239.6537E-12
52.8000E+0	1.0536E-6	-72.7091E-9	335.4031E-12
52.9000E+0	1.2596E-6	-73.0520E-9	170.4507E-12
53.0000E+0	1.4537E-6	-72.7016E-9	272.4098E-12
53.1000E+0	1.6714E-6	-72.1101E-9	226.9618E-12
53.2000E+0	1.8863E-6	-72.2290E-9	178.4225E-12
53.3000E+0	2.1041E-6	-71.8963E-9	222.5051E-12
53.4000E+0	2.3668E-6	-72.0271E-9	196.1282E-12
53.5000E+0	2.5785E-6	-71.8712E-9	146.1417E-12
53.6000E+0	2.8486E-6	-71.8816E-9	122.8863E-12
53.7000E+0	3.1036E-6	-72.0015E-9	127.0251E-12
53.8000E+0	3.3611E-6	-72.1061E-9	138.4423E-12
53.9000E+0	3.6647E-6	-72.0164E-9	267.8138E-12
54.0000E+0	3.9583E-6	-71.9133E-9	129.1202E-12
54.1000E+0	4.2529E-6	-72.3623E-9	199.6221E-12
54.2000E+0	4.5060E-6	-72.7405E-9	186.6516E-12
54.3000E+0	4.8759E-6	-72.6183E-9	268.1378E-12
54.4000E+0	5.2110E-6	-72.7026E-9	335.6544E-12
54.5000E+0	5.5130E-6	-72.9245E-9	121.2756E-12
54.6000E+0	5.8291E-6	-72.7462E-9	266.0820E-12
54.7000E+0	6.1017E-6	-72.4178E-9	41.3002E-12
54.8000E+0	6.3731E-6	-72.3111E-9	147.0621E-12
54.9000E+0	6.7843E-6	-72.0901E-9	41.8633E-12
55.0000E+0	7.0255E-6	-71.9628E-9	62.7117E-12
55.1000E+0	7.3070E-6	-71.8946E-9	85.3192E-12
55.2000E+0	7.6922E-6	-71.8465E-9	164.3954E-12
55.3000E+0	8.1047E-6	-72.1536E-9	133.5678E-12
55.4000E+0	8.4560E-6	-71.9935E-9	173.0847E-12
55.5000E+0	8.8362E-6	-72.3252E-9	283.0005E-12
55.6000E+0	9.1816E-6	-72.3674E-9	104.7416E-12
55.7000E+0	9.6153E-6	-72.6741E-9	174.0778E-12
55.8000E+0	9.8304E-6	-72.9811E-9	266.3454E-12
55.9000E+0	10.3726E-6	-72.9376E-9	298.6656E-12
56.0000E+0	10.6830E-6	-73.0567E-9	91.8559E-12
56.1000E+0	11.2453E-6	-72.6541E-9	216.7555E-12
56.2000E+0	11.3045E-6	-72.4231E-9	408.4633E-12
56.3000E+0	11.9397E-6	-72.3436E-9	259.9056E-12
56.4000E+0	12.3369E-6	-72.0962E-9	119.5437E-12
56.5000E+0	12.6558E-6	-72.1200E-9	254.8827E-12
56.6000E+0	13.0474E-6	-71.7669E-9	159.5723E-12
56.7000E+0	13.4265E-6	-72.0529E-9	144.8216E-12
56.8000E+0	13.9118E-6	-71.9023E-9	157.5105E-12
56.9000E+0	14.3014E-6	-72.3445E-9	210.0311E-12
57.0000E+0	14.8007E-6	-72.2571E-9	214.4394E-12
57.1000E+0	15.2776E-6	-72.5285E-9	186.2732E-12
57.2000E+0	15.7276E-6	-72.6789E-9	104.3843E-12
57.3000E+0	16.2504E-6	-72.5589E-9	343.8926E-12
57.4000E+0	16.8096E-6	-72.7763E-9	151.1464E-12
57.5000E+0	17.3888E-6	-73.1267E-9	172.7820E-12
57.6000E+0	17.7214E-6	-72.7189E-9	275.8220E-12
57.7000E+0	18.1545E-6	-72.5099E-9	166.9204E-12
57.8000E+0	18.6220E-6	-72.3770E-9	139.0600E-12
57.9000E+0	18.9269E-6	-72.0379E-9	239.4841E-12
58.0000E+0	19.3131E-6	-71.9479E-9	86.7755E-12
58.1000E+0	19.8140E-6	-71.8537E-9	152.6905E-12
58.2000E+0	20.4713E-6	-71.8460E-9	203.6065E-12
58.3000E+0	20.9574E-6	-71.8330E-9	186.9998E-12
58.4000E+0	21.4780E-6	-72.0739E-9	288.6350E-12
58.5000E+0	22.0625E-6	-72.0066E-9	190.0002E-12
58.6000E+0	22.3396E-6	-72.1995E-9	184.5020E-12
58.7000E+0	23.2160E-6	-72.5906E-9	93.5150E-12
58.8000E+0	23.3825E-6	-71.8636E-9	559.0799E-12
58.9000E+0	24.4349E-6	-72.8168E-9	409.4806E-12
59.0000E+0	24.7666E-6	-72.9249E-9	262.5245E-12
59.1000E+0	25.3278E-6	-72.2563E-9	310.8731E-12
59.2000E+0	26.1987E-6	-72.2872E-9	94.8563E-12
59.3000E+0	26.4737E-6	-72.1031E-9	240.5559E-12
59.4000E+0	27.1296E-6	-71.9155E-9	185.5132E-12
59.5000E+0	27.6787E-6	-72.0347E-9	167.8772E-12
59.6000E+0	28.2155E-6	-71.9665E-9	183.6512E-12
59.7000E+0	28.8536E-6	-71.9224E-9	106.0192E-12
59.8000E+0	29.3161E-6	-71.8588E-9	232.4357E-12
59.9000E+0	30.2011E-6	-72.0614E-9	196.8003E-12
60.0000E+0	31.0041E-6	-72.2904E-9	282.7977E-12
60.1000E+0	31.3540E-6	-72.1978E-9	111.4902E-12
60.2000E+0	32.5485E-6	-72.6540E-9	138.5665E-12
60.3000E+0	32.8883E-6	-72.6794E-9	237.2800E-12
60.4000E+0	33.9110E-6	-72.8057E-9	309.2260E-12
60.5000E+0	34.5089E-6	-72.9092E-9	167.8560E-12
60.6000E+0	34.8888E-6	-72.8345E-9	196.4521E-12
60.7000E+0	36.0287E-6	-72.4088E-9	84.6985E-12
60.8000E+0	36.5644E-6	-71.9840E-9	261.3074E-12
60.9000E+0	36.9988E-6	-72.0502E-9	409.4685E-12
61.0000E+0	37.9910E-6	-71.7720E-9	138.0820E-12
61.1000E+0	38.5136E-6	-71.8050E-9	181.7983E-12
61.2000E+0	39.4561E-6	-71.6514E-9	320.6584E-12
61.3000E+0	40.2773E-6	-71.8531E-9	198.8773E-12
61.4000E+0	40.8023E-6	-71.9698E-9	67.9859E-12
61.5000E+0	42.4324E-6	-72.2456E-9	139.9683E-12
61.6000E+0	42.9373E-6	-71.9455E-9	250.5502E-12
61.7000E+0	43.8370E-6	-72.5157E-9	161.3707E-12
61.8000E+0	44.7572E-6	-72.5224E-9	220.0194E-12
61.9000E+0	45.5881E-6	-72.4063E-9	495.3811E-12
62.0000E+0	46.4235E-6	-73.2131E-9	223.5193E-12
62.1000E+0	47.9091E-6	-72.6520E-9	252.9450E-12
62.2000E+0	48.4884E-6	-72.8988E-9	267.1568E-12
62.3000E+0	49.3402E-6	-72.5591E-9	347.8922E-12
62.4000E+0	50.1121E-6	-72.1631E-9	187.2783E-12
62.5000E+0	51.1899E-6	-72.0825E-9	263.8809E-12
62.6000E+0	52.4254E-6	-71.8490E-9	161.0861E-12
62.7000E+0	52.8624E-6	-71.7842E-9	117.3003E-12
62.8000E+0	54.1399E-6	-72.2888E-9	132.3961E-12
62.9000E+0	55.2171E-6	-71.9372E-9	174.9740E-12
63.0000E+0	56.4861E-6	-72.3351E-9	385.8286E-12
63.1000E+0	57.5280E-6	-72.1844E-9	250.2626E-12
63.2000E+0	58.6774E-6	-72.5969E-9	358.0348E-12
63.3000E+0	59.7409E-6	-73.1595E-9	206.8370E-12
63.4000E+0	60.5068E-6	-72.7350E-9	331.8971E-12
63.5000E+0	62.5419E-6	-73.1756E-9	162.4637E-12
63.6000E+0	63.9310E-6	-73.0322E-9	112.9586E-12
63.7000E+0	64.2275E-6	-72.4279E-9	278.4863E-12
63.8000E+0	65.5992E-6	-72.3147E-9	186.8726E-12
63.9000E+0	66.8501E-6	-72.2067E-9	127.3036E-12
