Voltage(V)	Current(A)	DiodeCurrent(A)	DiodeCurrent Std(A)
0.0000E+0	5.1414E-12	-48.8029E-9	244.9248E-12
2.0000E+0	38.5078E-12	-48.7909E-9	125.0177E-12
4.0000E+0	68.5588E-12	-48.8478E-9	232.9050E-12
6.0000E+0	176.8652E-12	-48.8586E-9	227.9942E-12
8.0000E+0	235.3897E-12	-48.8357E-9	161.9793E-12
10.0000E+0	275.7139E-12	-49.0125E-9	172.8667E-12
12.0000E+0	309.7178E-12	-48.8869E-9	228.9630E-12
14.0000E+0	337.5836E-12	-48.9501E-9	266.5695E-12
16.0000E+0	369.3400E-12	-48.8091E-9	133.9069E-12
18.0000E+0	402.0161E-12	-48.8032E-9	147.8341E-12
20.0000E+0	439.6501E-12	-48.8649E-9	176.2486E-12
22.0000E+0	478.6392E-12	-48.9483E-9	245.6908E-12
24.0000E+0	514.2918E-12	-48.8443E-9	212.6077E-12
26.0000E+0	541.0496E-12	-48.8830E-9	121.4209E-12
28.0000E+0	558.4084E-12	-48.8717E-9	220.6764E-12
30.0000E+0	570.7195E-12	-48.8066E-9	224.7879E-12
32.0000E+0	581.0316E-12	-48.9318E-9	154.5161E-12
34.0000E+0	593.4722E-12	-48.8935E-9	182.7248E-12
36.0000E+0	606.2495E-12	-48.8231E-9	311.3091E-12
38.0000E+0	618.6669E-12	-48.9200E-9	197.1424E-12
40.0000E+0	633.8931E-12	-48.9690E-9	258.7036E-12
42.0000E+0	649.6771E-12	-48.9888E-9	275.0045E-12
44.0000E+0	668.6162E-12	-48.7232E-9	139.8714E-12
46.0000E+0	688.8112E-12	-48.8971E-9	242.9841E-12
48.0000E+0	719.0481E-12	-48.8071E-9	245.1579E-12
50.0000E+0	776.7484E-12	-48.7682E-9	112.1866E-12
50.1000E+0	780.3336E-12	-48.8344E-9	187.2269E-12
50.2000E+0	785.2677E-12	-48.9547E-9	158.5066E-12
50.3000E+0	792.5792E-12	-48.9632E-9	103.1097E-12
50.4000E+0	799.2583E-12	-48.8210E-9	146.9924E-12
50.5000E+0	809.5382E-12	-48.7445E-9	236.4746E-12
50.6000E+0	818.1727E-12	-48.7564E-9	221.8299E-12
50.7000E+0	828.1040E-12	-48.8497E-9	134.6154E-12
50.8000E+0	843.0010E-12	-48.9147E-9	154.0771E-12
50.9000E+0	857.6389E-12	-48.7285E-9	135.4329E-12
51.0000E+0	877.9609E-12	-48.9681E-9	136.9255E-12
51.1000E+0	903.7881E-12	-48.7146E-9	232.3994E-12
51.2000E+0	935.9677E-12	-48.8722E-9	251.7703E-12
51.3000E+0	982.6362E-12	-48.5288E-9	188.2593E-12
51.4000E+0	1.0569E-9	-48.8859E-9	281.8682E-12
51.5000E+0	1.1771E-9	-48.8895E-9	175.1405E-12
51.6000E+0	1.4414E-9	-48.8324E-9	167.9831E-12
51.7000E+0	2.1628E-9	-48.8308E-9	240.2955E-12
51.8000E+0	5.9335E-9	-48.7352E-9	212.8196E-12
51.9000E+0	24.1245E-9	-48.9311E-9	154.3314E-12
52.0000E+0	74.8137E-9	-48.8489E-9	253.5778E-12
52.1000E+0	155.3525E-9	-48.9394E-9	169.4909E-12
52.2000E+0	260.9812E-9	-48.8320E-9	176.2547E-12
52.3000E+0	383.9518E-9	-48.9512E-9	186.2277E-12
52.4000E+0	521.4478E-9	-48.7787E-9	143.5803E-12
52.5000E+0	677.7834E-9	-49.0156E-9	210.7911E-12
52.6000E+0	855.1664E-9	-48.6517E-9	137.2283E-12
52.7000E+0	1.0359E-6	-48.5823E-9	153.8349E-12
52.8000E+0	1.2301E-6	-48.8512E-9	174.9346E-12
52.9000E+0	1.4468E-6	-48.8519E-9	244.3041E-12
53.0000E+0	1.6777E-6	-48.5163E-9	237.6039E-12
53.1000E+0	1.8878E-6	-48.9241E-9	216.5557E-12
53.2000E+0	2.0948E-6	-48.7346E-9	184.3082E-12
53.3000E+0	2.3669E-6	-48.7479E-9	218.5419E-12
53.4000E+0	2.5941E-6	-48.9706E-9	220.8520E-12
53.5000E+0	2.8416E-6	-48.8115E-9	201.2509E-12
53.6000E+0	3.1341E-6	-48.7144E-9	298.4385E-12
53.7000E+0	3.4189E-6	-48.9787E-9	185.0197E-12
53.8000E+0	3.6857E-6	-48.8963E-9	168.7249E-12
53.9000E+0	3.9557E-6	-48.8135E-9	125.2690E-12
54.0000E+0	4.2047E-6	-48.8248E-9	110.2398E-12
54.1000E+0	4.4789E-6	-48.7827E-9	113.1160E-12
54.2000E+0	4.7689E-6	-48.8113E-9	223.8251E-12
54.3000E+0	5.1177E-6	-48.7987E-9	171.6587E-12
54.4000E+0	5.3895E-6	-48.8554E-9	142.2118E-12
54.5000E+0	5.7148E-6	-48.8193E-9	153.6563E-12
54.6000E+0	6.0229E-6	-48.8194E-9	277.9867E-12
54.7000E+0	6.3778E-6	-48.7703E-9	209.9009E-12
54.8000E+0	6.6404E-6	-48.9981E-9	281.7683E-12
54.9000E+0	7.0266E-6	-48.8835E-9	132.4173E-12
55.0000E+0	7.2921E-6	-48.7543E-9	160.6320E-12
55.1000E+0	7.6180E-6	-49.0334E-9	194.0966E-12
55.2000E+0	7.9403E-6	-48.7724E-9	118.9473E-12
55.3000E+0	8.3427E-6	-48.9038E-9	138.8813E-12
55.4000E+0	8.6555E-6	-48.7278E-9	117.1852E-12
55.5000E+0	8.9104E-6	-48.8357E-9	122.0930E-12
55.6000E+0	9.2211E-6	-48.7890E-9	155.1156E-12
55.7000E+0	9.6766E-6	-48.7558E-9	180.2391E-12
55.8000E+0	9.9394E-6	-48.7438E-9	215.3537E-12
55.9000E+0	10.2649E-6	-48.7004E-9	163.6294E-12
56.0000E+0	10.6365E-6	-48.7129E-9	214.7391E-12
56.1000E+0	10.9730E-6	-48.7629E-9	224.3519E-12
56.2000E+0	11.3313E-6	-48.6801E-9	116.8007E-12
56.3000E+0	11.7802E-6	-48.6648E-9	198.7622E-12
56.4000E+0	12.1511E-6	-48.9010E-9	192.7614E-12
56.5000E+0	12.5271E-6	-48.7682E-9	125.4144E-12
56.6000E+0	12.8317E-6	-48.8681E-9	252.6786E-12
56.7000E+0	13.3704E-6	-48.7852E-9	78.9369E-12
56.8000E+0	13.5053E-6	-48.9572E-9	266.7330E-12
56.9000E+0	14.0862E-6	-49.0325E-9	214.5484E-12
57.0000E+0	14.4905E-6	-48.7771E-9	158.2492E-12
57.1000E+0	14.8582E-6	-48.8492E-9	199.0741E-12
57.2000E+0	15.1932E-6	-48.7813E-9	238.0853E-12
57.3000E+0	15.4246E-6	-48.8707E-9	169.9057E-12
57.4000E+0	15.9798E-6	-48.7286E-9	128.7145E-12
57.5000E+0	16.4462E-6	-48.6798E-9	133.9947E-12
57.6000E+0	16.9099E-6	-48.7290E-9	135.3420E-12
57.7000E+0	17.2672E-6	-48.9427E-9	217.0068E-12
57.8000E+0	17.5057E-6	-48.8620E-9	198.0537E-12
57.9000E+0	18.0296E-6	-49.0116E-9	193.9119E-12
58.0000E+0	18.5466E-6	-48.8550E-9	291.8806E-12
58.1000E+0	18.6121E-6	-48.3594E-9	173.8537E-12
58.2000E+0	19.3541E-6	-49.0353E-9	161.0256E-12
58.3000E+0	19.7288E-6	-48.9283E-9	222.3264E-12
58.4000E+0	20.2630E-6	-48.8257E-9	163.2509E-12
58.5000E+0	20.5463E-6	-48.7633E-9	145.1940E-12
58.6000E+0	21.2260E-6	-48.8051E-9	289.9611E-12
58.7000E+0	21.6324E-6	-48.8938E-9	234.7670E-12
58.8000E+0	22.0777E-6	-48.7786E-9	195.1533E-12
58.9000E+0	22.6681E-6	-48.8704E-9	269.3670E-12
59.0000E+0	23.1283E-6	-48.5662E-9	77.6017E-12
59.1000E+0	23.2811E-6	-48.8096E-9	291.5658E-12
59.2000E+0	23.8989E-6	-48.9283E-9	156.8838E-12
59.3000E+0	24.7513E-6	-48.8494E-9	229.7321E-12
59.4000E+0	25.0284E-6	-48.4680E-9	184.6746E-12
59.5000E+0	25.5117E-6	-48.7622E-9	183.5664E-12
59.6000E+0	26.0577E-6	-48.9382E-9	258.4554E-12
59.7000E+0	26.3866E-6	-48.8493E-9	254.6648E-12
59.8000E+0	27.1958E-6	-48.8782E-9	182.8398E-12
59.9000E+0	27.5456E-6	-48.8518E-9	140.6283E-12
60.0000E+0	28.3310E-6	-48.9108E-9	202.8919E-12
60.1000E+0	28.5209E-6	-48.8560E-9	189.9033E-12
60.2000E+0	29.7598E-6	-49.0139E-9	147.4617E-12
60.3000E+0	29.8130E-6	-48.9184E-9	199.9581E-12
60.4000E+0	30.1249E-6	-48.8141E-9	236.9439E-12
60.5000E+0	31.3210E-6	-48.7114E-9	136.0414E-12
60.6000E+0	31.5491E-6	-48.7766E-9	155.3851E-12
60.7000E+0	32.5449E-6	-48.9196E-9	162.8906E-12
60.8000E+0	33.0031E-6	-48.8074E-9	159.0031E-12
60.9000E+0	33.6427E-6	-48.8046E-9	86.1215E-12
61.0000E+0	33.9498E-6	-48.9180E-9	177.8109E-12
61.1000E+0	34.8609E-6	-48.8128E-9	138.5725E-12
61.2000E+0	35.7439E-6	-48.7472E-9	260.3204E-12
61.3000E+0	36.0353E-6	-48.7993E-9	101.5595E-12
61.4000E+0	36.5598E-6	-48.9051E-9	230.6343E-12
61.5000E+0	37.5321E-6	-48.8056E-9	224.2338E-12
61.6000E+0	38.1611E-6	-48.5700E-9	130.0860E-12
61.7000E+0	38.9191E-6	-48.7554E-9	240.2047E-12
61.8000E+0	39.7919E-6	-48.7479E-9	275.4042E-12
61.9000E+0	40.1294E-6	-48.5806E-9	250.4684E-12
62.0000E+0	40.9142E-6	-48.5695E-9	168.9489E-12
62.1000E+0	42.0291E-6	-48.6976E-9	165.6125E-12
62.2000E+0	42.8546E-6	-48.7411E-9	125.6747E-12
62.3000E+0	43.2178E-6	-48.8442E-9	155.3306E-12
62.4000E+0	44.0292E-6	-48.6846E-9	77.0779E-12
62.5000E+0	45.1945E-6	-48.9202E-9	156.7990E-12
62.6000E+0	45.7230E-6	-48.7988E-9	213.2859E-12
62.7000E+0	46.2408E-6	-48.6619E-9	133.4982E-12
62.8000E+0	47.1572E-6	-48.7420E-9	232.3449E-12
62.9000E+0	48.1342E-6	-48.7233E-9	183.9358E-12
63.0000E+0	49.2147E-6	-48.6663E-9	289.8854E-12
63.1000E+0	49.6104E-6	-48.6479E-9	238.2398E-12
63.2000E+0	51.3918E-6	-48.8429E-9	303.0042E-12
63.3000E+0	51.7774E-6	-48.8897E-9	88.1985E-12
63.4000E+0	52.7940E-6	-48.8026E-9	183.6300E-12
63.5000E+0	53.4931E-6	-48.9564E-9	287.6207E-12
63.6000E+0	54.8373E-6	-48.6600E-9	154.8401E-12
63.7000E+0	55.8738E-6	-48.8703E-9	181.2594E-12
63.8000E+0	56.3899E-6	-48.9546E-9	119.9585E-12
63.9000E+0	58.2463E-6	-48.8684E-9	245.9875E-12
