Voltage(V)	Current(A)	DiodeCurrent(A)	DiodeCurrent Std(A)
0.0000E+0	602.3847E-15	-108.8628E-9	455.6008E-12
2.0000E+0	40.6101E-12	-109.2619E-9	342.6695E-12
4.0000E+0	68.4513E-12	-109.8271E-9	504.0130E-12
6.0000E+0	182.3627E-12	-109.4614E-9	320.2649E-12
8.0000E+0	239.1559E-12	-108.4328E-9	267.4021E-12
10.0000E+0	281.0057E-12	-107.9562E-9	281.7834E-12
12.0000E+0	313.7324E-12	-107.3662E-9	432.4999E-12
14.0000E+0	347.2002E-12	-107.4466E-9	371.4019E-12
16.0000E+0	376.7064E-12	-107.6356E-9	197.3120E-12
18.0000E+0	411.2974E-12	-107.4615E-9	221.2607E-12
20.0000E+0	448.8443E-12	-107.5405E-9	250.4775E-12
22.0000E+0	487.0885E-12	-107.8950E-9	553.6967E-12
24.0000E+0	524.9318E-12	-108.0522E-9	389.5980E-12
26.0000E+0	550.8605E-12	-108.8733E-9	481.6386E-12
28.0000E+0	566.4728E-12	-109.1149E-9	173.4541E-12
30.0000E+0	579.0939E-12	-108.9718E-9	415.5147E-12
32.0000E+0	588.8778E-12	-109.2751E-9	313.0288E-12
34.0000E+0	599.9153E-12	-108.7293E-9	345.9999E-12
36.0000E+0	611.8633E-12	-108.6177E-9	223.0773E-12
38.0000E+0	624.2764E-12	-108.6189E-9	272.7610E-12
40.0000E+0	638.4185E-12	-108.4409E-9	185.8977E-12
42.0000E+0	652.3238E-12	-108.1328E-9	783.7073E-12
44.0000E+0	670.3507E-12	-107.9229E-9	743.4698E-12
46.0000E+0	686.9670E-12	-108.8562E-9	145.9327E-12
48.0000E+0	709.1165E-12	-109.5938E-9	134.4882E-12
50.0000E+0	745.1000E-12	-109.3425E-9	710.5290E-12
50.1000E+0	745.3063E-12	-108.8884E-9	217.8394E-12
50.2000E+0	747.7773E-12	-108.8572E-9	224.6819E-12
50.3000E+0	751.2222E-12	-108.6543E-9	167.9740E-12
50.4000E+0	755.0259E-12	-108.5650E-9	189.5915E-12
50.5000E+0	758.3841E-12	-107.6519E-9	720.5202E-12
50.6000E+0	761.9694E-12	-108.3496E-9	169.5484E-12
50.7000E+0	766.3062E-12	-108.2114E-9	176.5120E-12
50.8000E+0	773.9943E-12	-108.4221E-9	341.8217E-12
50.9000E+0	779.1332E-12	-108.0128E-9	182.7490E-12
51.0000E+0	788.2105E-12	-109.0336E-9	215.5990E-12
51.1000E+0	799.1058E-12	-109.2887E-9	306.4285E-12
51.2000E+0	811.6094E-12	-109.0912E-9	703.6259E-12
51.3000E+0	831.4293E-12	-109.2396E-9	492.9620E-12
51.4000E+0	856.0161E-12	-108.8801E-9	168.0649E-12
51.5000E+0	901.0056E-12	-108.5869E-9	216.8403E-12
51.6000E+0	991.4690E-12	-108.2905E-9	229.1023E-12
51.7000E+0	1.2405E-9	-108.2902E-9	304.0064E-12
51.8000E+0	2.3095E-9	-108.1179E-9	209.7253E-12
51.9000E+0	7.9452E-9	-108.3370E-9	163.2206E-12
52.0000E+0	26.0279E-9	-108.3337E-9	493.6584E-12
52.1000E+0	57.8340E-9	-108.5483E-9	297.5575E-12
52.2000E+0	99.5995E-9	-107.9409E-9	554.3325E-12
52.3000E+0	151.3626E-9	-109.3179E-9	428.8969E-12
52.4000E+0	211.0977E-9	-109.4285E-9	410.0650E-12
52.5000E+0	278.6677E-9	-109.3938E-9	181.5985E-12
52.6000E+0	355.7779E-9	-109.1033E-9	490.2977E-12
52.7000E+0	438.8800E-9	-108.8341E-9	295.8317E-12
52.8000E+0	522.0140E-9	-108.8830E-9	274.8804E-12
52.9000E+0	614.0026E-9	-108.3688E-9	207.0005E-12
53.0000E+0	716.1693E-9	-107.4909E-9	619.6995E-12
53.1000E+0	824.3592E-9	-108.3864E-9	368.8889E-12
53.2000E+0	923.8848E-9	-108.2834E-9	284.2661E-12
53.3000E+0	1.0386E-6	-108.2979E-9	329.5597E-12
53.4000E+0	1.1572E-6	-108.5141E-9	172.1219E-12
53.5000E+0	1.2867E-6	-107.8399E-9	698.6606E-12
53.6000E+0	1.4098E-6	-108.8933E-9	743.2882E-12
53.7000E+0	1.5428E-6	-109.3857E-9	428.2914E-12
53.8000E+0	1.6734E-6	-108.9070E-9	230.0712E-12
53.9000E+0	1.8003E-6	-108.4456E-9	422.8416E-12
54.0000E+0	1.9481E-6	-108.0991E-9	534.5014E-12
54.1000E+0	2.0971E-6	-108.4287E-9	214.5696E-12
54.2000E+0	2.2441E-6	-108.3259E-9	289.8975E-12
54.3000E+0	2.3999E-6	-108.3025E-9	197.1909E-12
54.4000E+0	2.5667E-6	-108.0828E-9	403.7372E-12
54.5000E+0	2.7029E-6	-108.0800E-9	592.1479E-12
54.6000E+0	2.8875E-6	-108.4534E-9	172.7577E-12
54.7000E+0	3.0303E-6	-108.0001E-9	784.4037E-12
54.8000E+0	3.1948E-6	-109.1433E-9	326.5321E-12
54.9000E+0	3.3663E-6	-108.9421E-9	590.6340E-12
55.0000E+0	3.5371E-6	-108.7383E-9	397.8635E-12
55.1000E+0	3.7084E-6	-108.5017E-9	526.9928E-12
55.2000E+0	3.9147E-6	-108.5383E-9	453.8751E-12
55.3000E+0	4.0722E-6	-107.7880E-9	585.0329E-12
55.4000E+0	4.3005E-6	-107.0137E-9	680.9186E-12
55.5000E+0	4.4218E-6	-107.8055E-9	179.8122E-12
55.6000E+0	4.5907E-6	-107.3251E-9	495.5053E-12
55.7000E+0	4.8500E-6	-108.2654E-9	138.9994E-12
55.8000E+0	5.0674E-6	-108.3782E-9	214.5393E-12
55.9000E+0	5.2301E-6	-108.4208E-9	183.5362E-12
56.0000E+0	5.4501E-6	-108.3786E-9	251.7189E-12
56.1000E+0	5.7266E-6	-108.1973E-9	657.4846E-12
56.2000E+0	5.8110E-6	-108.5309E-9	493.2042E-12
56.3000E+0	6.0953E-6	-108.8269E-9	208.2115E-12
56.4000E+0	6.2649E-6	-108.8423E-9	546.1881E-12
56.5000E+0	6.5537E-6	-108.8792E-9	488.9050E-12
56.6000E+0	6.7737E-6	-109.0039E-9	207.4546E-12
56.7000E+0	6.9413E-6	-108.2915E-9	224.4397E-12
56.8000E+0	7.2207E-6	-108.6759E-9	196.7064E-12
56.9000E+0	7.4216E-6	-107.2109E-9	996.0061E-12
57.0000E+0	7.7350E-6	-108.7296E-9	209.2106E-12
57.1000E+0	7.9205E-6	-109.0368E-9	334.5856E-12
57.2000E+0	8.2265E-6	-108.2803E-9	355.8095E-12
57.3000E+0	8.3669E-6	-108.8195E-9	302.0687E-12
57.4000E+0	8.6823E-6	-108.6417E-9	322.0512E-12
57.5000E+0	8.9258E-6	-108.9174E-9	571.8929E-12
57.6000E+0	9.1713E-6	-108.7822E-9	95.5224E-12
57.7000E+0	9.4198E-6	-108.6628E-9	181.3563E-12
57.8000E+0	9.6584E-6	-108.4345E-9	268.0682E-12
57.9000E+0	10.0284E-6	-108.6743E-9	224.0158E-12
58.0000E+0	10.2980E-6	-108.3265E-9	586.4559E-12
58.1000E+0	10.5372E-6	-107.5126E-9	860.5188E-12
58.2000E+0	10.8284E-6	-108.3182E-9	400.3159E-12
58.3000E+0	10.9768E-6	-108.6664E-9	383.1794E-12
58.4000E+0	11.4083E-6	-108.3284E-9	646.8272E-12
58.5000E+0	11.7887E-6	-108.3779E-9	651.8834E-12
58.6000E+0	12.1089E-6	-109.4853E-9	273.4574E-12
58.7000E+0	12.3778E-6	-108.4637E-9	376.1856E-12
58.8000E+0	12.4559E-6	-108.7431E-9	363.8933E-12
58.9000E+0	12.8452E-6	-108.7505E-9	321.7484E-12
59.0000E+0	13.2915E-6	-107.7808E-9	579.7345E-12
59.1000E+0	13.5882E-6	-107.7557E-9	300.1613E-12
59.2000E+0	13.8639E-6	-108.0516E-9	247.1471E-12
59.3000E+0	14.1289E-6	-107.9133E-9	401.9509E-12
59.4000E+0	14.5466E-6	-107.8945E-9	468.8922E-12
59.5000E+0	14.9028E-6	-107.7494E-9	343.9714E-12
59.6000E+0	15.2184E-6	-107.8892E-9	229.4959E-12
59.7000E+0	15.6326E-6	-108.5248E-9	209.9373E-12
59.8000E+0	16.0861E-6	-108.8940E-9	458.0229E-12
59.9000E+0	16.5156E-6	-109.0945E-9	200.6727E-12
60.0000E+0	16.8047E-6	-108.0772E-9	250.0234E-12
60.1000E+0	16.9922E-6	-108.0771E-9	109.0560E-12
60.2000E+0	17.5760E-6	-108.3367E-9	237.3678E-12
60.3000E+0	17.8990E-6	-108.1193E-9	391.8688E-12
60.4000E+0	18.3735E-6	-108.1548E-9	364.0144E-12
60.5000E+0	18.5321E-6	-108.0045E-9	116.9581E-12
60.6000E+0	19.2290E-6	-107.8734E-9	291.3205E-12
60.7000E+0	19.7007E-6	-108.3911E-9	261.1348E-12
60.8000E+0	19.8410E-6	-108.1689E-9	220.6249E-12
60.9000E+0	20.5004E-6	-108.1936E-9	245.4213E-12
61.0000E+0	20.9450E-6	-107.7261E-9	809.6240E-12
61.1000E+0	21.3846E-6	-108.8330E-9	336.4931E-12
61.2000E+0	22.0787E-6	-108.8553E-9	284.4478E-12
61.3000E+0	22.5172E-6	-107.7494E-9	603.0777E-12
61.4000E+0	22.7914E-6	-107.9341E-9	583.1557E-12
61.5000E+0	23.4330E-6	-107.8815E-9	187.3510E-12
61.6000E+0	23.6758E-6	-107.8426E-9	588.7266E-12
61.7000E+0	24.2054E-6	-108.0210E-9	250.8106E-12
61.8000E+0	24.8663E-6	-107.3274E-9	465.4407E-12
61.9000E+0	25.4995E-6	-107.9505E-9	427.8373E-12
62.0000E+0	25.9038E-6	-108.0145E-9	629.2063E-12
62.1000E+0	26.3954E-6	-108.4134E-9	501.2578E-12
62.2000E+0	26.9943E-6	-109.1017E-9	205.0325E-12
62.3000E+0	27.4105E-6	-108.9533E-9	368.1623E-12
62.4000E+0	28.5308E-6	-108.2525E-9	252.9905E-12
62.5000E+0	28.6187E-6	-108.6249E-9	327.3193E-12
62.6000E+0	29.7708E-6	-107.3913E-9	1.0478E-9
62.7000E+0	29.8848E-6	-108.2363E-9	140.8766E-12
62.8000E+0	30.7679E-6	-108.0584E-9	386.5704E-12
62.9000E+0	31.1696E-6	-108.0050E-9	277.1208E-12
63.0000E+0	32.1168E-6	-108.0756E-9	351.6010E-12
63.1000E+0	32.5967E-6	-107.8137E-9	105.6347E-12
63.2000E+0	33.0237E-6	-107.9765E-9	266.3424E-12
63.3000E+0	33.9437E-6	-107.9125E-9	167.1566E-12
63.4000E+0	34.1881E-6	-108.4806E-9	592.6323E-12
63.5000E+0	35.6747E-6	-108.3997E-9	735.0530E-12
63.6000E+0	36.5352E-6	-108.6860E-9	492.3868E-12
63.7000E+0	36.9932E-6	-108.6227E-9	213.1163E-12
63.8000E+0	37.8902E-6	-108.2124E-9	335.6150E-12
63.9000E+0	38.4314E-6	-107.9744E-9	357.7472E-12
