Voltage(V)	Current(A)	DiodeCurrent(A)	DiodeCurrent Std(A)
0.0000E+0	2.9300E-12	-66.3905E-9	137.6007E-12
2.0000E+0	42.8185E-12	-66.1983E-9	190.8631E-12
4.0000E+0	73.4322E-12	-66.3017E-9	82.4278E-12
6.0000E+0	189.1199E-12	-66.2956E-9	186.8636E-12
8.0000E+0	250.4857E-12	-66.4148E-9	56.5414E-12
10.0000E+0	293.2154E-12	-66.4893E-9	88.3953E-12
12.0000E+0	331.7841E-12	-66.7516E-9	165.9849E-12
14.0000E+0	363.6208E-12	-66.8699E-9	177.5323E-12
16.0000E+0	393.9858E-12	-66.9711E-9	239.5719E-12
18.0000E+0	430.4881E-12	-66.8964E-9	353.8899E-12
20.0000E+0	471.3154E-12	-67.4250E-9	236.1476E-12
22.0000E+0	511.3739E-12	-67.3920E-9	262.0280E-12
24.0000E+0	550.0347E-12	-67.0620E-9	99.9458E-12
26.0000E+0	578.0288E-12	-66.5346E-9	268.6676E-12
28.0000E+0	592.8832E-12	-66.4682E-9	177.2871E-12
30.0000E+0	606.4522E-12	-66.3470E-9	131.2850E-12
32.0000E+0	618.3360E-12	-66.3144E-9	131.3516E-12
34.0000E+0	630.9634E-12	-66.2332E-9	210.2279E-12
36.0000E+0	645.2627E-12	-66.2361E-9	117.8725E-12
38.0000E+0	657.4077E-12	-66.0912E-9	112.3803E-12
40.0000E+0	671.8515E-12	-66.3065E-9	154.5525E-12
42.0000E+0	689.1480E-12	-66.6192E-9	88.5012E-12
44.0000E+0	709.0005E-12	-66.6420E-9	158.9638E-12
46.0000E+0	728.8161E-12	-67.0104E-9	267.3234E-12
48.0000E+0	756.6782E-12	-66.9619E-9	349.2546E-12
50.0000E+0	806.4390E-12	-67.2986E-9	125.1782E-12
50.1000E+0	810.9518E-12	-67.3556E-9	88.6163E-12
50.2000E+0	813.3960E-12	-67.1217E-9	149.9747E-12
50.3000E+0	818.5802E-12	-66.8702E-9	119.8041E-12
50.4000E+0	824.2985E-12	-66.5665E-9	113.3552E-12
50.5000E+0	830.2081E-12	-66.4558E-9	250.2141E-12
50.6000E+0	837.5564E-12	-66.6093E-9	113.0131E-12
50.7000E+0	845.1082E-12	-66.6504E-9	111.3933E-12
50.8000E+0	855.4524E-12	-66.6914E-9	124.7271E-12
50.9000E+0	867.0172E-12	-66.2492E-9	283.0581E-12
51.0000E+0	882.2558E-12	-66.7223E-9	150.7740E-12
51.1000E+0	900.7616E-12	-66.5482E-9	125.8564E-12
51.2000E+0	924.7388E-12	-66.8141E-9	156.7838E-12
51.3000E+0	957.0881E-12	-67.2106E-9	186.3640E-12
51.4000E+0	1.0050E-9	-66.9796E-9	148.1944E-12
51.5000E+0	1.0806E-9	-67.0867E-9	198.4837E-12
51.6000E+0	1.2113E-9	-66.9046E-9	64.1983E-12
51.7000E+0	1.5751E-9	-67.0276E-9	257.5440E-12
51.8000E+0	2.8811E-9	-66.5113E-9	303.2192E-12
51.9000E+0	9.9381E-9	-66.9403E-9	183.6209E-12
52.0000E+0	37.1095E-9	-66.8875E-9	78.9884E-12
52.1000E+0	90.7596E-9	-66.7931E-9	148.7878E-12
52.2000E+0	166.8657E-9	-66.5810E-9	181.3774E-12
52.3000E+0	261.3651E-9	-66.8097E-9	144.0314E-12
52.4000E+0	372.9458E-9	-66.8390E-9	293.2915E-12
52.5000E+0	500.8474E-9	-67.0395E-9	111.7203E-12
52.6000E+0	641.0596E-9	-67.3164E-9	202.4166E-12
52.7000E+0	794.3479E-9	-67.2346E-9	429.3087E-12
52.8000E+0	954.4533E-9	-67.0662E-9	191.2839E-12
52.9000E+0	1.1149E-6	-67.2248E-9	256.4965E-12
53.0000E+0	1.3103E-6	-66.6410E-9	65.9604E-12
53.1000E+0	1.4897E-6	-66.3838E-9	142.4176E-12
53.2000E+0	1.6664E-6	-66.1171E-9	171.7071E-12
53.3000E+0	1.8968E-6	-65.9797E-9	160.9802E-12
53.4000E+0	2.0993E-6	-65.9445E-9	176.5665E-12
53.5000E+0	2.3201E-6	-65.6907E-9	131.3546E-12
53.6000E+0	2.5321E-6	-65.9817E-9	122.5018E-12
53.7000E+0	2.7856E-6	-65.9846E-9	191.4898E-12
53.8000E+0	2.9947E-6	-66.3466E-9	175.7157E-12
53.9000E+0	3.2838E-6	-66.3196E-9	325.0092E-12
54.0000E+0	3.5209E-6	-66.7039E-9	76.6329E-12
54.1000E+0	3.8280E-6	-66.8819E-9	289.0649E-12
54.2000E+0	4.0985E-6	-66.4437E-9	539.8513E-12
54.3000E+0	4.3921E-6	-67.1181E-9	239.8293E-12
54.4000E+0	4.6360E-6	-66.5651E-9	661.6324E-12
54.5000E+0	4.9656E-6	-66.9969E-9	128.4117E-12
54.6000E+0	5.2482E-6	-66.9378E-9	135.4843E-12
54.7000E+0	5.4746E-6	-66.4470E-9	178.6405E-12
54.8000E+0	5.7368E-6	-66.4657E-9	82.5489E-12
54.9000E+0	6.0392E-6	-66.1093E-9	364.4958E-12
55.0000E+0	6.3670E-6	-66.2653E-9	249.9931E-12
55.1000E+0	6.6462E-6	-66.1379E-9	259.0306E-12
55.2000E+0	6.9931E-6	-66.6224E-9	91.3775E-12
55.3000E+0	7.3033E-6	-66.5744E-9	131.2577E-12
55.4000E+0	7.6893E-6	-66.3132E-9	351.1106E-12
55.5000E+0	7.9798E-6	-66.8759E-9	246.3811E-12
55.6000E+0	8.3747E-6	-66.8988E-9	234.1827E-12
55.7000E+0	8.6871E-6	-67.3607E-9	366.3669E-12
55.8000E+0	9.0953E-6	-67.2449E-9	139.3839E-12
55.9000E+0	9.3860E-6	-66.9596E-9	223.4588E-12
56.0000E+0	9.6271E-6	-66.8229E-9	152.9085E-12
56.1000E+0	10.0299E-6	-66.5238E-9	156.0088E-12
56.2000E+0	10.3467E-6	-66.1648E-9	55.8390E-12
56.3000E+0	10.6822E-6	-65.9172E-9	86.9935E-12
56.4000E+0	11.1387E-6	-66.1812E-9	99.1858E-12
56.5000E+0	11.4606E-6	-66.1977E-9	163.1328E-12
56.6000E+0	11.7757E-6	-66.1574E-9	92.4251E-12
56.7000E+0	12.2385E-6	-66.1728E-9	397.6395E-12
56.8000E+0	12.5274E-6	-66.5013E-9	235.1909E-12
56.9000E+0	13.0225E-6	-66.6573E-9	81.3318E-12
57.0000E+0	13.5132E-6	-66.4619E-9	312.8925E-12
57.1000E+0	13.7935E-6	-66.2998E-9	722.1612E-12
57.2000E+0	14.1002E-6	-67.2941E-9	184.4929E-12
57.3000E+0	14.7233E-6	-67.1236E-9	108.2173E-12
57.4000E+0	15.0982E-6	-66.9203E-9	121.5178E-12
57.5000E+0	15.4953E-6	-66.6063E-9	214.4636E-12
57.6000E+0	15.8565E-6	-66.3717E-9	214.6967E-12
57.7000E+0	16.2107E-6	-66.2526E-9	243.0144E-12
57.8000E+0	16.7532E-6	-66.3530E-9	27.9240E-12
57.9000E+0	16.9191E-6	-66.2588E-9	177.4688E-12
58.0000E+0	17.5171E-6	-66.2866E-9	154.7190E-12
58.1000E+0	17.9706E-6	-66.5438E-9	183.2667E-12
58.2000E+0	18.4650E-6	-66.6288E-9	226.0807E-12
58.3000E+0	18.9553E-6	-66.6855E-9	55.2758E-12
58.4000E+0	19.5224E-6	-66.5599E-9	251.8823E-12
58.5000E+0	19.9752E-6	-66.9838E-9	186.2822E-12
58.6000E+0	20.4832E-6	-67.0835E-9	121.1938E-12
58.7000E+0	21.1801E-6	-67.3247E-9	255.1734E-12
58.8000E+0	21.4389E-6	-67.3519E-9	211.8144E-12
58.9000E+0	22.0387E-6	-67.0361E-9	107.2303E-12
59.0000E+0	22.4691E-6	-66.8479E-9	91.2958E-12
59.1000E+0	23.0744E-6	-66.4578E-9	232.7476E-12
59.2000E+0	23.5418E-6	-66.5099E-9	136.2745E-12
59.3000E+0	23.9272E-6	-66.2642E-9	180.1694E-12
59.4000E+0	24.5198E-6	-66.3988E-9	263.5327E-12
59.5000E+0	25.0455E-6	-66.5262E-9	204.5299E-12
59.6000E+0	25.7383E-6	-66.5720E-9	186.2944E-12
59.7000E+0	26.1399E-6	-66.3427E-9	229.9167E-12
59.8000E+0	26.9119E-6	-66.5868E-9	228.9570E-12
59.9000E+0	27.5203E-6	-66.6001E-9	127.2824E-12
60.0000E+0	28.0571E-6	-66.9852E-9	138.3818E-12
60.1000E+0	28.8018E-6	-67.1973E-9	130.7491E-12
60.2000E+0	29.3660E-6	-67.0249E-9	420.2712E-12
60.3000E+0	30.3493E-6	-66.9112E-9	230.4980E-12
60.4000E+0	30.5596E-6	-66.9179E-9	62.9903E-12
60.5000E+0	31.3120E-6	-66.3430E-9	230.7130E-12
60.6000E+0	31.8494E-6	-66.4805E-9	135.6085E-12
60.7000E+0	32.1366E-6	-66.2724E-9	95.2741E-12
60.8000E+0	32.6996E-6	-66.0678E-9	201.9564E-12
60.9000E+0	33.7156E-6	-66.0535E-9	71.5313E-12
61.0000E+0	34.2604E-6	-66.2196E-9	101.6110E-12
61.1000E+0	35.0706E-6	-66.1596E-9	84.8620E-12
61.2000E+0	35.9263E-6	-66.2673E-9	222.4445E-12
61.3000E+0	36.6703E-6	-66.4831E-9	93.2183E-12
61.4000E+0	37.3457E-6	-66.7396E-9	66.0209E-12
61.5000E+0	38.2664E-6	-66.9459E-9	305.5626E-12
61.6000E+0	39.1299E-6	-66.9759E-9	280.9417E-12
61.7000E+0	39.9572E-6	-67.4328E-9	141.9847E-12
61.8000E+0	40.6876E-6	-67.4388E-9	129.4654E-12
61.9000E+0	41.5841E-6	-66.9137E-9	258.8550E-12
62.0000E+0	42.2429E-6	-66.5116E-9	205.8076E-12
62.1000E+0	42.8546E-6	-66.7686E-9	137.9609E-12
62.2000E+0	44.0457E-6	-66.4444E-9	147.4284E-12
62.3000E+0	45.0455E-6	-66.2254E-9	123.1709E-12
62.4000E+0	45.6046E-6	-66.4256E-9	149.5447E-12
62.5000E+0	46.2639E-6	-66.4209E-9	137.3554E-12
62.6000E+0	47.2713E-6	-66.3970E-9	166.1302E-12
62.7000E+0	48.2339E-6	-66.3240E-9	278.1926E-12
62.8000E+0	49.1015E-6	-65.8010E-9	684.9302E-12
62.9000E+0	50.1545E-6	-66.5013E-9	354.1533E-12
63.0000E+0	51.2355E-6	-67.0310E-9	259.2910E-12
63.1000E+0	52.8961E-6	-66.7559E-9	361.2017E-12
63.2000E+0	53.3700E-6	-67.0768E-9	246.1359E-12
63.3000E+0	54.9276E-6	-67.1330E-9	52.7114E-12
63.4000E+0	55.3210E-6	-67.0118E-9	78.3980E-12
63.5000E+0	56.8677E-6	-66.6914E-9	82.5065E-12
63.6000E+0	57.3422E-6	-66.5149E-9	270.8657E-12
63.7000E+0	58.5002E-6	-66.3277E-9	61.0314E-12
63.8000E+0	59.5036E-6	-66.0979E-9	239.2268E-12
63.9000E+0	60.1986E-6	-66.1357E-9	129.9437E-12
