Voltage(V)	Current(A)	DiodeCurrent(A)	DiodeCurrent Std(A)
0.0000E+0	1.1637E-12	-65.6436E-9	92.7823E-12
2.0000E+0	41.0220E-12	-65.5668E-9	283.4062E-12
4.0000E+0	71.8118E-12	-65.5425E-9	223.9674E-12
6.0000E+0	181.4496E-12	-65.6068E-9	228.6784E-12
8.0000E+0	239.8959E-12	-65.6613E-9	172.7759E-12
10.0000E+0	281.9285E-12	-65.8321E-9	237.2618E-12
12.0000E+0	316.7960E-12	-66.0819E-9	203.3915E-12
14.0000E+0	346.5209E-12	-65.9290E-9	227.7489E-12
16.0000E+0	376.4449E-12	-65.9140E-9	369.3400E-12
18.0000E+0	410.3376E-12	-65.9589E-9	117.1125E-12
20.0000E+0	448.9912E-12	-65.7588E-9	218.0302E-12
22.0000E+0	485.9820E-12	-65.9659E-9	261.9735E-12
24.0000E+0	525.7822E-12	-65.9022E-9	169.0701E-12
26.0000E+0	552.6782E-12	-65.9247E-9	319.3111E-12
28.0000E+0	571.1259E-12	-65.8737E-9	224.6002E-12
30.0000E+0	582.4147E-12	-65.7229E-9	92.6098E-12
32.0000E+0	595.6197E-12	-65.8017E-9	235.2393E-12
34.0000E+0	605.9609E-12	-65.7158E-9	273.0789E-12
36.0000E+0	620.6219E-12	-65.7798E-9	286.9425E-12
38.0000E+0	634.9394E-12	-65.5384E-9	425.4091E-12
40.0000E+0	649.5623E-12	-65.8825E-9	194.9232E-12
42.0000E+0	667.8941E-12	-65.8769E-9	112.5257E-12
44.0000E+0	688.1945E-12	-65.8481E-9	263.0937E-12
46.0000E+0	714.4017E-12	-65.8085E-9	61.8004E-12
48.0000E+0	752.4160E-12	-65.8706E-9	260.7594E-12
50.0000E+0	835.1182E-12	-65.7489E-9	229.9198E-12
50.1000E+0	841.5694E-12	-65.5031E-9	58.5184E-12
50.2000E+0	850.6353E-12	-65.8199E-9	186.6910E-12
50.3000E+0	860.0520E-12	-65.6924E-9	236.4989E-12
50.4000E+0	872.6559E-12	-65.8925E-9	273.1879E-12
50.5000E+0	885.3420E-12	-65.7499E-9	218.7296E-12
50.6000E+0	898.3049E-12	-65.7976E-9	297.8845E-12
50.7000E+0	916.0410E-12	-65.9870E-9	364.2536E-12
50.8000E+0	938.2115E-12	-66.0255E-9	133.7676E-12
50.9000E+0	963.2692E-12	-65.6683E-9	423.0112E-12
51.0000E+0	995.4333E-12	-65.7692E-9	250.9680E-12
51.1000E+0	1.0353E-9	-65.9767E-9	238.7454E-12
51.2000E+0	1.0891E-9	-65.7574E-9	109.2528E-12
51.3000E+0	1.1620E-9	-65.8457E-9	192.7887E-12
51.4000E+0	1.2723E-9	-65.5734E-9	235.1727E-12
51.5000E+0	1.4567E-9	-65.3523E-9	284.9049E-12
51.6000E+0	1.8451E-9	-65.4035E-9	264.8952E-12
51.7000E+0	2.8890E-9	-65.0613E-9	198.5109E-12
51.8000E+0	7.8413E-9	-65.1923E-9	176.8208E-12
51.9000E+0	32.8770E-9	-65.0793E-9	85.6008E-12
52.0000E+0	108.1889E-9	-65.1485E-9	281.0749E-12
52.1000E+0	237.5952E-9	-65.1720E-9	171.5860E-12
52.2000E+0	407.1188E-9	-65.2049E-9	266.4181E-12
52.3000E+0	604.7439E-9	-65.3361E-9	214.5847E-12
52.4000E+0	840.5512E-9	-65.3228E-9	321.9634E-12
52.5000E+0	1.0922E-6	-65.6530E-9	256.2149E-12
52.6000E+0	1.3700E-6	-65.4219E-9	328.3487E-12
52.7000E+0	1.6835E-6	-65.9247E-9	272.3977E-12
52.8000E+0	2.0068E-6	-65.5917E-9	128.1029E-12
52.9000E+0	2.3357E-6	-65.7749E-9	178.0924E-12
53.0000E+0	2.6877E-6	-65.4830E-9	185.1499E-12
53.1000E+0	3.0518E-6	-65.2641E-9	144.1010E-12
53.2000E+0	3.4487E-6	-65.5049E-9	150.8224E-12
53.3000E+0	3.8561E-6	-65.3816E-9	284.8595E-12
53.4000E+0	4.2786E-6	-65.3803E-9	138.8844E-12
53.5000E+0	4.6939E-6	-65.6333E-9	366.7575E-12
53.6000E+0	5.1225E-6	-65.4482E-9	190.0698E-12
53.7000E+0	5.5908E-6	-65.5777E-9	104.3722E-12
53.8000E+0	6.0477E-6	-65.7742E-9	207.3123E-12
53.9000E+0	6.4301E-6	-65.2410E-9	188.5348E-12
54.0000E+0	6.9096E-6	-65.9244E-9	185.9492E-12
54.1000E+0	7.3928E-6	-65.6006E-9	211.3996E-12
54.2000E+0	7.9327E-6	-65.8024E-9	184.2840E-12
54.3000E+0	8.3812E-6	-65.8585E-9	279.2039E-12
54.4000E+0	8.9104E-6	-65.6973E-9	210.1734E-12
54.5000E+0	9.3852E-6	-65.9498E-9	163.9715E-12
54.6000E+0	9.8021E-6	-66.0395E-9	206.6432E-12
54.7000E+0	10.4137E-6	-65.8967E-9	183.1517E-12
54.8000E+0	10.9166E-6	-65.6433E-9	313.9250E-12
54.9000E+0	11.4134E-6	-65.8107E-9	222.6050E-12
55.0000E+0	12.0551E-6	-66.1888E-9	162.9421E-12
55.1000E+0	12.5435E-6	-65.7362E-9	297.4788E-12
55.2000E+0	12.9861E-6	-65.8426E-9	195.2380E-12
55.3000E+0	13.6520E-6	-65.7817E-9	234.0495E-12
55.4000E+0	14.0632E-6	-65.6865E-9	232.6113E-12
55.5000E+0	14.7083E-6	-65.8460E-9	56.4748E-12
55.6000E+0	15.3498E-6	-65.8022E-9	145.2031E-12
55.7000E+0	15.8879E-6	-65.7334E-9	156.8172E-12
55.8000E+0	16.3065E-6	-65.7529E-9	281.0235E-12
55.9000E+0	16.9967E-6	-65.7639E-9	198.7229E-12
56.0000E+0	17.4950E-6	-65.6640E-9	174.6046E-12
56.1000E+0	18.0891E-6	-65.6458E-9	117.6817E-12
56.2000E+0	18.6368E-6	-65.9662E-9	167.5865E-12
56.3000E+0	19.1455E-6	-65.8019E-9	173.3633E-12
56.4000E+0	19.7982E-6	-66.0198E-9	199.6826E-12
56.5000E+0	20.5855E-6	-65.9700E-9	168.1194E-12
56.6000E+0	21.3248E-6	-66.0028E-9	212.7439E-12
56.7000E+0	21.6731E-6	-65.9843E-9	308.9959E-12
56.8000E+0	22.2826E-6	-66.0750E-9	262.2097E-12
56.9000E+0	22.9358E-6	-65.9184E-9	182.6521E-12
57.0000E+0	23.6177E-6	-65.5763E-9	207.6484E-12
57.1000E+0	24.0766E-6	-65.5001E-9	181.4592E-12
57.2000E+0	24.9789E-6	-65.2104E-9	216.6042E-12
57.3000E+0	25.3021E-6	-65.4010E-9	238.5910E-12
57.4000E+0	25.9811E-6	-65.0762E-9	251.2586E-12
57.5000E+0	26.7208E-6	-65.1779E-9	119.6285E-12
57.6000E+0	27.2444E-6	-65.1605E-9	85.0073E-12
57.7000E+0	27.8292E-6	-64.9560E-9	274.2900E-12
57.8000E+0	28.6399E-6	-65.6017E-9	214.0458E-12
57.9000E+0	29.5217E-6	-65.4580E-9	319.1507E-12
58.0000E+0	29.7859E-6	-65.6916E-9	309.6953E-12
58.1000E+0	31.0108E-6	-65.7970E-9	252.7573E-12
58.2000E+0	31.7652E-6	-65.8021E-9	89.3490E-12
58.3000E+0	32.2991E-6	-65.5942E-9	352.0461E-12
58.4000E+0	32.9935E-6	-65.8202E-9	106.1252E-12
58.5000E+0	33.6744E-6	-65.9987E-9	313.4193E-12
58.6000E+0	34.4806E-6	-65.6396E-9	114.2817E-12
58.7000E+0	35.3875E-6	-65.8686E-9	199.9551E-12
58.8000E+0	36.0419E-6	-65.7846E-9	268.5465E-12
58.9000E+0	36.4293E-6	-65.6230E-9	391.5872E-12
59.0000E+0	37.6870E-6	-65.5451E-9	63.6866E-12
59.1000E+0	38.1712E-6	-65.5691E-9	184.7775E-12
59.2000E+0	39.0599E-6	-65.3806E-9	129.8287E-12
59.3000E+0	39.9478E-6	-65.5939E-9	290.8361E-12
59.4000E+0	40.9229E-6	-65.6045E-9	154.3920E-12
59.5000E+0	41.4798E-6	-65.5982E-9	315.2965E-12
59.6000E+0	42.3767E-6	-65.9413E-9	162.2972E-12
59.7000E+0	43.0375E-6	-65.9492E-9	190.8237E-12
59.8000E+0	44.2711E-6	-65.8974E-9	286.8426E-12
59.9000E+0	44.4823E-6	-66.2145E-9	135.2724E-12
60.0000E+0	46.0776E-6	-66.1147E-9	241.7821E-12
60.1000E+0	47.0404E-6	-66.1456E-9	195.8284E-12
60.2000E+0	47.8159E-6	-65.7375E-9	286.1432E-12
60.3000E+0	48.4548E-6	-65.5845E-9	211.2543E-12
60.4000E+0	49.2144E-6	-65.6620E-9	261.0834E-12
60.5000E+0	50.2548E-6	-65.4530E-9	187.7718E-12
60.6000E+0	51.0237E-6	-65.2173E-9	154.9158E-12
60.7000E+0	51.9855E-6	-65.4987E-9	176.8693E-12
60.8000E+0	52.6901E-6	-65.3673E-9	153.1174E-12
60.9000E+0	53.9379E-6	-65.5360E-9	265.0738E-12
61.0000E+0	55.1567E-6	-65.5599E-9	235.5028E-12
61.1000E+0	56.2679E-6	-65.5295E-9	118.8867E-12
61.2000E+0	57.2373E-6	-65.8883E-9	233.5106E-12
61.3000E+0	58.0966E-6	-65.9191E-9	177.3749E-12
61.4000E+0	59.2332E-6	-65.7321E-9	214.2396E-12
61.5000E+0	60.5573E-6	-66.1675E-9	264.5349E-12
61.6000E+0	61.4665E-6	-66.1066E-9	241.7730E-12
61.7000E+0	62.3262E-6	-65.9123E-9	231.6728E-12
61.8000E+0	64.0785E-6	-65.9260E-9	168.0467E-12
61.9000E+0	64.7087E-6	-65.7133E-9	97.5448E-12
62.0000E+0	65.6301E-6	-65.5731E-9	215.8745E-12
62.1000E+0	67.0308E-6	-65.5933E-9	74.3561E-12
62.2000E+0	67.9088E-6	-65.6177E-9	300.5821E-12
62.3000E+0	69.1369E-6	-65.4030E-9	148.5456E-12
62.4000E+0	70.4866E-6	-65.6786E-9	155.7030E-12
62.5000E+0	71.7018E-6	-65.6701E-9	205.9983E-12
62.6000E+0	72.9774E-6	-65.8909E-9	213.9913E-12
62.7000E+0	74.2609E-6	-65.7279E-9	222.3870E-12
62.8000E+0	75.5899E-6	-66.0023E-9	161.3435E-12
62.9000E+0	77.3180E-6	-65.6223E-9	501.1882E-12
63.0000E+0	78.4503E-6	-65.8148E-9	246.6294E-12
63.1000E+0	80.1001E-6	-65.8446E-9	215.5748E-12
63.2000E+0	81.5909E-6	-65.9664E-9	254.6405E-12
63.3000E+0	83.4747E-6	-66.0935E-9	346.4147E-12
63.4000E+0	84.3267E-6	-65.6946E-9	195.7709E-12
63.5000E+0	85.2925E-6	-65.5876E-9	199.9491E-12
63.6000E+0	87.0481E-6	-65.3563E-9	171.3438E-12
63.7000E+0	88.4994E-6	-65.4181E-9	103.1975E-12
63.8000E+0	89.5531E-6	-65.4660E-9	240.0503E-12
63.9000E+0	91.6024E-6	-65.4740E-9	183.1910E-12
