Voltage(V)	Current(A)	DiodeCurrent(A)	DiodeCurrent Std(A)
0.0000E+0	3.7990E-12	-53.3074E-9	95.4800E-12
2.0000E+0	37.8330E-12	-53.3319E-9	176.3667E-12
4.0000E+0	68.8968E-12	-53.5625E-9	247.9706E-12
6.0000E+0	182.7918E-12	-53.8012E-9	257.7560E-12
8.0000E+0	239.9757E-12	-54.3119E-9	188.2896E-12
10.0000E+0	282.6291E-12	-54.4075E-9	169.0065E-12
12.0000E+0	318.9723E-12	-53.9388E-9	46.5168E-12
14.0000E+0	350.5503E-12	-53.8860E-9	120.5096E-12
16.0000E+0	380.5912E-12	-53.2456E-9	255.3641E-12
18.0000E+0	412.1253E-12	-53.4464E-9	148.9755E-12
20.0000E+0	454.2795E-12	-53.2204E-9	29.7557E-12
22.0000E+0	493.4604E-12	-53.2030E-9	62.6754E-12
24.0000E+0	530.6974E-12	-53.3780E-9	178.9856E-12
26.0000E+0	558.0278E-12	-53.3136E-9	97.8688E-12
28.0000E+0	573.0584E-12	-53.4032E-9	94.5142E-12
30.0000E+0	586.8049E-12	-53.3114E-9	95.2590E-12
32.0000E+0	597.7931E-12	-53.5549E-9	138.6240E-12
34.0000E+0	610.1437E-12	-53.6606E-9	142.0664E-12
36.0000E+0	621.7858E-12	-53.6401E-9	177.9835E-12
38.0000E+0	635.7718E-12	-53.8805E-9	162.1065E-12
40.0000E+0	649.5716E-12	-54.2189E-9	166.6510E-12
42.0000E+0	664.4297E-12	-54.0578E-9	94.7988E-12
44.0000E+0	680.1061E-12	-53.6760E-9	244.2072E-12
46.0000E+0	698.5840E-12	-53.5098E-9	85.8702E-12
48.0000E+0	721.0391E-12	-53.3492E-9	247.3348E-12
50.0000E+0	754.2057E-12	-53.1883E-9	105.7013E-12
50.1000E+0	758.3280E-12	-53.2827E-9	108.0387E-12
50.2000E+0	760.3703E-12	-53.2102E-9	108.3505E-12
50.3000E+0	764.3339E-12	-53.0868E-9	124.9481E-12
50.4000E+0	766.7526E-12	-53.5327E-9	126.5679E-12
50.5000E+0	771.2577E-12	-53.5443E-9	213.5826E-12
50.6000E+0	775.2097E-12	-53.4766E-9	170.3053E-12
50.7000E+0	780.9093E-12	-53.3666E-9	304.5211E-12
50.8000E+0	785.7425E-12	-54.0101E-9	231.9877E-12
50.9000E+0	792.5529E-12	-54.0027E-9	166.5480E-12
51.0000E+0	799.9276E-12	-53.8848E-9	255.5246E-12
51.1000E+0	810.7697E-12	-53.9478E-9	186.7152E-12
51.2000E+0	821.7886E-12	-53.8370E-9	127.0947E-12
51.3000E+0	843.0517E-12	-53.5596E-9	110.3579E-12
51.4000E+0	868.2122E-12	-53.4572E-9	190.4180E-12
51.5000E+0	910.1704E-12	-53.3623E-9	135.8053E-12
51.6000E+0	988.9124E-12	-53.3262E-9	54.1011E-12
51.7000E+0	1.2090E-9	-53.2445E-9	96.5033E-12
51.8000E+0	2.0789E-9	-53.0254E-9	144.4522E-12
51.9000E+0	6.8271E-9	-53.3826E-9	141.0552E-12
52.0000E+0	22.8997E-9	-53.5335E-9	171.1682E-12
52.1000E+0	53.0456E-9	-53.5673E-9	190.3968E-12
52.2000E+0	94.6007E-9	-53.6377E-9	145.3424E-12
52.3000E+0	144.0315E-9	-53.9720E-9	177.5233E-12
52.4000E+0	203.8397E-9	-54.2197E-9	159.8054E-12
52.5000E+0	270.0902E-9	-53.3892E-9	507.7430E-12
52.6000E+0	340.7505E-9	-53.9395E-9	236.9409E-12
52.7000E+0	422.6308E-9	-53.8626E-9	124.7937E-12
52.8000E+0	505.2823E-9	-53.6049E-9	136.2382E-12
52.9000E+0	595.2810E-9	-53.3396E-9	82.8547E-12
53.0000E+0	684.5572E-9	-53.3436E-9	41.7150E-12
53.1000E+0	781.2881E-9	-53.0082E-9	137.7732E-12
53.2000E+0	881.9994E-9	-53.1761E-9	187.3873E-12
53.3000E+0	1.0081E-6	-53.3105E-9	192.6070E-12
53.4000E+0	1.1014E-6	-53.3419E-9	188.0262E-12
53.5000E+0	1.2292E-6	-53.3400E-9	163.8474E-12
53.6000E+0	1.3653E-6	-53.6391E-9	95.0743E-12
53.7000E+0	1.4872E-6	-53.5381E-9	138.1123E-12
53.8000E+0	1.6306E-6	-53.7770E-9	472.2680E-12
53.9000E+0	1.7618E-6	-54.0498E-9	124.5757E-12
54.0000E+0	1.9008E-6	-54.1261E-9	129.2080E-12
54.1000E+0	2.0565E-6	-53.7424E-9	388.6262E-12
54.2000E+0	2.1703E-6	-53.7692E-9	71.5101E-12
54.3000E+0	2.2985E-6	-53.5007E-9	187.6356E-12
54.4000E+0	2.4587E-6	-53.5138E-9	118.9443E-12
54.5000E+0	2.5978E-6	-53.3016E-9	220.0496E-12
54.6000E+0	2.7347E-6	-53.2567E-9	100.4968E-12
54.7000E+0	2.9270E-6	-53.2050E-9	60.3925E-12
54.8000E+0	3.0723E-6	-53.4183E-9	159.9750E-12
54.9000E+0	3.2319E-6	-53.4327E-9	45.0181E-12
55.0000E+0	3.3828E-6	-53.5370E-9	143.3320E-12
55.1000E+0	3.5329E-6	-53.5532E-9	118.8746E-12
55.2000E+0	3.7563E-6	-53.8449E-9	129.8862E-12
55.3000E+0	3.9520E-6	-53.9073E-9	185.7040E-12
55.4000E+0	4.1556E-6	-54.2649E-9	308.4146E-12
55.5000E+0	4.2976E-6	-54.3072E-9	100.0154E-12
55.6000E+0	4.5350E-6	-53.8252E-9	166.3966E-12
55.7000E+0	4.6515E-6	-53.6039E-9	63.3990E-12
55.8000E+0	4.8831E-6	-53.4663E-9	213.2374E-12
55.9000E+0	5.0441E-6	-53.3144E-9	180.6962E-12
56.0000E+0	5.2357E-6	-53.2873E-9	147.8553E-12
56.1000E+0	5.4534E-6	-53.1800E-9	137.8853E-12
56.2000E+0	5.6238E-6	-53.2819E-9	97.7780E-12
56.3000E+0	5.8588E-6	-53.1839E-9	100.4514E-12
56.4000E+0	6.0205E-6	-53.2717E-9	93.3848E-12
56.5000E+0	6.2246E-6	-53.2406E-9	83.9053E-12
56.6000E+0	6.4415E-6	-53.0917E-9	409.8288E-12
56.7000E+0	6.6372E-6	-53.2361E-9	293.7487E-12
56.8000E+0	6.9681E-6	-53.9554E-9	197.3937E-12
56.9000E+0	7.1594E-6	-54.2085E-9	85.1890E-12
57.0000E+0	7.4425E-6	-54.0049E-9	219.4835E-12
57.1000E+0	7.6415E-6	-54.1573E-9	178.5829E-12
57.2000E+0	7.8482E-6	-53.6516E-9	192.6252E-12
57.3000E+0	8.0925E-6	-53.6453E-9	77.3141E-12
57.4000E+0	8.2887E-6	-53.3145E-9	158.6489E-12
57.5000E+0	8.4957E-6	-53.3276E-9	152.8782E-12
57.6000E+0	8.7440E-6	-53.1457E-9	186.2035E-12
57.7000E+0	8.9188E-6	-53.3128E-9	89.7032E-12
57.8000E+0	9.1894E-6	-53.3882E-9	150.8769E-12
57.9000E+0	9.4150E-6	-53.3984E-9	76.2998E-12
58.0000E+0	9.8732E-6	-53.5199E-9	119.4438E-12
58.1000E+0	10.0305E-6	-53.5331E-9	92.8641E-12
58.2000E+0	10.2632E-6	-53.8812E-9	109.6494E-12
58.3000E+0	10.6000E-6	-53.6564E-9	393.5249E-12
58.4000E+0	10.8803E-6	-54.0027E-9	211.1574E-12
58.5000E+0	11.2586E-6	-54.1701E-9	109.5919E-12
58.6000E+0	11.5711E-6	-54.1035E-9	144.6339E-12
58.7000E+0	11.8143E-6	-53.8101E-9	42.7535E-12
58.8000E+0	11.9892E-6	-53.2104E-9	264.0353E-12
58.9000E+0	12.2504E-6	-53.4682E-9	58.9786E-12
59.0000E+0	12.4663E-6	-53.3322E-9	276.1066E-12
59.1000E+0	12.8630E-6	-53.2363E-9	140.3013E-12
59.2000E+0	13.1326E-6	-53.2292E-9	77.1566E-12
59.3000E+0	13.5023E-6	-53.3545E-9	176.1275E-12
59.4000E+0	13.8445E-6	-53.2652E-9	176.4333E-12
59.5000E+0	14.1051E-6	-53.1522E-9	269.3277E-12
59.6000E+0	14.6037E-6	-53.4530E-9	155.8574E-12
59.7000E+0	14.8484E-6	-53.2887E-9	338.7487E-12
59.8000E+0	15.3116E-6	-53.7824E-9	238.8241E-12
59.9000E+0	15.6818E-6	-53.8910E-9	78.6311E-12
60.0000E+0	15.8936E-6	-54.1629E-9	308.2330E-12
60.1000E+0	16.3974E-6	-54.0096E-9	147.7039E-12
60.2000E+0	16.5844E-6	-53.8442E-9	110.5486E-12
60.3000E+0	17.1762E-6	-53.5655E-9	179.3883E-12
60.4000E+0	17.2635E-6	-53.4845E-9	145.3000E-12
60.5000E+0	17.7050E-6	-53.3113E-9	81.3469E-12
60.6000E+0	18.0868E-6	-53.4432E-9	216.4800E-12
60.7000E+0	18.4652E-6	-53.2669E-9	120.8577E-12
60.8000E+0	18.7289E-6	-53.2769E-9	110.8362E-12
60.9000E+0	19.2509E-6	-53.2627E-9	183.7057E-12
61.0000E+0	19.8313E-6	-53.6167E-9	174.3836E-12
61.1000E+0	20.2765E-6	-53.4565E-9	122.5835E-12
61.2000E+0	20.6329E-6	-53.7022E-9	143.7528E-12
61.3000E+0	21.1935E-6	-54.0256E-9	148.2550E-12
61.4000E+0	21.7939E-6	-54.2147E-9	96.8243E-12
61.5000E+0	22.2621E-6	-54.1366E-9	304.7875E-12
61.6000E+0	22.6987E-6	-53.8713E-9	233.6619E-12
61.7000E+0	23.0440E-6	-53.7580E-9	87.8412E-12
61.8000E+0	23.4246E-6	-53.6291E-9	178.6405E-12
61.9000E+0	23.8916E-6	-53.5003E-9	138.8420E-12
62.0000E+0	24.3816E-6	-53.4286E-9	97.8204E-12
62.1000E+0	25.0527E-6	-53.3241E-9	217.2460E-12
62.2000E+0	25.4801E-6	-53.2811E-9	210.8758E-12
62.3000E+0	25.9246E-6	-53.4268E-9	149.7294E-12
62.4000E+0	26.5919E-6	-53.3036E-9	161.0437E-12
62.5000E+0	27.0663E-6	-53.4993E-9	187.3873E-12
62.6000E+0	27.9155E-6	-53.6563E-9	86.2759E-12
62.7000E+0	28.2713E-6	-53.5662E-9	231.5275E-12
62.8000E+0	28.8535E-6	-54.1007E-9	110.1156E-12
62.9000E+0	29.7872E-6	-54.1379E-9	162.2276E-12
63.0000E+0	30.5199E-6	-54.3338E-9	247.8798E-12
63.1000E+0	30.9048E-6	-53.9951E-9	62.8964E-12
63.2000E+0	31.3365E-6	-53.6938E-9	191.1053E-12
63.3000E+0	32.0246E-6	-53.7958E-9	124.6696E-12
63.4000E+0	32.6834E-6	-53.5776E-9	49.3477E-12
63.5000E+0	32.9254E-6	-53.2819E-9	62.1819E-12
63.6000E+0	33.9024E-6	-53.2372E-9	156.2601E-12
63.7000E+0	34.7073E-6	-53.3137E-9	82.1977E-12
63.8000E+0	35.0662E-6	-53.3214E-9	98.8437E-12
63.9000E+0	35.8110E-6	-53.4794E-9	164.7345E-12
