Voltage(V)	Current(A)	DiodeCurrent(A)	DiodeCurrent Std(A)
0.0000E+0	162.5119E-15	-33.4993E-9	164.9403E-12
2.0000E+0	39.2494E-12	-33.3543E-9	70.1961E-12
4.0000E+0	66.9587E-12	-33.3429E-9	53.5137E-12
6.0000E+0	181.3210E-12	-33.2395E-9	86.6180E-12
8.0000E+0	233.2828E-12	-33.0811E-9	102.9068E-12
10.0000E+0	273.2463E-12	-33.0520E-9	48.2214E-12
12.0000E+0	308.6495E-12	-32.9630E-9	66.0361E-12
14.0000E+0	336.9250E-12	-33.1177E-9	98.0565E-12
16.0000E+0	367.3010E-12	-33.2007E-9	61.7156E-12
18.0000E+0	399.2532E-12	-33.0419E-9	112.3531E-12
20.0000E+0	438.2123E-12	-33.0928E-9	125.1994E-12
22.0000E+0	476.2482E-12	-33.2087E-9	140.9371E-12
24.0000E+0	511.5456E-12	-33.4200E-9	193.8514E-12
26.0000E+0	538.8492E-12	-33.1617E-9	66.3086E-12
28.0000E+0	552.9624E-12	-33.3565E-9	148.7091E-12
30.0000E+0	564.1344E-12	-33.4921E-9	103.5578E-12
32.0000E+0	573.4036E-12	-33.3370E-9	175.6249E-12
34.0000E+0	586.9115E-12	-33.2731E-9	127.1008E-12
36.0000E+0	596.8075E-12	-33.0734E-9	128.1211E-12
38.0000E+0	608.8127E-12	-33.0512E-9	80.7928E-12
40.0000E+0	623.9100E-12	-32.9654E-9	111.5598E-12
42.0000E+0	638.1275E-12	-32.9336E-9	28.1995E-12
44.0000E+0	652.0351E-12	-32.9599E-9	99.4674E-12
46.0000E+0	672.9545E-12	-32.9733E-9	81.7950E-12
48.0000E+0	696.6893E-12	-32.9169E-9	49.0328E-12
50.0000E+0	738.2924E-12	-33.0814E-9	154.0832E-12
50.1000E+0	740.7640E-12	-33.0619E-9	72.7181E-12
50.2000E+0	744.4534E-12	-33.1700E-9	74.9555E-12
50.3000E+0	748.2355E-12	-33.0049E-9	176.0912E-12
50.4000E+0	752.3974E-12	-33.3446E-9	81.1804E-12
50.5000E+0	758.8134E-12	-33.2676E-9	229.5110E-12
50.6000E+0	764.1551E-12	-33.4264E-9	76.1394E-12
50.7000E+0	770.1060E-12	-33.3022E-9	70.0265E-12
50.8000E+0	778.8903E-12	-33.2309E-9	143.8164E-12
50.9000E+0	788.1652E-12	-33.1542E-9	87.1994E-12
51.0000E+0	799.3812E-12	-33.0027E-9	53.4804E-12
51.1000E+0	815.5496E-12	-33.0363E-9	161.9853E-12
51.2000E+0	834.8405E-12	-33.0942E-9	64.5435E-12
51.3000E+0	861.1687E-12	-32.9661E-9	90.2270E-12
51.4000E+0	903.6362E-12	-33.1492E-9	116.7765E-12
51.5000E+0	971.6546E-12	-33.2261E-9	47.6037E-12
51.6000E+0	1.1125E-9	-33.1790E-9	87.5536E-12
51.7000E+0	1.4878E-9	-33.2639E-9	40.6977E-12
51.8000E+0	3.2060E-9	-33.3315E-9	22.6953E-12
51.9000E+0	12.3827E-9	-33.3286E-9	82.3793E-12
52.0000E+0	40.3299E-9	-33.5525E-9	93.0518E-12
52.1000E+0	89.6610E-9	-33.3800E-9	122.4685E-12
52.2000E+0	148.8361E-9	-33.3096E-9	110.7181E-12
52.3000E+0	227.0833E-9	-33.2814E-9	93.0276E-12
52.4000E+0	311.3703E-9	-33.1334E-9	71.1316E-12
52.5000E+0	406.6795E-9	-32.9990E-9	101.9077E-12
52.6000E+0	514.7229E-9	-33.1047E-9	54.9670E-12
52.7000E+0	627.5444E-9	-33.0551E-9	56.5505E-12
52.8000E+0	736.9607E-9	-32.9271E-9	40.7219E-12
52.9000E+0	871.1265E-9	-33.0013E-9	131.9753E-12
53.0000E+0	1.0109E-6	-33.0144E-9	60.7468E-12
53.1000E+0	1.1587E-6	-33.1159E-9	118.7293E-12
53.2000E+0	1.3126E-6	-33.1711E-9	86.1488E-12
53.3000E+0	1.4698E-6	-33.1587E-9	99.7702E-12
53.4000E+0	1.6137E-6	-33.3273E-9	83.7933E-12
53.5000E+0	1.8189E-6	-33.3650E-9	71.7856E-12
53.6000E+0	1.9931E-6	-33.4494E-9	113.2038E-12
53.7000E+0	2.1496E-6	-33.4091E-9	118.5143E-12
53.8000E+0	2.3499E-6	-33.1539E-9	109.5919E-12
53.9000E+0	2.5129E-6	-33.2829E-9	69.7661E-12
54.0000E+0	2.7098E-6	-32.9785E-9	190.3363E-12
54.1000E+0	2.9117E-6	-33.0831E-9	56.8986E-12
54.2000E+0	3.0595E-6	-33.0671E-9	47.5644E-12
54.3000E+0	3.2552E-6	-33.0116E-9	72.6818E-12
54.4000E+0	3.4658E-6	-33.0675E-9	115.2566E-12
54.5000E+0	3.6846E-6	-33.0655E-9	33.7704E-12
54.6000E+0	3.8941E-6	-32.9932E-9	100.2970E-12
54.7000E+0	4.0873E-6	-32.9924E-9	121.0909E-12
54.8000E+0	4.3397E-6	-33.2298E-9	112.4802E-12
54.9000E+0	4.5480E-6	-33.2847E-9	60.4077E-12
55.0000E+0	4.7178E-6	-33.2322E-9	141.1248E-12
55.1000E+0	5.0204E-6	-33.4567E-9	82.2098E-12
55.2000E+0	5.1724E-6	-33.3377E-9	85.7098E-12
55.3000E+0	5.4538E-6	-33.2800E-9	118.7747E-12
55.4000E+0	5.6511E-6	-33.2337E-9	35.8746E-12
55.5000E+0	5.8770E-6	-33.1417E-9	115.0023E-12
55.6000E+0	6.1541E-6	-33.1405E-9	89.4519E-12
55.7000E+0	6.3672E-6	-33.0220E-9	79.8997E-12
55.8000E+0	6.5962E-6	-32.8867E-9	122.4897E-12
55.9000E+0	6.8907E-6	-32.9418E-9	84.1868E-12
56.0000E+0	7.1096E-6	-32.9871E-9	90.3784E-12
56.1000E+0	7.2932E-6	-32.8994E-9	140.2165E-12
56.2000E+0	7.6392E-6	-33.0530E-9	106.3916E-12
56.3000E+0	7.8736E-6	-32.8799E-9	212.0354E-12
56.4000E+0	8.1682E-6	-33.2948E-9	120.2552E-12
56.5000E+0	8.3895E-6	-33.4006E-9	45.3572E-12
56.6000E+0	8.8740E-6	-33.3676E-9	92.2041E-12
56.7000E+0	9.0800E-6	-33.3786E-9	106.0858E-12
56.8000E+0	9.2516E-6	-33.3381E-9	118.6385E-12
56.9000E+0	9.5070E-6	-33.0287E-9	228.3605E-12
57.0000E+0	9.7870E-6	-33.0803E-9	41.4728E-12
57.1000E+0	10.0472E-6	-33.0714E-9	87.6777E-12
57.2000E+0	10.3050E-6	-33.0254E-9	22.8164E-12
57.3000E+0	10.5446E-6	-32.9832E-9	46.3261E-12
57.4000E+0	10.8267E-6	-32.9897E-9	71.1982E-12
57.5000E+0	11.2315E-6	-33.0338E-9	99.1434E-12
57.6000E+0	11.4649E-6	-33.0250E-9	39.9801E-12
57.7000E+0	11.9039E-6	-33.1165E-9	88.3862E-12
57.8000E+0	12.1194E-6	-33.1411E-9	150.7588E-12
57.9000E+0	12.4370E-6	-33.4211E-9	163.7777E-12
58.0000E+0	12.7975E-6	-33.3213E-9	100.5755E-12
58.1000E+0	13.1369E-6	-33.2638E-9	160.0900E-12
58.2000E+0	13.5321E-6	-33.3148E-9	94.4203E-12
58.3000E+0	13.7717E-6	-33.1558E-9	84.1293E-12
58.4000E+0	14.1143E-6	-33.1645E-9	84.3413E-12
58.5000E+0	14.3741E-6	-32.9394E-9	53.3472E-12
58.6000E+0	14.7075E-6	-32.9628E-9	77.4867E-12
58.7000E+0	14.8919E-6	-32.9976E-9	83.3209E-12
58.8000E+0	15.3771E-6	-32.9373E-9	128.8780E-12
58.9000E+0	15.7316E-6	-33.0265E-9	76.5723E-12
59.0000E+0	16.1172E-6	-33.1837E-9	76.4784E-12
59.1000E+0	16.5246E-6	-33.1735E-9	152.5542E-12
59.2000E+0	17.0801E-6	-33.0112E-9	189.2463E-12
59.3000E+0	17.5149E-6	-33.2312E-9	140.7434E-12
59.4000E+0	17.7250E-6	-33.6207E-9	75.1735E-12
59.5000E+0	18.2684E-6	-33.4773E-9	136.9497E-12
59.6000E+0	18.4299E-6	-33.4728E-9	152.1909E-12
59.7000E+0	18.8813E-6	-33.0269E-9	88.0108E-12
59.8000E+0	19.2011E-6	-33.1416E-9	203.2643E-12
59.9000E+0	19.7225E-6	-33.1066E-9	93.6816E-12
60.0000E+0	20.1077E-6	-33.1104E-9	28.5386E-12
60.1000E+0	20.4292E-6	-33.0579E-9	101.4475E-12
60.2000E+0	20.9187E-6	-33.0533E-9	63.1750E-12
60.3000E+0	21.3639E-6	-33.0075E-9	84.4079E-12
60.4000E+0	21.8226E-6	-33.0894E-9	142.6417E-12
60.5000E+0	22.2145E-6	-33.0416E-9	157.5317E-12
60.6000E+0	22.8516E-6	-33.2173E-9	233.0534E-12
60.7000E+0	23.2753E-6	-33.1812E-9	92.0557E-12
60.8000E+0	23.6532E-6	-33.3725E-9	54.8126E-12
60.9000E+0	24.2229E-6	-33.2857E-9	182.4674E-12
61.0000E+0	24.8168E-6	-33.4823E-9	69.6178E-12
61.1000E+0	25.1166E-6	-33.2835E-9	144.4764E-12
61.2000E+0	25.7876E-6	-33.1924E-9	111.3328E-12
61.3000E+0	26.0735E-6	-33.0728E-9	98.8346E-12
61.4000E+0	26.6822E-6	-32.9821E-9	88.1107E-12
61.5000E+0	26.9385E-6	-33.0749E-9	39.7076E-12
61.6000E+0	27.8381E-6	-33.0043E-9	104.8627E-12
61.7000E+0	28.1004E-6	-33.1637E-9	127.7517E-12
61.8000E+0	28.6064E-6	-33.0717E-9	99.3917E-12
61.9000E+0	29.3780E-6	-33.1032E-9	76.1727E-12
62.0000E+0	29.7010E-6	-33.2798E-9	161.6372E-12
62.1000E+0	30.7560E-6	-33.2591E-9	157.4742E-12
62.2000E+0	31.3077E-6	-33.3878E-9	101.0115E-12
62.3000E+0	32.2677E-6	-33.6588E-9	56.3325E-12
62.4000E+0	32.8894E-6	-33.4856E-9	40.4494E-12
62.5000E+0	33.2224E-6	-33.3300E-9	93.3061E-12
62.6000E+0	33.8546E-6	-33.1745E-9	84.0627E-12
62.7000E+0	34.4878E-6	-33.1980E-9	132.0116E-12
62.8000E+0	34.8433E-6	-33.0720E-9	48.0397E-12
62.9000E+0	35.6290E-6	-32.9275E-9	87.3629E-12
63.0000E+0	36.4296E-6	-33.0777E-9	113.4461E-12
63.1000E+0	36.7579E-6	-32.9830E-9	55.8057E-12
63.2000E+0	37.6665E-6	-32.9484E-9	59.8748E-12
63.3000E+0	38.4109E-6	-33.0876E-9	84.8166E-12
63.4000E+0	39.3457E-6	-33.1495E-9	84.2232E-12
63.5000E+0	39.7700E-6	-33.2472E-9	91.6803E-12
63.6000E+0	40.6775E-6	-33.2239E-9	114.8115E-12
63.7000E+0	41.5415E-6	-33.3843E-9	87.0873E-12
63.8000E+0	42.4369E-6	-33.2926E-9	167.3352E-12
63.9000E+0	43.4534E-6	-33.2940E-9	169.9450E-12
