Voltage(V)	Current(A)	DiodeCurrent(A)	DiodeCurrent Std(A)
0.0000E+0	2.6310E-12	-1.7556E-12	562.3528E-15
2.0000E+0	46.7964E-12	-1.3972E-12	522.7542E-15
4.0000E+0	75.4595E-12	-1.5427E-12	231.4481E-15
6.0000E+0	199.4555E-12	-1.7871E-12	1.0581E-12
8.0000E+0	263.4487E-12	-1.4118E-12	56.7878E-15
10.0000E+0	306.6299E-12	-1.3389E-12	134.4486E-15
12.0000E+0	347.4870E-12	-1.9146E-12	133.8340E-15
14.0000E+0	379.7526E-12	-1.3743E-12	329.9825E-15
16.0000E+0	412.9042E-12	-2.1558E-12	344.7165E-15
18.0000E+0	449.6382E-12	-1.5872E-12	139.6670E-15
20.0000E+0	492.9623E-12	-1.1445E-12	194.9192E-15
22.0000E+0	533.4813E-12	-1.5351E-12	523.3662E-15
24.0000E+0	573.8766E-12	-1.3680E-12	323.8422E-15
26.0000E+0	602.7800E-12	-1.3935E-12	243.4182E-15
28.0000E+0	621.3465E-12	-1.0682E-12	405.7996E-15
30.0000E+0	633.7587E-12	-1.7257E-12	287.0067E-15
32.0000E+0	645.8338E-12	-1.6601E-12	116.0299E-15
34.0000E+0	658.5473E-12	-1.9830E-12	314.0182E-15
36.0000E+0	669.3046E-12	-819.1911E-15	646.4542E-15
38.0000E+0	683.4152E-12	-1.6347E-12	241.8826E-15
40.0000E+0	696.6671E-12	-1.2096E-12	199.8296E-15
42.0000E+0	711.7607E-12	-2.4340E-12	680.2189E-15
44.0000E+0	727.6663E-12	-1.4992E-12	249.5562E-15
46.0000E+0	744.2980E-12	-2.0300E-12	512.3123E-15
48.0000E+0	764.2527E-12	-1.7735E-12	186.9368E-15
50.0000E+0	784.8024E-12	-1.5675E-12	284.5492E-15
50.1000E+0	785.7304E-12	-1.6301E-12	201.3633E-15
50.2000E+0	787.4666E-12	-1.6187E-12	359.7533E-15
50.3000E+0	788.1820E-12	-1.4466E-12	436.4915E-15
50.4000E+0	788.1916E-12	-1.4045E-12	284.5478E-15
50.5000E+0	789.3822E-12	-2.3027E-12	536.8666E-15
50.6000E+0	790.9639E-12	-1.7484E-12	126.1589E-15
50.7000E+0	792.0781E-12	-2.3042E-12	556.5106E-15
50.8000E+0	793.8645E-12	-1.4149E-12	120.3264E-15
50.9000E+0	794.7173E-12	-1.6066E-12	81.9582E-15
51.0000E+0	795.9337E-12	-1.7199E-12	343.7903E-15
51.1000E+0	797.1332E-12	-2.2700E-12	418.6871E-15
51.2000E+0	799.7896E-12	-1.7008E-12	200.1353E-15
51.3000E+0	800.9600E-12	-1.8564E-12	339.7990E-15
51.4000E+0	802.1586E-12	-1.9164E-12	300.2021E-15
51.5000E+0	806.6536E-12	-1.5560E-12	181.1025E-15
51.6000E+0	811.7898E-12	-1.4573E-12	235.7407E-15
51.7000E+0	820.2227E-12	-1.3909E-12	263.0599E-15
51.8000E+0	849.7257E-12	-1.6574E-12	340.7197E-15
51.9000E+0	985.5431E-12	-1.6115E-12	229.2943E-15
52.0000E+0	1.6122E-9	-1.7982E-12	476.6987E-15
52.1000E+0	3.0672E-9	-1.6461E-12	192.1532E-15
52.2000E+0	5.6311E-9	-1.8328E-12	407.0204E-15
52.3000E+0	8.6191E-9	-1.8885E-12	482.8370E-15
52.4000E+0	12.6681E-9	-1.8463E-12	635.6995E-15
52.5000E+0	16.2137E-9	-1.6861E-12	339.1831E-15
52.6000E+0	22.1494E-9	-2.0711E-12	576.4571E-15
52.7000E+0	27.2969E-9	-1.6485E-12	197.0634E-15
52.8000E+0	34.5855E-9	-1.4174E-12	380.3138E-15
52.9000E+0	40.8380E-9	-1.5392E-12	358.5198E-15
53.0000E+0	47.7270E-9	-1.7114E-12	462.5766E-15
53.1000E+0	55.6939E-9	-1.5459E-12	192.7666E-15
53.2000E+0	63.8237E-9	-2.3661E-12	513.8374E-15
53.3000E+0	74.0902E-9	-1.2322E-12	230.8270E-15
53.4000E+0	78.7658E-9	-1.4626E-12	280.2473E-15
53.5000E+0	92.3735E-9	-1.8660E-12	308.4864E-15
53.6000E+0	103.6540E-9	-1.7546E-12	388.9074E-15
53.7000E+0	113.9183E-9	-1.7253E-12	840.4333E-15
53.8000E+0	125.4820E-9	-1.8033E-12	727.7812E-15
53.9000E+0	132.6808E-9	-1.3052E-12	392.8976E-15
54.0000E+0	149.4302E-9	-1.2646E-12	418.0674E-15
54.1000E+0	160.3282E-9	-1.6690E-12	297.7422E-15
54.2000E+0	175.1377E-9	-1.8135E-12	253.5415E-15
54.3000E+0	188.1629E-9	-1.7641E-12	316.7734E-15
54.4000E+0	203.1343E-9	-2.5722E-12	553.4330E-15
54.5000E+0	221.3539E-9	-1.7900E-12	146.7224E-15
54.6000E+0	233.8693E-9	-1.5352E-12	423.2845E-15
54.7000E+0	251.3667E-9	-2.2855E-12	558.3423E-15
54.8000E+0	260.0202E-9	-1.4801E-12	406.7092E-15
54.9000E+0	286.0859E-9	-1.5975E-12	156.8517E-15
55.0000E+0	298.8451E-9	-1.8823E-12	224.6874E-15
55.1000E+0	307.8445E-9	-1.6023E-12	364.3493E-15
55.2000E+0	330.5380E-9	-1.5159E-12	447.5332E-15
55.3000E+0	348.5611E-9	-2.4136E-12	628.3259E-15
55.4000E+0	364.7210E-9	-1.5808E-12	164.5249E-15
55.5000E+0	389.5413E-9	-1.4397E-12	276.5618E-15
55.6000E+0	410.8463E-9	-1.7333E-12	345.3181E-15
55.7000E+0	445.4676E-9	-1.6097E-12	226.5288E-15
55.8000E+0	466.8632E-9	-1.4053E-12	767.0663E-15
55.9000E+0	481.9299E-9	-1.6984E-12	268.8874E-15
56.0000E+0	492.2074E-9	-1.8598E-12	138.1272E-15
56.1000E+0	525.6949E-9	-1.9811E-12	481.6035E-15
56.2000E+0	552.1523E-9	-2.6697E-12	785.4836E-15
56.3000E+0	573.3191E-9	-1.7717E-12	365.2691E-15
56.4000E+0	588.6149E-9	-1.7825E-12	504.6242E-15
56.5000E+0	627.6410E-9	-1.6612E-12	497.8707E-15
56.6000E+0	660.5937E-9	-1.8590E-12	184.4759E-15
56.7000E+0	671.5189E-9	-1.7913E-12	299.2751E-15
56.8000E+0	699.6906E-9	-1.6366E-12	155.6233E-15
56.9000E+0	734.2538E-9	4.4175E-12	5.6078E-12
57.0000E+0	765.6376E-9	-2.1309E-12	1.5363E-12
57.1000E+0	788.3322E-9	8.6471E-12	11.6990E-12
57.2000E+0	820.9297E-9	-2.0935E-12	1.7502E-12
57.3000E+0	843.3308E-9	-1.2347E-12	740.0525E-15
57.4000E+0	879.1646E-9	-1.7710E-12	369.2586E-15
57.5000E+0	921.0213E-9	-1.4570E-12	115.1055E-15
57.6000E+0	927.0497E-9	-1.7044E-12	133.2151E-15
57.7000E+0	984.3666E-9	-1.4113E-12	500.6326E-15
57.8000E+0	1.0166E-6	-1.6620E-12	241.2616E-15
57.9000E+0	1.0382E-6	-1.8101E-12	597.3204E-15
58.0000E+0	1.0811E-6	-1.5508E-12	181.4059E-15
58.1000E+0	1.1124E-6	-1.5684E-12	531.6339E-15
58.2000E+0	1.1488E-6	-1.6220E-12	247.0932E-15
58.3000E+0	1.1873E-6	-1.5667E-12	656.2538E-15
58.4000E+0	1.2243E-6	-2.1697E-12	523.9600E-15
58.5000E+0	1.2658E-6	-1.4246E-12	129.5317E-15
58.6000E+0	1.3307E-6	-1.8479E-12	264.2806E-15
58.7000E+0	1.3583E-6	-1.0572E-12	328.4338E-15
58.8000E+0	1.3899E-6	-2.1097E-12	669.7599E-15
58.9000E+0	1.4438E-6	-1.8437E-12	290.9866E-15
59.0000E+0	1.4919E-6	-1.8020E-12	129.5323E-15
59.1000E+0	1.5353E-6	-2.2774E-12	324.1369E-15
59.2000E+0	1.5716E-6	-1.4380E-12	286.0753E-15
59.3000E+0	1.5992E-6	-1.8396E-12	269.1917E-15
59.4000E+0	1.6598E-6	-1.4368E-12	493.5706E-15
59.5000E+0	1.7233E-6	-2.1546E-12	372.6338E-15
59.6000E+0	1.7785E-6	-1.7546E-12	495.1052E-15
59.7000E+0	1.8040E-6	-1.5903E-12	378.1586E-15
59.8000E+0	1.9049E-6	-1.6291E-12	671.9065E-15
59.9000E+0	1.9326E-6	-1.7860E-12	567.5453E-15
60.0000E+0	1.9691E-6	-1.8737E-12	206.2684E-15
60.1000E+0	2.0484E-6	-1.7634E-12	418.6765E-15
60.2000E+0	2.1264E-6	-1.7264E-12	329.9679E-15
60.3000E+0	2.1730E-6	-1.7323E-12	218.2394E-15
60.4000E+0	2.2572E-6	-2.1235E-12	428.4961E-15
60.5000E+0	2.2691E-6	-1.8737E-12	148.5623E-15
60.6000E+0	2.3464E-6	-1.4077E-12	384.6047E-15
60.7000E+0	2.3987E-6	-2.2626E-12	648.2708E-15
60.8000E+0	2.4619E-6	-1.8967E-12	610.5161E-15
60.9000E+0	2.4906E-6	-1.6585E-12	229.9028E-15
61.0000E+0	2.6204E-6	-2.3803E-12	529.4822E-15
61.1000E+0	2.7161E-6	-1.6156E-12	234.5064E-15
61.2000E+0	2.6997E-6	-1.6484E-12	120.6295E-15
61.3000E+0	2.8493E-6	-1.8201E-12	337.9478E-15
61.4000E+0	2.8503E-6	-1.6829E-12	524.2642E-15
61.5000E+0	3.0083E-6	-1.4151E-12	368.9488E-15
61.6000E+0	3.0932E-6	-1.8851E-12	338.2539E-15
61.7000E+0	3.1340E-6	-1.4890E-12	403.6335E-15
61.8000E+0	3.2334E-6	-1.6399E-12	228.3681E-15
61.9000E+0	3.3795E-6	-1.9280E-12	95.4591E-15
62.0000E+0	3.4060E-6	-2.1675E-12	586.2666E-15
62.1000E+0	3.5339E-6	-1.9261E-12	306.0249E-15
62.2000E+0	3.6006E-6	-1.9035E-12	130.7594E-15
62.3000E+0	3.6968E-6	-1.9092E-12	324.1351E-15
62.4000E+0	3.7698E-6	-1.9083E-12	322.5989E-15
62.5000E+0	3.9182E-6	-1.9175E-12	322.9059E-15
62.6000E+0	3.9293E-6	-1.7136E-12	288.8354E-15
62.7000E+0	4.0864E-6	-1.7358E-12	194.6037E-15
62.8000E+0	4.2366E-6	-1.5707E-12	292.5192E-15
62.9000E+0	4.2600E-6	-1.7211E-12	131.0658E-15
63.0000E+0	4.3588E-6	-1.8264E-12	190.6127E-15
63.1000E+0	4.5968E-6	-1.6146E-12	98.2224E-15
63.2000E+0	4.6523E-6	-1.9734E-12	175.8795E-15
63.3000E+0	4.7546E-6	-2.0716E-12	283.6179E-15
63.4000E+0	4.9239E-6	-1.9406E-12	253.5370E-15
63.5000E+0	4.9993E-6	-1.9925E-12	409.4652E-15
63.6000E+0	5.1306E-6	-1.9117E-12	310.3227E-15
63.7000E+0	5.2917E-6	-2.2817E-12	482.5188E-15
63.8000E+0	5.3906E-6	-1.5308E-12	196.4458E-15
63.9000E+0	5.5901E-6	-1.7734E-12	176.8009E-15
