Voltage(V)	Current(A)	DiodeCurrent(A)	DiodeCurrent Std(A)
0.0000E+0	5.7521E-12	-26.8494E-9	38.6510E-12
2.0000E+0	37.7706E-12	-26.8222E-9	37.8002E-12
4.0000E+0	62.3327E-12	-26.7518E-9	88.2378E-12
6.0000E+0	164.0855E-12	-26.7669E-9	96.6910E-12
8.0000E+0	218.8363E-12	-26.7912E-9	27.6727E-12
10.0000E+0	256.1099E-12	-26.7305E-9	56.7412E-12
12.0000E+0	287.9596E-12	-26.7817E-9	35.3448E-12
14.0000E+0	316.0068E-12	-26.6608E-9	58.6728E-12
16.0000E+0	345.0542E-12	-26.8020E-9	92.9307E-12
18.0000E+0	376.7583E-12	-26.7866E-9	62.4968E-12
20.0000E+0	411.7530E-12	-26.9064E-9	65.2671E-12
22.0000E+0	446.1881E-12	-26.9624E-9	38.4633E-12
24.0000E+0	481.4528E-12	-27.0367E-9	71.6554E-12
26.0000E+0	505.0330E-12	-27.0347E-9	100.5392E-12
28.0000E+0	520.5509E-12	-26.9915E-9	78.4101E-12
30.0000E+0	529.4151E-12	-26.8417E-9	39.2383E-12
32.0000E+0	538.1433E-12	-26.7649E-9	42.9351E-12
34.0000E+0	550.1217E-12	-26.6195E-9	78.6644E-12
36.0000E+0	560.0690E-12	-26.5475E-9	46.5380E-12
38.0000E+0	572.9283E-12	-26.5543E-9	26.9219E-12
40.0000E+0	583.8989E-12	-26.5184E-9	21.4479E-12
42.0000E+0	597.1145E-12	-26.5576E-9	56.7139E-12
44.0000E+0	611.8006E-12	-26.4958E-9	43.5285E-12
46.0000E+0	627.9288E-12	-26.6077E-9	19.0924E-12
48.0000E+0	645.9847E-12	-26.7324E-9	58.7909E-12
50.0000E+0	672.8260E-12	-26.5249E-9	166.6146E-12
50.1000E+0	674.7845E-12	-26.6436E-9	144.2221E-12
50.2000E+0	676.2328E-12	-26.9269E-9	81.5800E-12
50.3000E+0	677.8377E-12	-27.0754E-9	149.9837E-12
50.4000E+0	680.0410E-12	-26.9906E-9	108.4171E-12
50.5000E+0	682.3863E-12	-26.9239E-9	80.0632E-12
50.6000E+0	685.2674E-12	-26.8951E-9	32.4867E-12
50.7000E+0	689.1697E-12	-26.7561E-9	36.2501E-12
50.8000E+0	693.2016E-12	-26.7889E-9	156.1601E-12
50.9000E+0	697.3877E-12	-26.6852E-9	45.8871E-12
51.0000E+0	702.2274E-12	-26.6420E-9	106.7338E-12
51.1000E+0	710.7554E-12	-26.6737E-9	74.4620E-12
51.2000E+0	718.3735E-12	-26.6377E-9	68.0586E-12
51.3000E+0	731.6807E-12	-26.6993E-9	101.9501E-12
51.4000E+0	752.2667E-12	-26.7466E-9	98.0020E-12
51.5000E+0	784.0409E-12	-26.7628E-9	48.8723E-12
51.6000E+0	858.3804E-12	-26.4888E-9	281.4292E-12
51.7000E+0	1.1076E-9	-26.8524E-9	86.7392E-12
51.8000E+0	2.3274E-9	-26.8747E-9	145.8207E-12
51.9000E+0	8.1575E-9	-27.0552E-9	81.4287E-12
52.0000E+0	22.1908E-9	-27.0476E-9	37.2764E-12
52.1000E+0	42.8987E-9	-26.9071E-9	141.6456E-12
52.2000E+0	70.0901E-9	-26.8723E-9	101.3536E-12
52.3000E+0	101.2182E-9	-26.8210E-9	93.1487E-12
52.4000E+0	136.6530E-9	-26.6576E-9	89.7577E-12
52.5000E+0	177.5392E-9	-26.7203E-9	86.6483E-12
52.6000E+0	220.8496E-9	-26.7735E-9	95.6283E-12
52.7000E+0	267.5482E-9	-26.7514E-9	21.4812E-12
52.8000E+0	316.6791E-9	-26.6699E-9	55.8117E-12
52.9000E+0	369.5617E-9	-26.7176E-9	52.7871E-12
53.0000E+0	428.4124E-9	-26.8145E-9	105.0201E-12
53.1000E+0	494.2924E-9	-26.7013E-9	148.4911E-12
53.2000E+0	553.0992E-9	-26.8424E-9	113.9063E-12
53.3000E+0	619.4198E-9	-26.9546E-9	106.1797E-12
53.4000E+0	688.6580E-9	-26.7980E-9	191.8652E-12
53.5000E+0	761.5645E-9	-26.8575E-9	199.8098E-12
53.6000E+0	832.3765E-9	-26.9786E-9	62.2122E-12
53.7000E+0	909.4647E-9	-26.7050E-9	85.3101E-12
53.8000E+0	971.9622E-9	-26.7360E-9	82.3884E-12
53.9000E+0	1.0535E-6	-26.6520E-9	59.8506E-12
54.0000E+0	1.1413E-6	-26.5836E-9	43.7405E-12
54.1000E+0	1.2114E-6	-26.5276E-9	43.8707E-12
54.2000E+0	1.2886E-6	-26.5648E-9	53.2594E-12
54.3000E+0	1.3836E-6	-26.5698E-9	37.3673E-12
54.4000E+0	1.4735E-6	-26.5347E-9	87.7383E-12
54.5000E+0	1.5711E-6	-26.5668E-9	88.7919E-12
54.6000E+0	1.6584E-6	-26.5969E-9	79.7180E-12
54.7000E+0	1.7690E-6	-26.7405E-9	48.2274E-12
54.8000E+0	1.8427E-6	-26.6374E-9	223.8493E-12
54.9000E+0	1.9719E-6	-26.8693E-9	85.8399E-12
55.0000E+0	2.0679E-6	-26.8243E-9	162.8513E-12
55.1000E+0	2.1524E-6	-26.9227E-9	55.2788E-12
55.2000E+0	2.2836E-6	-26.9419E-9	45.9779E-12
55.3000E+0	2.3389E-6	-26.8845E-9	77.6290E-12
55.4000E+0	2.4840E-6	-26.8179E-9	99.0254E-12
55.5000E+0	2.5769E-6	-26.6943E-9	69.6087E-12
55.6000E+0	2.6757E-6	-26.6855E-9	74.8314E-12
55.7000E+0	2.8027E-6	-26.6196E-9	59.8809E-12
55.8000E+0	2.9114E-6	-26.6670E-9	42.8746E-12
55.9000E+0	3.0303E-6	-26.6461E-9	57.6737E-12
56.0000E+0	3.1854E-6	-26.7363E-9	111.0815E-12
56.1000E+0	3.2795E-6	-26.8014E-9	134.7123E-12
56.2000E+0	3.3790E-6	-26.7096E-9	76.8539E-12
56.3000E+0	3.5281E-6	-26.8812E-9	116.9914E-12
56.4000E+0	3.6742E-6	-26.8763E-9	81.7647E-12
56.5000E+0	3.7983E-6	-27.0384E-9	108.7895E-12
56.6000E+0	3.8667E-6	-26.9305E-9	109.4374E-12
56.7000E+0	4.0601E-6	-27.0003E-9	132.8170E-12
56.8000E+0	4.1851E-6	-26.8763E-9	38.6449E-12
56.9000E+0	4.2936E-6	-26.8132E-9	44.9243E-12
57.0000E+0	4.4216E-6	-26.6922E-9	24.4967E-12
57.1000E+0	4.5230E-6	-26.7582E-9	105.4258E-12
57.2000E+0	4.7297E-6	-26.7132E-9	45.1150E-12
57.3000E+0	4.8417E-6	-26.6120E-9	54.4765E-12
57.4000E+0	4.9381E-6	-26.6202E-9	33.8249E-12
57.5000E+0	5.1184E-6	-26.7165E-9	68.0888E-12
57.6000E+0	5.2809E-6	-26.7189E-9	70.2990E-12
57.7000E+0	5.4022E-6	-26.7041E-9	20.5487E-12
57.8000E+0	5.5366E-6	-26.7742E-9	100.0215E-12
57.9000E+0	5.7425E-6	-26.7777E-9	93.2092E-12
58.0000E+0	5.9614E-6	-26.8789E-9	64.4223E-12
58.1000E+0	6.0145E-6	-26.8606E-9	129.7742E-12
58.2000E+0	6.2570E-6	-27.0749E-9	87.1721E-12
58.3000E+0	6.4112E-6	-26.9112E-9	188.1897E-12
58.4000E+0	6.5053E-6	-26.9866E-9	50.3983E-12
58.5000E+0	6.7512E-6	-26.9122E-9	69.3877E-12
58.6000E+0	6.8640E-6	-26.7553E-9	79.2154E-12
58.7000E+0	7.1218E-6	-26.7419E-9	31.3665E-12
58.8000E+0	7.2168E-6	-26.7148E-9	37.9577E-12
58.9000E+0	7.4669E-6	-26.8135E-9	93.2668E-12
59.0000E+0	7.5735E-6	-26.7209E-9	51.9515E-12
59.1000E+0	7.7978E-6	-26.7574E-9	37.5005E-12
59.2000E+0	7.9385E-6	-26.7419E-9	63.4565E-12
59.3000E+0	8.1767E-6	-26.7918E-9	84.9983E-12
59.4000E+0	8.3986E-6	-26.7008E-9	93.2123E-12
59.5000E+0	8.5212E-6	-26.9028E-9	50.3347E-12
59.6000E+0	8.8486E-6	-27.0079E-9	88.5134E-12
59.7000E+0	9.0444E-6	-26.8998E-9	40.8763E-12
59.8000E+0	9.1927E-6	-26.9358E-9	47.7218E-12
59.9000E+0	9.5495E-6	-26.9090E-9	110.3397E-12
60.0000E+0	9.6221E-6	-26.8358E-9	162.2821E-12
60.1000E+0	9.6860E-6	-26.7646E-9	89.1976E-12
60.2000E+0	9.9898E-6	-26.7913E-9	71.6615E-12
60.3000E+0	10.2694E-6	-26.8098E-9	65.5062E-12
60.4000E+0	10.4140E-6	-26.8124E-9	117.0005E-12
60.5000E+0	10.7237E-6	-26.7738E-9	27.5456E-12
60.6000E+0	11.1067E-6	-26.7782E-9	60.3169E-12
60.7000E+0	11.2705E-6	-26.9404E-9	75.2704E-12
60.8000E+0	11.4974E-6	-26.8235E-9	45.7084E-12
60.9000E+0	11.8716E-6	-26.8137E-9	34.1701E-12
61.0000E+0	12.1626E-6	-26.9036E-9	75.8548E-12
61.1000E+0	12.3653E-6	-26.9803E-9	85.8066E-12
61.2000E+0	12.6858E-6	-26.9683E-9	97.4056E-12
61.3000E+0	12.9397E-6	-26.9022E-9	75.6761E-12
61.4000E+0	13.3195E-6	-26.9026E-9	64.6070E-12
61.5000E+0	13.3716E-6	-26.6600E-9	102.0984E-12
61.6000E+0	13.6898E-6	-26.7922E-9	33.2708E-12
61.7000E+0	14.0955E-6	-26.7971E-9	42.0571E-12
61.8000E+0	14.2418E-6	-26.8244E-9	64.8795E-12
61.9000E+0	14.6361E-6	-26.6679E-9	91.4017E-12
62.0000E+0	14.9476E-6	-26.8041E-9	85.3737E-12
62.1000E+0	15.1750E-6	-26.7398E-9	77.4412E-12
62.2000E+0	15.7197E-6	-26.6996E-9	79.8785E-12
62.3000E+0	15.9669E-6	-26.8101E-9	76.5451E-12
62.4000E+0	16.1374E-6	-26.8022E-9	40.0437E-12
62.5000E+0	16.5799E-6	-26.9501E-9	71.4768E-12
62.6000E+0	16.9319E-6	-26.8702E-9	133.2287E-12
62.7000E+0	17.3451E-6	-26.8456E-9	155.3942E-12
62.8000E+0	17.8814E-6	-27.0820E-9	44.4520E-12
62.9000E+0	18.1584E-6	-26.9982E-9	63.2083E-12
63.0000E+0	18.6155E-6	-26.7548E-9	109.2497E-12
63.1000E+0	18.6391E-6	-26.6037E-9	65.2277E-12
63.2000E+0	19.0089E-6	-26.5978E-9	59.7810E-12
63.3000E+0	19.5226E-6	-26.5158E-9	58.4851E-12
63.4000E+0	19.8677E-6	-26.5188E-9	62.4241E-12
63.5000E+0	20.1857E-6	-26.4576E-9	105.6741E-12
63.6000E+0	20.6287E-6	-26.4683E-9	98.7105E-12
63.7000E+0	21.2249E-6	-26.4167E-9	54.5007E-12
63.8000E+0	21.6469E-6	-26.5141E-9	43.1803E-12
63.9000E+0	22.0136E-6	-26.5837E-9	37.5247E-12
