Voltage(V)	Current(A)	DiodeCurrent(A)	DiodeCurrent Std(A)
0.0000E+0	4.3383E-12	-21.7714E-9	43.2772E-12
2.0000E+0	38.6546E-12	-21.7823E-9	163.1268E-12
4.0000E+0	65.1765E-12	-21.9755E-9	74.2985E-12
6.0000E+0	171.8838E-12	-21.8655E-9	118.1722E-12
8.0000E+0	227.9577E-12	-21.7951E-9	68.4340E-12
10.0000E+0	268.1299E-12	-21.6496E-9	52.8537E-12
12.0000E+0	303.7579E-12	-21.5820E-9	51.2036E-12
14.0000E+0	329.5066E-12	-21.5402E-9	23.8185E-12
16.0000E+0	358.3958E-12	-21.4406E-9	65.1944E-12
18.0000E+0	395.2586E-12	-21.4339E-9	49.6807E-12
20.0000E+0	428.1750E-12	-21.4532E-9	17.9721E-12
22.0000E+0	463.5241E-12	-21.4612E-9	59.4086E-12
24.0000E+0	502.0466E-12	-21.4797E-9	34.3578E-12
26.0000E+0	526.5566E-12	-21.5090E-9	28.5750E-12
28.0000E+0	542.5521E-12	-21.6125E-9	39.7954E-12
30.0000E+0	552.5289E-12	-21.5652E-9	71.1922E-12
32.0000E+0	561.6201E-12	-21.8166E-9	112.5105E-12
34.0000E+0	572.7530E-12	-21.9263E-9	70.1052E-12
36.0000E+0	585.0292E-12	-21.9599E-9	110.7424E-12
38.0000E+0	594.1825E-12	-21.9500E-9	117.9573E-12
40.0000E+0	609.8111E-12	-21.8323E-9	69.1425E-12
42.0000E+0	622.7050E-12	-21.6849E-9	41.3456E-12
44.0000E+0	637.1838E-12	-21.5892E-9	41.1034E-12
46.0000E+0	652.0319E-12	-21.5561E-9	37.3097E-12
48.0000E+0	672.8373E-12	-21.4724E-9	88.8525E-12
50.0000E+0	694.8562E-12	-21.4135E-9	67.6740E-12
50.1000E+0	697.2094E-12	-21.4968E-9	52.7901E-12
50.2000E+0	698.9708E-12	-21.5039E-9	34.2609E-12
50.3000E+0	701.0085E-12	-21.5021E-9	92.1223E-12
50.4000E+0	701.6900E-12	-21.5260E-9	93.6755E-12
50.5000E+0	703.5692E-12	-21.6621E-9	73.1208E-12
50.6000E+0	706.7075E-12	-21.8102E-9	88.4225E-12
50.7000E+0	708.9079E-12	-21.8404E-9	118.9776E-12
50.8000E+0	711.5117E-12	-21.8229E-9	57.5435E-12
50.9000E+0	715.9815E-12	-21.9836E-9	78.2193E-12
51.0000E+0	719.4650E-12	-21.8702E-9	39.4836E-12
51.1000E+0	723.2662E-12	-21.8520E-9	47.4736E-12
51.2000E+0	730.4370E-12	-21.7357E-9	65.9695E-12
51.3000E+0	738.4253E-12	-21.6565E-9	68.7065E-12
51.4000E+0	749.7830E-12	-21.5918E-9	61.7126E-12
51.5000E+0	768.8152E-12	-21.5471E-9	65.0127E-12
51.6000E+0	808.6748E-12	-21.5476E-9	59.4086E-12
51.7000E+0	925.2360E-12	-21.5783E-9	31.7116E-12
51.8000E+0	1.4520E-9	-21.6103E-9	52.2966E-12
51.9000E+0	4.0257E-9	-21.5824E-9	81.7042E-12
52.0000E+0	11.9714E-9	-21.6482E-9	40.2284E-12
52.1000E+0	25.1476E-9	-21.7167E-9	56.6746E-12
52.2000E+0	43.6524E-9	-21.8512E-9	107.9418E-12
52.3000E+0	64.2637E-9	-21.9247E-9	56.7109E-12
52.4000E+0	87.3316E-9	-21.9116E-9	58.5426E-12
52.5000E+0	115.2993E-9	-21.7950E-9	52.4450E-12
52.6000E+0	144.9513E-9	-21.7481E-9	51.7970E-12
52.7000E+0	173.7620E-9	-21.8224E-9	43.4286E-12
52.8000E+0	211.2917E-9	-21.7745E-9	64.1680E-12
52.9000E+0	246.9685E-9	-21.7202E-9	34.1973E-12
53.0000E+0	286.2274E-9	-21.7337E-9	31.2211E-12
53.1000E+0	329.3920E-9	-21.6925E-9	83.5087E-12
53.2000E+0	364.8504E-9	-21.7468E-9	65.2640E-12
53.3000E+0	413.1374E-9	-21.7324E-9	36.7799E-12
53.4000E+0	465.0455E-9	-21.8156E-9	69.3604E-12
53.5000E+0	522.7293E-9	-21.7317E-9	77.4715E-12
53.6000E+0	572.9931E-9	-21.8648E-9	29.9404E-12
53.7000E+0	622.2041E-9	-21.8209E-9	83.2301E-12
53.8000E+0	682.0916E-9	-21.9870E-9	14.7356E-12
53.9000E+0	728.6748E-9	-21.8112E-9	71.1679E-12
54.0000E+0	788.0311E-9	-21.8551E-9	181.8770E-12
54.1000E+0	849.7929E-9	-21.8262E-9	130.7006E-12
54.2000E+0	900.8926E-9	-21.7544E-9	80.1813E-12
54.3000E+0	962.0262E-9	-21.8163E-9	33.3647E-12
54.4000E+0	1.0322E-6	-21.6589E-9	82.9122E-12
54.5000E+0	1.0910E-6	-21.7701E-9	43.9009E-12
54.6000E+0	1.1726E-6	-21.7432E-9	60.1897E-12
54.7000E+0	1.2195E-6	-21.7421E-9	50.9251E-12
54.8000E+0	1.3147E-6	-21.6409E-9	71.9400E-12
54.9000E+0	1.3642E-6	-21.7907E-9	52.0120E-12
55.0000E+0	1.4260E-6	-21.8287E-9	108.8804E-12
55.1000E+0	1.5156E-6	-21.7956E-9	33.9551E-12
55.2000E+0	1.5904E-6	-21.7462E-9	86.7694E-12
55.3000E+0	1.6605E-6	-21.8619E-9	81.0805E-12
55.4000E+0	1.7514E-6	-21.9806E-9	75.1372E-12
55.5000E+0	1.8230E-6	-21.9525E-9	56.2416E-12
55.6000E+0	1.8954E-6	-21.8962E-9	35.3145E-12
55.7000E+0	1.9774E-6	-21.8167E-9	81.4226E-12
55.8000E+0	2.0545E-6	-21.7512E-9	65.2277E-12
55.9000E+0	2.1507E-6	-21.7859E-9	65.6607E-12
56.0000E+0	2.2345E-6	-21.7662E-9	56.2386E-12
56.1000E+0	2.2798E-6	-21.7243E-9	33.0831E-12
56.2000E+0	2.3635E-6	-21.6909E-9	77.2566E-12
56.3000E+0	2.5040E-6	-21.7192E-9	69.2999E-12
56.4000E+0	2.5764E-6	-21.7764E-9	55.2758E-12
56.5000E+0	2.6455E-6	-21.7647E-9	44.0856E-12
56.6000E+0	2.7521E-6	-21.8193E-9	97.8718E-12
56.7000E+0	2.8618E-6	-21.8042E-9	64.0742E-12
56.8000E+0	2.9483E-6	-21.8896E-9	17.5967E-12
56.9000E+0	3.0625E-6	-21.8967E-9	132.6868E-12
57.0000E+0	3.1493E-6	-21.9139E-9	57.7070E-12
57.1000E+0	3.2426E-6	-21.8830E-9	93.8057E-12
57.2000E+0	3.3325E-6	-21.7686E-9	35.7838E-12
57.3000E+0	3.4469E-6	-21.7385E-9	68.9608E-12
57.4000E+0	3.5528E-6	-21.6763E-9	33.3042E-12
57.5000E+0	3.6645E-6	-21.7021E-9	98.7044E-12
57.6000E+0	3.7636E-6	-21.6797E-9	42.4628E-12
57.7000E+0	3.8679E-6	-21.6212E-9	92.3373E-12
57.8000E+0	3.9863E-6	-21.7596E-9	65.2005E-12
57.9000E+0	4.1182E-6	-21.6925E-9	87.4234E-12
58.0000E+0	4.2415E-6	-21.7121E-9	54.2252E-12
58.1000E+0	4.3452E-6	-21.7064E-9	34.1640E-12
58.2000E+0	4.4667E-6	-21.7000E-9	49.5293E-12
58.3000E+0	4.5454E-6	-21.7137E-9	57.4830E-12
58.4000E+0	4.6319E-6	-21.8167E-9	54.9609E-12
58.5000E+0	4.8617E-6	-21.8864E-9	109.1892E-12
58.6000E+0	5.0012E-6	-21.9109E-9	56.4263E-12
58.7000E+0	5.0803E-6	-21.8155E-9	26.0227E-12
58.8000E+0	5.2687E-6	-21.7952E-9	40.9459E-12
58.9000E+0	5.3373E-6	-21.7994E-9	38.1484E-12
59.0000E+0	5.4737E-6	-21.6962E-9	8.7045E-12
59.1000E+0	5.5988E-6	-21.6736E-9	10.6301E-12
59.2000E+0	5.7472E-6	-21.6795E-9	68.5218E-12
59.3000E+0	5.8900E-6	-21.7496E-9	73.6809E-12
59.4000E+0	6.0586E-6	-21.7313E-9	127.2188E-12
59.5000E+0	6.1993E-6	-21.7881E-9	66.6931E-12
59.6000E+0	6.3986E-6	-21.7944E-9	64.5435E-12
59.7000E+0	6.6015E-6	-21.8929E-9	50.9826E-12
59.8000E+0	6.7503E-6	-21.9074E-9	95.1681E-12
59.9000E+0	6.8994E-6	-21.6519E-9	152.4271E-12
60.0000E+0	7.0074E-6	-21.8396E-9	115.7501E-12
60.1000E+0	7.2578E-6	-21.8015E-9	37.3430E-12
60.2000E+0	7.4052E-6	-21.6964E-9	62.3060E-12
60.3000E+0	7.5649E-6	-21.7362E-9	61.7065E-12
60.4000E+0	7.6558E-6	-21.7139E-9	30.6852E-12
60.5000E+0	7.9064E-6	-21.6638E-9	58.1672E-12
60.6000E+0	8.0680E-6	-21.6938E-9	22.9102E-12
60.7000E+0	8.2284E-6	-21.7321E-9	84.8469E-12
60.8000E+0	8.4447E-6	-21.7433E-9	56.7079E-12
60.9000E+0	8.5802E-6	-21.7055E-9	74.8344E-12
61.0000E+0	8.8572E-6	-21.7332E-9	85.0951E-12
61.1000E+0	9.0062E-6	-21.7372E-9	106.9184E-12
61.2000E+0	9.2266E-6	-21.7662E-9	56.2447E-12
61.3000E+0	9.4923E-6	-21.7722E-9	44.9212E-12
61.4000E+0	9.8030E-6	-21.8646E-9	45.8235E-12
61.5000E+0	9.8009E-6	-21.9366E-9	20.0794E-12
61.6000E+0	10.2888E-6	-21.8870E-9	93.5150E-12
61.7000E+0	10.3156E-6	-21.9503E-9	68.5854E-12
61.8000E+0	10.5853E-6	-21.8386E-9	42.9987E-12
61.9000E+0	10.8744E-6	-21.7858E-9	38.6116E-12
62.0000E+0	11.0966E-6	-21.7684E-9	73.8959E-12
62.1000E+0	11.3531E-6	-21.7488E-9	26.6706E-12
62.2000E+0	11.5789E-6	-21.7388E-9	56.0236E-12
62.3000E+0	11.7297E-6	-21.7629E-9	43.8676E-12
62.4000E+0	11.9972E-6	-21.7342E-9	34.2912E-12
62.5000E+0	12.2537E-6	-21.6906E-9	53.3502E-12
62.6000E+0	12.5089E-6	-21.6823E-9	99.8277E-12
62.7000E+0	12.8590E-6	-21.7217E-9	44.1734E-12
62.8000E+0	13.1907E-6	-21.7434E-9	53.2564E-12
62.9000E+0	13.4915E-6	-21.8000E-9	58.3549E-12
63.0000E+0	13.7354E-6	-21.7607E-9	75.6761E-12
63.1000E+0	13.9099E-6	-21.8558E-9	51.9817E-12
63.2000E+0	14.4101E-6	-21.8446E-9	31.0879E-12
63.3000E+0	14.7289E-6	-21.8889E-9	52.9748E-12
63.4000E+0	14.9645E-6	-21.8901E-9	36.4317E-12
63.5000E+0	15.3628E-6	-21.8117E-9	57.5799E-12
63.6000E+0	15.4517E-6	-21.7192E-9	84.4745E-12
63.7000E+0	15.9934E-6	-21.8914E-9	102.3467E-12
63.8000E+0	16.2092E-6	-21.8377E-9	56.1478E-12
63.9000E+0	16.6607E-6	-21.7357E-9	54.2525E-12
