Voltage(V)	Current(A)	DiodeCurrent(A)	DiodeCurrent Std(A)
0.0000E+0	2.6338E-12	-47.1628E-9	79.4365E-12
2.0000E+0	43.1772E-12	-47.2540E-9	174.0233E-12
4.0000E+0	71.8301E-12	-47.1560E-9	213.1193E-12
6.0000E+0	187.4689E-12	-46.9600E-9	97.3965E-12
8.0000E+0	249.1357E-12	-46.9823E-9	167.0143E-12
10.0000E+0	295.8293E-12	-46.8358E-9	152.0758E-12
12.0000E+0	328.0512E-12	-46.9079E-9	191.9137E-12
14.0000E+0	359.4786E-12	-46.9953E-9	292.1440E-12
16.0000E+0	392.8285E-12	-46.7913E-9	65.2277E-12
18.0000E+0	427.1742E-12	-46.9913E-9	85.2738E-12
20.0000E+0	468.4519E-12	-46.7441E-9	147.2679E-12
22.0000E+0	506.0166E-12	-46.9813E-9	271.8800E-12
24.0000E+0	546.6486E-12	-46.6852E-9	311.6118E-12
26.0000E+0	572.0894E-12	-47.2487E-9	190.4574E-12
28.0000E+0	589.8541E-12	-47.1665E-9	124.6302E-12
30.0000E+0	601.7935E-12	-47.1325E-9	96.6365E-12
32.0000E+0	613.1682E-12	-47.0218E-9	124.8573E-12
34.0000E+0	625.6979E-12	-47.0003E-9	75.0433E-12
36.0000E+0	639.5444E-12	-47.0370E-9	169.4455E-12
38.0000E+0	651.4038E-12	-46.9416E-9	69.0516E-12
40.0000E+0	666.4483E-12	-47.0053E-9	144.5370E-12
42.0000E+0	683.3769E-12	-46.8805E-9	74.4075E-12
44.0000E+0	702.7621E-12	-46.8942E-9	103.6577E-12
46.0000E+0	725.5908E-12	-46.8652E-9	201.4387E-12
48.0000E+0	756.4048E-12	-46.7746E-9	243.2051E-12
50.0000E+0	819.5646E-12	-46.9388E-9	135.3693E-12
50.1000E+0	822.9882E-12	-47.0459E-9	301.1392E-12
50.2000E+0	829.6943E-12	-47.1082E-9	184.4505E-12
50.3000E+0	835.7625E-12	-47.1874E-9	58.6395E-12
50.4000E+0	844.8838E-12	-47.4319E-9	195.5680E-12
50.5000E+0	853.4830E-12	-47.2803E-9	177.0509E-12
50.6000E+0	864.0400E-12	-47.1895E-9	211.7478E-12
50.7000E+0	874.1980E-12	-46.9271E-9	122.7742E-12
50.8000E+0	887.5131E-12	-46.9522E-9	83.3119E-12
50.9000E+0	904.0662E-12	-46.9603E-9	151.4673E-12
51.0000E+0	924.4268E-12	-46.8036E-9	69.9539E-12
51.1000E+0	949.6534E-12	-46.8374E-9	90.0998E-12
51.2000E+0	984.9682E-12	-46.9126E-9	134.4973E-12
51.3000E+0	1.0271E-9	-46.9153E-9	72.7211E-12
51.4000E+0	1.0953E-9	-47.0061E-9	114.6026E-12
51.5000E+0	1.2015E-9	-46.8126E-9	117.9845E-12
51.6000E+0	1.3891E-9	-47.1106E-9	52.6993E-12
51.7000E+0	1.8754E-9	-47.3767E-9	115.5291E-12
51.8000E+0	3.6178E-9	-47.2304E-9	295.6349E-12
51.9000E+0	12.9619E-9	-47.1838E-9	63.9198E-12
52.0000E+0	49.4845E-9	-47.2336E-9	178.7010E-12
52.1000E+0	126.7906E-9	-47.1351E-9	107.7268E-12
52.2000E+0	234.6570E-9	-46.8642E-9	85.5917E-12
52.3000E+0	365.1835E-9	-47.0486E-9	208.2630E-12
52.4000E+0	520.5330E-9	-46.9085E-9	159.0334E-12
52.5000E+0	695.0581E-9	-46.9516E-9	68.5490E-12
52.6000E+0	878.4721E-9	-46.9665E-9	109.7190E-12
52.7000E+0	1.0809E-6	-46.8206E-9	94.0176E-12
52.8000E+0	1.3070E-6	-47.0078E-9	136.7620E-12
52.9000E+0	1.5419E-6	-46.9516E-9	139.3597E-12
53.0000E+0	1.7842E-6	-46.9781E-9	152.8600E-12
53.1000E+0	2.0549E-6	-47.0844E-9	381.7292E-12
53.2000E+0	2.3313E-6	-46.9651E-9	112.0866E-12
53.3000E+0	2.5839E-6	-47.2735E-9	132.9714E-12
53.4000E+0	2.9108E-6	-47.1513E-9	102.4072E-12
53.5000E+0	3.1954E-6	-47.1732E-9	75.7427E-12
53.6000E+0	3.5222E-6	-47.2472E-9	140.7555E-12
53.7000E+0	3.7836E-6	-46.9479E-9	64.8644E-12
53.8000E+0	4.1022E-6	-47.0146E-9	67.3713E-12
53.9000E+0	4.4066E-6	-46.8089E-9	102.6525E-12
54.0000E+0	4.7495E-6	-46.8205E-9	71.6645E-12
54.1000E+0	5.0702E-6	-46.8963E-9	232.7779E-12
54.2000E+0	5.3991E-6	-46.8132E-9	94.3295E-12
54.3000E+0	5.8180E-6	-46.8442E-9	281.5503E-12
54.4000E+0	6.1189E-6	-46.9373E-9	167.4805E-12
54.5000E+0	6.5000E-6	-47.0469E-9	96.8121E-12
54.6000E+0	6.8578E-6	-47.0761E-9	150.4137E-12
54.7000E+0	7.1915E-6	-47.1612E-9	227.2403E-12
54.8000E+0	7.6297E-6	-47.2717E-9	288.6108E-12
54.9000E+0	8.0634E-6	-47.0876E-9	538.5070E-12
55.0000E+0	8.3226E-6	-47.1594E-9	68.8972E-12
55.1000E+0	8.7397E-6	-47.2825E-9	139.1326E-12
55.2000E+0	9.0790E-6	-47.0227E-9	212.6955E-12
55.3000E+0	9.4020E-6	-46.9603E-9	59.1936E-12
55.4000E+0	9.9326E-6	-46.9092E-9	110.3700E-12
55.5000E+0	10.1398E-6	-47.0614E-9	160.1445E-12
55.6000E+0	10.5672E-6	-46.7324E-9	95.1409E-12
55.7000E+0	11.0254E-6	-46.8292E-9	102.7827E-12
55.8000E+0	11.5047E-6	-46.8637E-9	82.6125E-12
55.9000E+0	11.8459E-6	-47.0039E-9	139.6928E-12
56.0000E+0	12.3131E-6	-47.0725E-9	193.5123E-12
56.1000E+0	12.7710E-6	-47.0583E-9	154.1135E-12
56.2000E+0	13.0654E-6	-47.1165E-9	48.7119E-12
56.3000E+0	13.5866E-6	-47.1027E-9	271.5045E-12
56.4000E+0	14.1815E-6	-47.0921E-9	246.2872E-12
56.5000E+0	14.4733E-6	-47.2592E-9	99.2403E-12
56.6000E+0	14.8954E-6	-47.1240E-9	69.5845E-12
56.7000E+0	15.2350E-6	-47.0888E-9	183.2092E-12
56.8000E+0	15.7360E-6	-46.8649E-9	276.9362E-12
56.9000E+0	16.0684E-6	-47.0517E-9	252.5151E-12
57.0000E+0	16.6923E-6	-46.9661E-9	259.6876E-12
57.1000E+0	17.0762E-6	-46.7606E-9	134.4610E-12
57.2000E+0	17.5128E-6	-46.9303E-9	230.9764E-12
57.3000E+0	17.9528E-6	-46.8407E-9	80.9230E-12
57.4000E+0	18.3742E-6	-47.0028E-9	140.5375E-12
57.5000E+0	18.8548E-6	-47.1330E-9	234.3583E-12
57.6000E+0	19.4578E-6	-46.8182E-9	313.4405E-12
57.7000E+0	19.7875E-6	-46.9372E-9	317.8215E-12
57.8000E+0	20.4692E-6	-46.8692E-9	157.7224E-12
57.9000E+0	20.9709E-6	-47.0620E-9	211.2331E-12
58.0000E+0	21.4720E-6	-47.3599E-9	79.0580E-12
58.1000E+0	21.8983E-6	-47.0272E-9	109.9764E-12
58.2000E+0	22.3829E-6	-47.0218E-9	116.4222E-12
58.3000E+0	22.9821E-6	-46.9231E-9	95.6980E-12
58.4000E+0	23.3735E-6	-46.9198E-9	91.6561E-12
58.5000E+0	23.7819E-6	-46.7791E-9	165.8305E-12
58.6000E+0	24.3571E-6	-46.9113E-9	36.3681E-12
58.7000E+0	24.9462E-6	-46.7425E-9	213.2495E-12
58.8000E+0	25.4999E-6	-46.7888E-9	104.8687E-12
58.9000E+0	25.9795E-6	-46.9064E-9	176.0639E-12
59.0000E+0	26.6917E-6	-46.9105E-9	80.8292E-12
59.1000E+0	27.2658E-6	-47.1298E-9	263.1997E-12
59.2000E+0	27.6907E-6	-47.0084E-9	89.1916E-12
59.3000E+0	28.3354E-6	-47.0807E-9	180.7538E-12
59.4000E+0	29.0347E-6	-47.3836E-9	249.7781E-12
59.5000E+0	29.8772E-6	-47.3345E-9	193.2549E-12
59.6000E+0	29.9684E-6	-47.1069E-9	166.5844E-12
59.7000E+0	30.7212E-6	-47.0040E-9	141.9877E-12
59.8000E+0	31.3581E-6	-46.7678E-9	92.2828E-12
59.9000E+0	32.0990E-6	-46.9328E-9	219.9921E-12
60.0000E+0	32.5388E-6	-46.8165E-9	100.5362E-12
60.1000E+0	32.9212E-6	-46.6215E-9	171.5860E-12
60.2000E+0	33.7235E-6	-46.7337E-9	117.2034E-12
60.3000E+0	34.4207E-6	-46.8735E-9	207.1004E-12
60.4000E+0	35.3461E-6	-46.9228E-9	122.7016E-12
60.5000E+0	35.8740E-6	-46.8915E-9	192.9794E-12
60.6000E+0	36.7573E-6	-46.9070E-9	145.8631E-12
60.7000E+0	37.2823E-6	-47.1240E-9	70.9863E-12
60.8000E+0	38.0330E-6	-46.9190E-9	145.7238E-12
60.9000E+0	39.0237E-6	-47.0225E-9	125.8503E-12
61.0000E+0	39.5500E-6	-47.1880E-9	94.1660E-12
61.1000E+0	39.6310E-6	-47.2144E-9	219.1232E-12
61.2000E+0	41.0070E-6	-47.0189E-9	66.9020E-12
61.3000E+0	41.5363E-6	-46.9481E-9	172.4307E-12
61.4000E+0	42.1404E-6	-46.8885E-9	71.9037E-12
61.5000E+0	43.2095E-6	-46.8253E-9	98.3896E-12
61.6000E+0	44.0034E-6	-46.8589E-9	166.0152E-12
61.7000E+0	45.3492E-6	-47.0219E-9	183.8934E-12
61.8000E+0	45.4005E-6	-46.9092E-9	284.8171E-12
61.9000E+0	46.8542E-6	-46.8495E-9	109.3830E-12
62.0000E+0	47.2602E-6	-46.9054E-9	47.2192E-12
62.1000E+0	48.4763E-6	-46.9350E-9	234.7035E-12
62.2000E+0	49.2861E-6	-47.0107E-9	165.3763E-12
62.3000E+0	50.0441E-6	-47.0263E-9	196.1827E-12
62.4000E+0	51.2585E-6	-47.0835E-9	232.9898E-12
62.5000E+0	51.7048E-6	-47.2169E-9	58.3368E-12
62.6000E+0	52.9172E-6	-47.2476E-9	191.2991E-12
62.7000E+0	53.6956E-6	-47.0966E-9	181.8740E-12
62.8000E+0	54.3920E-6	-47.1184E-9	129.1747E-12
62.9000E+0	55.7748E-6	-46.8490E-9	140.5496E-12
63.0000E+0	56.5596E-6	-46.8821E-9	150.4106E-12
63.1000E+0	57.9387E-6	-46.8495E-9	104.1451E-12
63.2000E+0	58.5397E-6	-46.8604E-9	195.4591E-12
63.3000E+0	59.5539E-6	-46.8108E-9	159.5420E-12
63.4000E+0	60.0093E-6	-46.8058E-9	97.8415E-12
63.5000E+0	61.7148E-6	-46.9252E-9	77.0416E-12
63.6000E+0	62.6634E-6	-46.9998E-9	115.1991E-12
63.7000E+0	63.9091E-6	-46.9418E-9	59.7870E-12
63.8000E+0	65.0483E-6	-46.7690E-9	266.3787E-12
63.9000E+0	66.6816E-6	-47.0832E-9	302.6015E-12
