Voltage(V)	Current(A)	DiodeCurrent(A)	DiodeCurrent Std(A)
0.0000E+0	2.2027E-12	-24.6416E-9	100.5846E-12
2.0000E+0	36.9064E-12	-24.6906E-9	93.6119E-12
4.0000E+0	61.4572E-12	-24.7517E-9	68.8336E-12
6.0000E+0	163.0878E-12	-24.8366E-9	73.5023E-12
8.0000E+0	220.1051E-12	-24.9230E-9	84.3806E-12
10.0000E+0	258.4187E-12	-25.1535E-9	41.9087E-12
12.0000E+0	288.0841E-12	-25.0612E-9	79.5273E-12
14.0000E+0	317.9511E-12	-24.9261E-9	56.1811E-12
16.0000E+0	345.2572E-12	-24.8520E-9	67.8042E-12
18.0000E+0	378.7146E-12	-24.6266E-9	94.5838E-12
20.0000E+0	411.3474E-12	-24.6056E-9	42.6566E-12
22.0000E+0	445.8982E-12	-24.5792E-9	56.9864E-12
24.0000E+0	481.8737E-12	-24.6099E-9	39.7954E-12
26.0000E+0	505.1666E-12	-24.6414E-9	21.9505E-12
28.0000E+0	520.5517E-12	-24.5988E-9	34.4819E-12
30.0000E+0	530.1219E-12	-24.6960E-9	63.3021E-12
32.0000E+0	540.3054E-12	-24.7015E-9	42.8746E-12
34.0000E+0	549.8277E-12	-24.8452E-9	48.4757E-12
36.0000E+0	561.4524E-12	-24.7850E-9	130.1133E-12
38.0000E+0	571.7487E-12	-24.9711E-9	48.0700E-12
40.0000E+0	584.5419E-12	-25.0693E-9	113.4188E-12
42.0000E+0	598.6282E-12	-25.0233E-9	49.4658E-12
44.0000E+0	611.3225E-12	-24.8291E-9	79.8664E-12
46.0000E+0	628.4199E-12	-24.6805E-9	32.5170E-12
48.0000E+0	646.8880E-12	-24.6630E-9	98.3411E-12
50.0000E+0	671.8583E-12	-24.5232E-9	50.7343E-12
50.1000E+0	673.4627E-12	-24.4798E-9	57.0197E-12
50.2000E+0	676.3080E-12	-24.5690E-9	63.7653E-12
50.3000E+0	677.1104E-12	-24.6424E-9	56.5505E-12
50.4000E+0	681.1380E-12	-24.5078E-9	124.6090E-12
50.5000E+0	684.1638E-12	-24.6241E-9	98.2170E-12
50.6000E+0	685.4626E-12	-24.7289E-9	100.8268E-12
50.7000E+0	688.9523E-12	-24.8332E-9	121.0606E-12
50.8000E+0	693.3927E-12	-24.9140E-9	92.0920E-12
50.9000E+0	698.6298E-12	-25.0465E-9	155.4820E-12
51.0000E+0	702.2671E-12	-24.9169E-9	129.7984E-12
51.1000E+0	708.9542E-12	-24.9809E-9	42.9987E-12
51.2000E+0	717.3770E-12	-24.8726E-9	64.3557E-12
51.3000E+0	731.4823E-12	-24.6985E-9	27.3639E-12
51.4000E+0	749.2428E-12	-24.6509E-9	78.7522E-12
51.5000E+0	781.6481E-12	-24.5274E-9	42.0631E-12
51.6000E+0	853.5401E-12	-24.4923E-9	72.3185E-12
51.7000E+0	1.1086E-9	-24.5499E-9	108.5382E-12
51.8000E+0	2.2784E-9	-24.5414E-9	29.5378E-12
51.9000E+0	7.7914E-9	-24.6779E-9	125.5143E-12
52.0000E+0	21.9407E-9	-24.6485E-9	45.3270E-12
52.1000E+0	41.7119E-9	-24.7305E-9	14.2935E-12
52.2000E+0	67.6644E-9	-24.8512E-9	71.5676E-12
52.3000E+0	98.4547E-9	-24.9817E-9	36.7496E-12
52.4000E+0	136.6636E-9	-24.7431E-9	247.3863E-12
52.5000E+0	174.7120E-9	-24.8890E-9	206.3132E-12
52.6000E+0	217.9216E-9	-24.9908E-9	48.2517E-12
52.7000E+0	265.5306E-9	-24.8231E-9	52.3208E-12
52.8000E+0	309.8836E-9	-24.7453E-9	26.2437E-12
52.9000E+0	359.2608E-9	-24.7229E-9	46.4502E-12
53.0000E+0	414.8490E-9	-24.6076E-9	40.9126E-12
53.1000E+0	469.0723E-9	-24.6179E-9	59.3208E-12
53.2000E+0	530.5382E-9	-24.6450E-9	69.5815E-12
53.3000E+0	599.4310E-9	-24.6237E-9	69.2726E-12
53.4000E+0	669.5579E-9	-24.6826E-9	41.5424E-12
53.5000E+0	740.9125E-9	-24.6920E-9	52.4450E-12
53.6000E+0	806.9394E-9	-24.6959E-9	153.3989E-12
53.7000E+0	883.5348E-9	-24.8634E-9	117.6424E-12
53.8000E+0	955.1541E-9	-24.7031E-9	189.4704E-12
53.9000E+0	1.0410E-6	-24.8667E-9	113.1009E-12
54.0000E+0	1.1037E-6	-24.7971E-9	186.7576E-12
54.1000E+0	1.2145E-6	-24.9059E-9	56.4960E-12
54.2000E+0	1.2798E-6	-24.7677E-9	47.8127E-12
54.3000E+0	1.3677E-6	-24.7718E-9	45.1392E-12
54.4000E+0	1.4405E-6	-24.6792E-9	47.9731E-12
54.5000E+0	1.5371E-6	-24.6138E-9	98.9345E-12
54.6000E+0	1.6377E-6	-24.5776E-9	49.5263E-12
54.7000E+0	1.7049E-6	-24.6022E-9	34.4789E-12
54.8000E+0	1.7993E-6	-24.6303E-9	112.5166E-12
54.9000E+0	1.8845E-6	-24.6369E-9	46.8196E-12
55.0000E+0	1.9917E-6	-24.6984E-9	27.5425E-12
55.1000E+0	2.0817E-6	-24.7173E-9	41.1064E-12
55.2000E+0	2.2035E-6	-24.8577E-9	155.8271E-12
55.3000E+0	2.3164E-6	-24.9841E-9	109.0984E-12
55.4000E+0	2.4187E-6	-25.0693E-9	45.5147E-12
55.5000E+0	2.5442E-6	-25.0069E-9	157.0654E-12
55.6000E+0	2.6173E-6	-25.0470E-9	77.1021E-12
55.7000E+0	2.7421E-6	-24.8971E-9	25.8652E-12
55.8000E+0	2.8507E-6	-24.8371E-9	39.6471E-12
55.9000E+0	2.9491E-6	-24.6930E-9	59.9081E-12
56.0000E+0	3.0518E-6	-24.6783E-9	57.9856E-12
56.1000E+0	3.2017E-6	-24.6693E-9	73.1813E-12
56.2000E+0	3.2754E-6	-24.6876E-9	88.8615E-12
56.3000E+0	3.4236E-6	-24.6933E-9	21.8203E-12
56.4000E+0	3.5631E-6	-24.7152E-9	67.9072E-12
56.5000E+0	3.6599E-6	-24.7735E-9	27.8574E-12
56.6000E+0	3.7892E-6	-24.7942E-9	90.2240E-12
56.7000E+0	3.9224E-6	-24.9502E-9	59.3571E-12
56.8000E+0	4.0736E-6	-24.9351E-9	78.9399E-12
56.9000E+0	4.2072E-6	-24.8407E-9	88.9191E-12
57.0000E+0	4.3138E-6	-24.8996E-9	88.9493E-12
57.1000E+0	4.4357E-6	-24.8930E-9	42.7807E-12
57.2000E+0	4.5556E-6	-24.8715E-9	47.0648E-12
57.3000E+0	4.6930E-6	-24.8651E-9	21.7294E-12
57.4000E+0	4.8710E-6	-24.8615E-9	58.1975E-12
57.5000E+0	5.0172E-6	-24.9554E-9	58.0461E-12
57.6000E+0	5.1887E-6	-24.8873E-9	81.7344E-12
57.7000E+0	5.3099E-6	-24.8281E-9	112.1442E-12
57.8000E+0	5.4819E-6	-24.9221E-9	111.0875E-12
57.9000E+0	5.6457E-6	-25.1568E-9	49.9320E-12
58.0000E+0	5.8290E-6	-25.0960E-9	47.0103E-12
58.1000E+0	5.9703E-6	-25.0210E-9	82.7669E-12
58.2000E+0	6.1107E-6	-24.9561E-9	91.8074E-12
58.3000E+0	6.1828E-6	-24.9647E-9	78.6341E-12
58.4000E+0	6.3902E-6	-24.9427E-9	69.1394E-12
58.5000E+0	6.5409E-6	-24.9107E-9	32.3959E-12
58.6000E+0	6.7175E-6	-24.9113E-9	55.5574E-12
58.7000E+0	6.9261E-6	-24.9040E-9	77.1082E-12
58.8000E+0	7.1377E-6	-24.8499E-9	65.5123E-12
58.9000E+0	7.1737E-6	-24.8781E-9	91.4381E-12
59.0000E+0	7.3844E-6	-24.8171E-9	70.0447E-12
59.1000E+0	7.5384E-6	-24.8962E-9	76.3604E-12
59.2000E+0	7.7135E-6	-25.0302E-9	71.1710E-12
59.3000E+0	7.9837E-6	-24.9634E-9	136.1353E-12
59.4000E+0	8.3501E-6	-25.0403E-9	97.5358E-12
59.5000E+0	8.3528E-6	-24.9382E-9	82.1371E-12
59.6000E+0	8.5982E-6	-24.9504E-9	98.5864E-12
59.7000E+0	8.7227E-6	-24.8826E-9	58.0461E-12
59.8000E+0	9.0162E-6	-24.9034E-9	54.0405E-12
59.9000E+0	9.0877E-6	-24.8110E-9	50.7616E-12
60.0000E+0	9.3541E-6	-24.8823E-9	39.3625E-12
60.1000E+0	9.5566E-6	-24.7269E-9	155.7696E-12
60.2000E+0	9.8690E-6	-24.8291E-9	73.8383E-12
60.3000E+0	10.0576E-6	-24.7785E-9	107.2606E-12
60.4000E+0	10.2285E-6	-24.8563E-9	61.1585E-12
60.5000E+0	10.4619E-6	-24.8450E-9	58.7909E-12
60.6000E+0	10.6900E-6	-24.8002E-9	129.4866E-12
60.7000E+0	10.9660E-6	-24.9698E-9	87.3023E-12
60.8000E+0	11.3348E-6	-24.9373E-9	78.7522E-12
60.9000E+0	11.5874E-6	-24.8719E-9	82.7608E-12
61.0000E+0	11.7582E-6	-24.8987E-9	104.6750E-12
61.1000E+0	11.9393E-6	-24.9354E-9	26.0893E-12
61.2000E+0	12.1777E-6	-24.8464E-9	26.2739E-12
61.3000E+0	12.5529E-6	-24.8977E-9	56.9895E-12
61.4000E+0	12.7622E-6	-24.8580E-9	69.4846E-12
61.5000E+0	13.1790E-6	-24.8489E-9	70.7077E-12
61.6000E+0	13.3208E-6	-24.8139E-9	55.1850E-12
61.7000E+0	13.6467E-6	-24.9813E-9	86.1821E-12
61.8000E+0	13.8679E-6	-24.9586E-9	81.4559E-12
61.9000E+0	14.2536E-6	-24.9670E-9	34.2003E-12
62.0000E+0	14.6734E-6	-25.0097E-9	20.7394E-12
62.1000E+0	14.9291E-6	-25.0829E-9	38.8932E-12
62.2000E+0	15.2213E-6	-24.9125E-9	91.4048E-12
62.3000E+0	15.6722E-6	-24.9988E-9	38.9265E-12
62.4000E+0	15.7826E-6	-25.0590E-9	67.9889E-12
62.5000E+0	16.1276E-6	-24.8143E-9	60.9103E-12
62.6000E+0	16.5926E-6	-24.5511E-9	167.1475E-12
62.7000E+0	16.6721E-6	-24.8317E-9	90.4722E-12
62.8000E+0	17.3189E-6	-24.7070E-9	127.1916E-12
62.9000E+0	17.5935E-6	-24.8386E-9	103.6213E-12
63.0000E+0	17.9514E-6	-24.7650E-9	46.1353E-12
63.1000E+0	18.0503E-6	-24.8126E-9	58.9211E-12
63.2000E+0	18.7518E-6	-24.8051E-9	105.9829E-12
63.3000E+0	19.1650E-6	-24.8282E-9	130.4251E-12
63.4000E+0	19.6621E-6	-24.9935E-9	90.8749E-12
63.5000E+0	20.0636E-6	-25.0297E-9	58.1127E-12
63.6000E+0	20.6018E-6	-25.1181E-9	88.1137E-12
63.7000E+0	20.8647E-6	-25.1645E-9	62.3000E-12
63.8000E+0	21.2988E-6	-24.9241E-9	51.0492E-12
63.9000E+0	21.6620E-6	-24.7298E-9	84.5653E-12
