Voltage(V)	Current(A)	DiodeCurrent(A)	DiodeCurrent Std(A)
0.0000E+0	2.4647E-12	-109.6003E-9	240.5165E-12
2.0000E+0	39.8619E-12	-109.3991E-9	159.2241E-12
4.0000E+0	70.9941E-12	-109.0260E-9	269.4609E-12
6.0000E+0	193.3613E-12	-109.4590E-9	179.9635E-12
8.0000E+0	251.4969E-12	-108.1893E-9	632.3248E-12
10.0000E+0	297.7447E-12	-109.3537E-9	312.2113E-12
12.0000E+0	332.8816E-12	-108.3575E-9	580.4006E-12
14.0000E+0	364.6073E-12	-109.0273E-9	330.5286E-12
16.0000E+0	398.2261E-12	-109.0946E-9	283.3578E-12
18.0000E+0	434.6491E-12	-109.3312E-9	411.6696E-12
20.0000E+0	474.5502E-12	-108.9896E-9	505.4965E-12
22.0000E+0	513.1601E-12	-108.7319E-9	525.0551E-12
24.0000E+0	554.6182E-12	-109.0773E-9	359.6243E-12
26.0000E+0	580.4166E-12	-109.1756E-9	444.5499E-12
28.0000E+0	595.3888E-12	-108.2144E-9	421.7820E-12
30.0000E+0	607.9870E-12	-109.0511E-9	481.5175E-12
32.0000E+0	619.2258E-12	-109.3513E-9	185.3830E-12
34.0000E+0	630.7103E-12	-108.8999E-9	275.0015E-12
36.0000E+0	642.4575E-12	-108.9996E-9	275.2437E-12
38.0000E+0	654.9063E-12	-109.3949E-9	422.4481E-12
40.0000E+0	670.2826E-12	-108.7987E-9	435.8303E-12
42.0000E+0	685.1990E-12	-109.0830E-9	242.8478E-12
44.0000E+0	701.3373E-12	-108.9730E-9	439.6754E-12
46.0000E+0	718.3611E-12	-109.0353E-9	406.3712E-12
48.0000E+0	740.2629E-12	-109.1134E-9	274.9409E-12
50.0000E+0	770.1958E-12	-109.1926E-9	186.6244E-12
50.1000E+0	771.0452E-12	-109.2949E-9	456.1761E-12
50.2000E+0	774.0627E-12	-109.4194E-9	365.4677E-12
50.3000E+0	775.0784E-12	-109.3206E-9	177.5717E-12
50.4000E+0	778.5656E-12	-109.1099E-9	145.4786E-12
50.5000E+0	781.4295E-12	-109.1535E-9	255.7456E-12
50.6000E+0	783.9205E-12	-109.2165E-9	247.7526E-12
50.7000E+0	787.8648E-12	-108.9346E-9	144.0556E-12
50.8000E+0	791.3341E-12	-108.2394E-9	705.5939E-12
50.9000E+0	796.2264E-12	-108.7278E-9	366.7998E-12
51.0000E+0	800.9760E-12	-109.4046E-9	495.1117E-12
51.1000E+0	807.1637E-12	-109.0656E-9	399.4379E-12
51.2000E+0	815.6607E-12	-109.2986E-9	147.6282E-12
51.3000E+0	826.2362E-12	-109.3122E-9	876.3837E-12
51.4000E+0	843.3889E-12	-109.6943E-9	300.5246E-12
51.5000E+0	866.4260E-12	-109.5603E-9	345.0613E-12
51.6000E+0	906.6854E-12	-108.7838E-9	496.5044E-12
51.7000E+0	1.0003E-9	-108.8036E-9	201.9443E-12
51.8000E+0	1.3748E-9	-108.7554E-9	349.3606E-12
51.9000E+0	3.1432E-9	-108.8212E-9	286.6882E-12
52.0000E+0	10.6261E-9	-108.7244E-9	273.4877E-12
52.1000E+0	28.3891E-9	-108.7902E-9	376.4278E-12
52.2000E+0	53.7018E-9	-108.2958E-9	594.9030E-12
52.3000E+0	84.8153E-9	-108.9142E-9	198.4019E-12
52.4000E+0	119.7266E-9	-109.0528E-9	419.9351E-12
52.5000E+0	163.8632E-9	-108.9017E-9	363.7116E-12
52.6000E+0	210.7435E-9	-108.5251E-9	225.1361E-12
52.7000E+0	265.0957E-9	-108.6332E-9	291.7747E-12
52.8000E+0	321.0799E-9	-108.8146E-9	217.1734E-12
52.9000E+0	385.7376E-9	-108.5640E-9	707.6224E-12
53.0000E+0	445.4755E-9	-109.2622E-9	257.8347E-12
53.1000E+0	515.1210E-9	-109.0356E-9	157.6498E-12
53.2000E+0	595.6711E-9	-109.2802E-9	337.7344E-12
53.3000E+0	674.5292E-9	-109.3712E-9	332.4360E-12
53.4000E+0	741.1351E-9	-109.2752E-9	210.3006E-12
53.5000E+0	826.3411E-9	-109.1937E-9	496.0502E-12
53.6000E+0	918.3618E-9	-109.1806E-9	577.9482E-12
53.7000E+0	999.3283E-9	-109.1092E-9	252.2033E-12
53.8000E+0	1.0928E-6	-109.5751E-9	520.6953E-12
53.9000E+0	1.1916E-6	-107.8184E-9	837.5389E-12
54.0000E+0	1.2877E-6	-108.8334E-9	276.3639E-12
54.1000E+0	1.3829E-6	-109.1000E-9	250.7803E-12
54.2000E+0	1.4780E-6	-108.8365E-9	380.1518E-12
54.3000E+0	1.5858E-6	-108.7621E-9	198.7047E-12
54.4000E+0	1.6750E-6	-107.8792E-9	419.9351E-12
54.5000E+0	1.7817E-6	-108.6245E-9	271.2169E-12
54.6000E+0	1.8937E-6	-108.9395E-9	303.7642E-12
54.7000E+0	1.9956E-6	-109.4941E-9	316.3289E-12
54.8000E+0	2.1404E-6	-109.4765E-9	250.3867E-12
54.9000E+0	2.2694E-6	-110.1551E-9	340.8226E-12
55.0000E+0	2.3853E-6	-109.5461E-9	407.5217E-12
55.1000E+0	2.4962E-6	-109.0262E-9	202.6709E-12
55.2000E+0	2.6097E-6	-108.9700E-9	413.6073E-12
55.3000E+0	2.7315E-6	-108.8265E-9	296.7400E-12
55.4000E+0	2.8740E-6	-108.4367E-9	145.7511E-12
55.5000E+0	3.0078E-6	-108.4791E-9	112.8708E-12
55.6000E+0	3.0860E-6	-108.4650E-9	224.2278E-12
55.7000E+0	3.2605E-6	-108.1354E-9	282.4495E-12
55.8000E+0	3.3886E-6	-108.1434E-9	150.1715E-12
55.9000E+0	3.5571E-6	-108.5013E-9	216.0229E-12
56.0000E+0	3.6262E-6	-108.2489E-9	112.7194E-12
56.1000E+0	3.8043E-6	-107.6635E-9	886.9804E-12
56.2000E+0	3.9557E-6	-108.7864E-9	220.7763E-12
56.3000E+0	4.0876E-6	-108.6833E-9	335.2214E-12
56.4000E+0	4.2577E-6	-108.4730E-9	235.0970E-12
56.5000E+0	4.4499E-6	-108.4980E-9	301.4026E-12
56.6000E+0	4.5886E-6	-108.5516E-9	394.8056E-12
56.7000E+0	4.7553E-6	-108.9298E-9	160.6169E-12
56.8000E+0	4.9131E-6	-109.4689E-9	202.3379E-12
56.9000E+0	5.0864E-6	-109.7311E-9	138.7875E-12
57.0000E+0	5.2527E-6	-109.9024E-9	235.6118E-12
57.1000E+0	5.4329E-6	-108.8855E-9	451.6952E-12
57.2000E+0	5.5720E-6	-109.0903E-9	205.6380E-12
57.3000E+0	5.7593E-6	-108.9238E-9	418.6029E-12
57.4000E+0	5.9381E-6	-108.8045E-9	317.9941E-12
57.5000E+0	6.0784E-6	-108.3298E-9	263.8295E-12
57.6000E+0	6.2869E-6	-108.4096E-9	315.2692E-12
57.7000E+0	6.4358E-6	-108.1923E-9	303.6128E-12
57.8000E+0	6.6476E-6	-108.2209E-9	294.1968E-12
57.9000E+0	6.7992E-6	-108.2896E-9	331.7094E-12
58.0000E+0	7.0448E-6	-108.5684E-9	391.8082E-12
58.1000E+0	7.2812E-6	-108.2035E-9	346.9687E-12
58.2000E+0	7.4054E-6	-108.3861E-9	542.0100E-12
58.3000E+0	7.6634E-6	-108.9516E-9	363.8630E-12
58.4000E+0	7.7863E-6	-108.9046E-9	275.4556E-12
58.5000E+0	8.0535E-6	-109.0889E-9	157.5892E-12
58.6000E+0	8.2948E-6	-109.6911E-9	308.0331E-12
58.7000E+0	8.5457E-6	-110.0124E-9	192.1650E-12
58.8000E+0	8.7052E-6	-109.1372E-9	204.9719E-12
58.9000E+0	8.9353E-6	-109.2674E-9	364.0750E-12
59.0000E+0	9.2179E-6	-109.2036E-9	287.9901E-12
59.1000E+0	9.3554E-6	-108.8700E-9	121.4693E-12
59.2000E+0	9.5651E-6	-108.6827E-9	154.0771E-12
59.3000E+0	9.8306E-6	-108.4276E-9	352.1763E-12
59.4000E+0	10.0198E-6	-108.4354E-9	139.3627E-12
59.5000E+0	10.2951E-6	-108.8241E-9	363.4997E-12
59.6000E+0	10.6674E-6	-108.7099E-9	150.9889E-12
59.7000E+0	10.8701E-6	-108.4876E-9	388.7806E-12
59.8000E+0	11.1543E-6	-108.4845E-9	326.5624E-12
59.9000E+0	11.3997E-6	-108.6551E-9	265.0708E-12
60.0000E+0	11.6697E-6	-108.6237E-9	397.6213E-12
60.1000E+0	11.9531E-6	-108.8776E-9	335.1306E-12
60.2000E+0	12.2852E-6	-108.1866E-9	659.1800E-12
60.3000E+0	12.6528E-6	-109.3694E-9	336.8564E-12
60.4000E+0	12.8727E-6	-109.2745E-9	350.1780E-12
60.5000E+0	13.1010E-6	-109.1837E-9	437.3744E-12
60.6000E+0	13.4550E-6	-109.3247E-9	196.1009E-12
60.7000E+0	13.8390E-6	-109.4174E-9	237.5797E-12
60.8000E+0	14.2219E-6	-109.2362E-9	301.0393E-12
60.9000E+0	14.3850E-6	-109.2986E-9	357.4444E-12
61.0000E+0	14.6719E-6	-109.2464E-9	356.3242E-12
61.1000E+0	15.1264E-6	-108.6126E-9	788.5515E-12
61.2000E+0	15.4211E-6	-109.1831E-9	276.0612E-12
61.3000E+0	15.7248E-6	-108.6870E-9	220.4129E-12
61.4000E+0	16.0696E-6	-109.5347E-9	540.1328E-12
61.5000E+0	16.3041E-6	-109.0531E-9	338.0372E-12
61.6000E+0	16.6386E-6	-109.0749E-9	307.2762E-12
61.7000E+0	17.2394E-6	-108.9152E-9	296.0437E-12
61.8000E+0	17.5609E-6	-109.4529E-9	333.4351E-12
61.9000E+0	17.9616E-6	-108.5817E-9	432.3787E-12
62.0000E+0	18.3357E-6	-109.5975E-9	424.2041E-12
62.1000E+0	18.7809E-6	-109.2521E-9	300.9182E-12
62.2000E+0	19.2264E-6	-109.2835E-9	128.8568E-12
62.3000E+0	19.8196E-6	-109.5579E-9	295.0445E-12
62.4000E+0	19.9072E-6	-109.2499E-9	240.5468E-12
62.5000E+0	20.4805E-6	-109.0328E-9	248.0857E-12
62.6000E+0	20.9774E-6	-109.6445E-9	292.2288E-12
62.7000E+0	21.3229E-6	-109.0069E-9	169.3365E-12
62.8000E+0	21.7376E-6	-109.4197E-9	363.8025E-12
62.9000E+0	22.3606E-6	-109.1787E-9	427.3226E-12
63.0000E+0	22.7492E-6	-108.6501E-9	180.7204E-12
63.1000E+0	23.1403E-6	-108.9675E-9	282.8128E-12
63.2000E+0	23.8140E-6	-108.9576E-9	82.7154E-12
63.3000E+0	24.2216E-6	-109.1050E-9	297.0125E-12
63.4000E+0	24.7198E-6	-109.3302E-9	157.0442E-12
63.5000E+0	24.9785E-6	-108.5019E-9	915.5312E-12
63.6000E+0	25.8958E-6	-109.8914E-9	96.4004E-12
63.7000E+0	26.6916E-6	-109.9398E-9	325.1696E-12
63.8000E+0	27.0899E-6	-109.1504E-9	325.7146E-12
63.9000E+0	27.4058E-6	-108.5789E-9	213.8127E-12
