Voltage(V)	Current(A)	DiodeCurrent(A)	DiodeCurrent Std(A)
0.0000E+0	4.4531E-12	-41.3325E-9	83.2483E-12
2.0000E+0	40.8964E-12	-41.4389E-9	164.0926E-12
4.0000E+0	73.2259E-12	-41.6263E-9	78.3132E-12
6.0000E+0	190.6471E-12	-41.5545E-9	192.1074E-12
8.0000E+0	249.7548E-12	-41.3647E-9	276.9180E-12
10.0000E+0	296.1745E-12	-41.6775E-9	152.0940E-12
12.0000E+0	330.9772E-12	-41.5714E-9	264.6621E-12
14.0000E+0	367.6598E-12	-41.6645E-9	85.2223E-12
16.0000E+0	398.6035E-12	-41.7273E-9	86.6665E-12
18.0000E+0	434.5861E-12	-41.6961E-9	83.1120E-12
20.0000E+0	473.7135E-12	-41.7033E-9	93.2032E-12
22.0000E+0	513.4995E-12	-41.5339E-9	69.2636E-12
24.0000E+0	551.8567E-12	-41.6188E-9	150.1927E-12
26.0000E+0	579.2043E-12	-41.5526E-9	95.9977E-12
28.0000E+0	596.0081E-12	-41.5401E-9	109.0953E-12
30.0000E+0	608.6928E-12	-41.5477E-9	93.6059E-12
32.0000E+0	621.4693E-12	-41.5400E-9	204.1424E-12
34.0000E+0	632.7810E-12	-41.4733E-9	47.2011E-12
36.0000E+0	646.0638E-12	-41.6151E-9	180.9354E-12
38.0000E+0	660.1013E-12	-41.3828E-9	145.7844E-12
40.0000E+0	674.9300E-12	-41.5986E-9	367.2055E-12
42.0000E+0	692.1746E-12	-41.6419E-9	292.7375E-12
44.0000E+0	711.0381E-12	-41.8751E-9	122.8287E-12
46.0000E+0	733.8313E-12	-41.7389E-9	27.4214E-12
48.0000E+0	763.7215E-12	-41.7474E-9	162.1065E-12
50.0000E+0	823.2484E-12	-41.7329E-9	56.1478E-12
50.1000E+0	829.1757E-12	-41.6642E-9	76.1696E-12
50.2000E+0	833.1481E-12	-41.6407E-9	93.4575E-12
50.3000E+0	840.3411E-12	-41.6639E-9	98.4622E-12
50.4000E+0	847.2964E-12	-41.5843E-9	33.7674E-12
50.5000E+0	854.5858E-12	-41.6959E-9	118.6688E-12
50.6000E+0	865.4052E-12	-41.5512E-9	56.1114E-12
50.7000E+0	875.7257E-12	-41.6071E-9	177.9501E-12
50.8000E+0	886.2270E-12	-41.3755E-9	124.1700E-12
50.9000E+0	902.4985E-12	-41.5987E-9	229.6654E-12
51.0000E+0	920.5417E-12	-41.4755E-9	152.3695E-12
51.1000E+0	945.4664E-12	-41.7512E-9	183.0275E-12
51.2000E+0	976.7991E-12	-41.7788E-9	111.0542E-12
51.3000E+0	1.0149E-9	-41.8243E-9	88.8010E-12
51.4000E+0	1.0769E-9	-41.5688E-9	89.2582E-12
51.5000E+0	1.1719E-9	-41.7055E-9	232.8566E-12
51.6000E+0	1.3410E-9	-41.6260E-9	146.3082E-12
51.7000E+0	1.7412E-9	-41.4811E-9	90.7447E-12
51.8000E+0	3.1218E-9	-41.4966E-9	72.7393E-12
51.9000E+0	10.8864E-9	-41.6199E-9	69.9266E-12
52.0000E+0	42.0820E-9	-41.5938E-9	158.3431E-12
52.1000E+0	110.1229E-9	-41.5133E-9	104.8354E-12
52.2000E+0	207.7536E-9	-41.5644E-9	150.3228E-12
52.3000E+0	331.3900E-9	-41.6939E-9	73.6506E-12
52.4000E+0	472.2812E-9	-41.3817E-9	346.6539E-12
52.5000E+0	639.5525E-9	-41.6308E-9	141.3035E-12
52.6000E+0	805.9347E-9	-41.6009E-9	318.6723E-12
52.7000E+0	997.9724E-9	-41.8160E-9	127.8425E-12
52.8000E+0	1.2076E-6	-41.8664E-9	256.0635E-12
52.9000E+0	1.4387E-6	-41.7908E-9	57.6374E-12
53.0000E+0	1.6456E-6	-41.6491E-9	80.9170E-12
53.1000E+0	1.8930E-6	-41.6019E-9	73.4417E-12
53.2000E+0	2.1237E-6	-41.5667E-9	84.3110E-12
53.3000E+0	2.3937E-6	-41.5027E-9	52.6024E-12
53.4000E+0	2.6757E-6	-41.4819E-9	92.8368E-12
53.5000E+0	2.9081E-6	-41.6324E-9	152.7722E-12
53.6000E+0	3.1864E-6	-41.5821E-9	212.0657E-12
53.7000E+0	3.5446E-6	-41.4794E-9	191.0811E-12
53.8000E+0	3.8249E-6	-41.7090E-9	53.0747E-12
53.9000E+0	4.0933E-6	-41.4760E-9	244.1800E-12
54.0000E+0	4.4168E-6	-41.6553E-9	165.3037E-12
54.1000E+0	4.7774E-6	-41.5796E-9	263.9990E-12
54.2000E+0	4.9628E-6	-41.5656E-9	234.0132E-12
54.3000E+0	5.3690E-6	-41.7294E-9	133.7555E-12
54.4000E+0	5.7205E-6	-41.7340E-9	72.5940E-12
54.5000E+0	6.0720E-6	-41.6261E-9	95.3498E-12
54.6000E+0	6.3027E-6	-41.5568E-9	36.5922E-12
54.7000E+0	6.6269E-6	-41.5137E-9	93.7572E-12
54.8000E+0	7.0032E-6	-41.6096E-9	279.2856E-12
54.9000E+0	7.3950E-6	-41.4478E-9	189.8912E-12
55.0000E+0	7.7095E-6	-41.6301E-9	94.3628E-12
55.1000E+0	8.1117E-6	-41.7072E-9	185.9189E-12
55.2000E+0	8.4665E-6	-41.5236E-9	164.9555E-12
55.3000E+0	8.8018E-6	-41.6125E-9	79.8906E-12
55.4000E+0	9.2761E-6	-41.4410E-9	392.4864E-12
55.5000E+0	9.5705E-6	-41.3825E-9	243.8712E-12
55.6000E+0	9.8134E-6	-41.6352E-9	195.7437E-12
55.7000E+0	10.3381E-6	-41.5153E-9	203.5126E-12
55.8000E+0	10.8099E-6	-41.8064E-9	61.3160E-12
55.9000E+0	11.1431E-6	-41.7832E-9	81.0260E-12
56.0000E+0	11.3994E-6	-41.7184E-9	116.5857E-12
56.1000E+0	11.8988E-6	-41.8113E-9	128.3360E-12
56.2000E+0	12.2039E-6	-41.8227E-9	306.9492E-12
56.3000E+0	12.6174E-6	-41.6468E-9	240.1684E-12
56.4000E+0	12.9551E-6	-41.6180E-9	73.9958E-12
56.5000E+0	13.3914E-6	-41.4728E-9	224.9938E-12
56.6000E+0	13.8993E-6	-41.5766E-9	114.0243E-12
56.7000E+0	14.2208E-6	-41.5280E-9	179.0129E-12
56.8000E+0	14.5946E-6	-41.5637E-9	242.1030E-12
56.9000E+0	14.9998E-6	-41.6631E-9	76.4270E-12
57.0000E+0	15.4432E-6	-41.7932E-9	180.7931E-12
57.1000E+0	15.9543E-6	-41.3642E-9	232.2692E-12
57.2000E+0	16.3285E-6	-41.5160E-9	194.3388E-12
57.3000E+0	16.8634E-6	-41.8181E-9	100.4211E-12
57.4000E+0	17.2559E-6	-41.6678E-9	116.3072E-12
57.5000E+0	17.6564E-6	-41.6591E-9	30.1493E-12
57.6000E+0	18.0399E-6	-41.5525E-9	67.9041E-12
57.7000E+0	18.4832E-6	-41.6586E-9	233.7982E-12
57.8000E+0	18.9287E-6	-41.4865E-9	108.2900E-12
57.9000E+0	19.2170E-6	-41.4790E-9	72.4638E-12
58.0000E+0	19.8342E-6	-41.4604E-9	99.5824E-12
58.1000E+0	20.1769E-6	-41.4917E-9	92.4977E-12
58.2000E+0	20.6384E-6	-41.5463E-9	57.5193E-12
58.3000E+0	21.2719E-6	-41.4648E-9	146.9591E-12
58.4000E+0	21.7131E-6	-41.6498E-9	125.4446E-12
58.5000E+0	22.3351E-6	-41.4674E-9	149.3843E-12
58.6000E+0	23.0220E-6	-41.4296E-9	43.9948E-12
58.7000E+0	23.3298E-6	-41.5653E-9	333.1838E-12
58.8000E+0	23.8525E-6	-41.7770E-9	96.8364E-12
58.9000E+0	24.2184E-6	-41.7115E-9	94.2296E-12
59.0000E+0	24.9737E-6	-41.7471E-9	113.8245E-12
59.1000E+0	25.4174E-6	-41.7605E-9	63.7018E-12
59.2000E+0	25.8557E-6	-41.6155E-9	65.7878E-12
59.3000E+0	26.3332E-6	-41.6379E-9	42.3447E-12
59.4000E+0	26.9504E-6	-41.4369E-9	120.0554E-12
59.5000E+0	27.5592E-6	-41.5477E-9	213.6219E-12
59.6000E+0	28.2251E-6	-41.7760E-9	226.8043E-12
59.7000E+0	28.6200E-6	-41.6420E-9	70.0447E-12
59.8000E+0	29.4187E-6	-41.6637E-9	163.0299E-12
59.9000E+0	29.6267E-6	-41.6498E-9	88.8888E-12
60.0000E+0	30.2381E-6	-41.5349E-9	135.3299E-12
60.1000E+0	30.6512E-6	-41.2882E-9	340.2140E-12
60.2000E+0	31.8744E-6	-41.7830E-9	266.9691E-12
60.3000E+0	32.4561E-6	-41.8033E-9	162.8422E-12
60.4000E+0	32.6398E-6	-41.8215E-9	151.3220E-12
60.5000E+0	33.6245E-6	-41.8319E-9	76.2998E-12
60.6000E+0	34.3512E-6	-41.6493E-9	135.8900E-12
60.7000E+0	34.6385E-6	-41.5572E-9	62.8934E-12
60.8000E+0	35.2463E-6	-41.4110E-9	177.5777E-12
60.9000E+0	35.9777E-6	-41.5261E-9	118.2873E-12
61.0000E+0	36.9093E-6	-41.5274E-9	177.4476E-12
61.1000E+0	37.4475E-6	-41.5568E-9	109.7554E-12
61.2000E+0	38.1870E-6	-41.5232E-9	83.7902E-12
61.3000E+0	38.9022E-6	-41.4727E-9	188.8043E-12
61.4000E+0	39.7437E-6	-41.5426E-9	159.3755E-12
61.5000E+0	40.2177E-6	-41.5211E-9	81.9888E-12
61.6000E+0	40.9904E-6	-41.7377E-9	86.2820E-12
61.7000E+0	41.3840E-6	-41.7546E-9	162.4728E-12
61.8000E+0	42.7576E-6	-41.7214E-9	223.2166E-12
61.9000E+0	43.0969E-6	-41.8225E-9	137.6975E-12
62.0000E+0	44.2646E-6	-41.6889E-9	48.4333E-12
62.1000E+0	45.5220E-6	-41.7209E-9	95.9977E-12
62.2000E+0	46.1442E-6	-41.6194E-9	154.5737E-12
62.3000E+0	46.8194E-6	-41.6428E-9	64.4193E-12
62.4000E+0	47.8754E-6	-41.5638E-9	42.1328E-12
62.5000E+0	48.3248E-6	-41.5663E-9	41.1276E-12
62.6000E+0	49.1247E-6	-41.5522E-9	119.8768E-12
62.7000E+0	50.2167E-6	-41.6925E-9	156.6415E-12
62.8000E+0	51.5706E-6	-41.6625E-9	207.9572E-12
62.9000E+0	51.8917E-6	-41.7842E-9	81.4892E-12
63.0000E+0	52.5766E-6	-41.5632E-9	124.5787E-12
63.1000E+0	53.8677E-6	-41.3670E-9	269.2096E-12
63.2000E+0	54.9361E-6	-41.5112E-9	362.2917E-12
63.3000E+0	55.6575E-6	-41.7238E-9	74.4923E-12
63.4000E+0	57.5270E-6	-41.8064E-9	80.0904E-12
63.5000E+0	58.3357E-6	-41.6095E-9	76.6419E-12
63.6000E+0	59.1450E-6	-41.5757E-9	148.3609E-12
63.7000E+0	59.8164E-6	-41.6386E-9	60.4077E-12
63.8000E+0	61.2285E-6	-41.5738E-9	111.9565E-12
63.9000E+0	61.4771E-6	-41.4221E-9	34.5122E-12
