Voltage(V)	Current(A)	DiodeCurrent(A)	DiodeCurrent Std(A)
0.0000E+0	11.8378E-12	-247.3097E-9	808.2313E-12
2.0000E+0	52.4919E-12	-248.8767E-9	1.1791E-9
4.0000E+0	82.6195E-12	-247.6543E-9	609.9202E-12
6.0000E+0	199.1688E-12	-247.0701E-9	577.6454E-12
8.0000E+0	263.5741E-12	-247.5001E-9	573.6489E-12
10.0000E+0	303.7832E-12	-247.6537E-9	513.9134E-12
12.0000E+0	342.2564E-12	-247.9581E-9	1.0893E-9
14.0000E+0	374.1788E-12	-247.9023E-9	990.4958E-12
16.0000E+0	406.2949E-12	-247.6381E-9	1.5752E-9
18.0000E+0	440.8223E-12	-246.2362E-9	1.4427E-9
20.0000E+0	481.0824E-12	-247.7256E-9	1.2018E-9
22.0000E+0	518.9784E-12	-248.0330E-9	1.6266E-9
24.0000E+0	561.2785E-12	-249.1440E-9	1.1306E-9
26.0000E+0	588.6335E-12	-248.6860E-9	285.6285E-12
28.0000E+0	607.2008E-12	-248.9867E-9	1.1282E-9
30.0000E+0	619.5368E-12	-247.7022E-9	953.6493E-12
32.0000E+0	632.6791E-12	-247.2797E-9	462.3828E-12
34.0000E+0	647.3845E-12	-246.5586E-9	1.1185E-9
36.0000E+0	663.9964E-12	-247.0481E-9	1.5117E-9
38.0000E+0	684.0931E-12	-246.0931E-9	334.6462E-12
40.0000E+0	705.7543E-12	-247.1773E-9	757.0337E-12
42.0000E+0	734.2392E-12	-246.8694E-9	833.7241E-12
44.0000E+0	769.7661E-12	-245.8425E-9	1.1575E-9
46.0000E+0	821.2179E-12	-247.7339E-9	956.3439E-12
48.0000E+0	908.5910E-12	-247.8511E-9	1.5208E-9
50.0000E+0	1.1550E-9	-248.2735E-9	793.9710E-12
50.1000E+0	1.1814E-9	-247.2032E-9	1.1669E-9
50.2000E+0	1.2125E-9	-247.1542E-9	756.4584E-12
50.3000E+0	1.2370E-9	-247.9624E-9	1.2314E-9
50.4000E+0	1.2798E-9	-248.7079E-9	395.9258E-12
50.5000E+0	1.3213E-9	-249.1442E-9	1.3746E-9
50.6000E+0	1.3712E-9	-248.0342E-9	912.0494E-12
50.7000E+0	1.4297E-9	-248.5765E-9	844.8053E-12
50.8000E+0	1.4955E-9	-248.1752E-9	500.8945E-12
50.9000E+0	1.5769E-9	-247.2998E-9	768.2360E-12
51.0000E+0	1.6779E-9	-247.1513E-9	402.0720E-12
51.1000E+0	1.8115E-9	-246.9752E-9	321.5667E-12
51.2000E+0	1.9809E-9	-246.5287E-9	1.0475E-9
51.3000E+0	2.1712E-9	-247.0598E-9	436.5569E-12
51.4000E+0	2.5811E-9	-247.5232E-9	761.2724E-12
51.5000E+0	3.1622E-9	-247.8545E-9	385.3896E-12
51.6000E+0	4.1803E-9	-248.0821E-9	907.8107E-12
51.7000E+0	6.8437E-9	-248.7209E-9	875.4148E-12
51.8000E+0	17.3401E-9	-248.3232E-9	1.2497E-9
51.9000E+0	71.4021E-9	-249.2789E-9	635.5038E-12
52.0000E+0	273.4107E-9	-248.5353E-9	841.8987E-12
52.1000E+0	692.5738E-9	-248.4533E-9	1.6348E-9
52.2000E+0	1.2414E-6	-248.6774E-9	814.2260E-12
52.3000E+0	1.9252E-6	-248.6001E-9	1.2010E-9
52.4000E+0	2.7390E-6	-248.3333E-9	985.8635E-12
52.5000E+0	3.5850E-6	-248.8852E-9	1.2666E-9
52.6000E+0	4.5533E-6	-248.3557E-9	514.4281E-12
52.7000E+0	5.6123E-6	-248.2935E-9	493.3556E-12
52.8000E+0	6.7440E-6	-248.5536E-9	820.7355E-12
52.9000E+0	7.8651E-6	-248.2600E-9	840.7180E-12
53.0000E+0	9.1236E-6	-248.7513E-9	1.1206E-9
53.1000E+0	10.3861E-6	-248.6951E-9	704.8976E-12
53.2000E+0	11.7199E-6	-248.7527E-9	958.4633E-12
53.3000E+0	13.2200E-6	-249.3165E-9	976.5081E-12
53.4000E+0	14.5998E-6	-249.0856E-9	611.4643E-12
53.5000E+0	15.9232E-6	-249.8416E-9	1.6020E-9
53.6000E+0	17.5388E-6	-249.6253E-9	1.3231E-9
53.7000E+0	19.0394E-6	-248.9147E-9	1.2219E-9
53.8000E+0	20.5063E-6	-249.4987E-9	417.6341E-12
53.9000E+0	22.0905E-6	-249.1240E-9	879.7141E-12
54.0000E+0	23.5137E-6	-248.2642E-9	371.7046E-12
54.1000E+0	25.2348E-6	-248.6804E-9	1.0133E-9
54.2000E+0	26.8225E-6	-248.4896E-9	1.3213E-9
54.3000E+0	28.3912E-6	-248.7219E-9	940.4790E-12
54.4000E+0	30.3067E-6	-247.7639E-9	938.8441E-12
54.5000E+0	31.9689E-6	-248.5388E-9	825.0953E-12
54.6000E+0	33.4970E-6	-248.3010E-9	1.0993E-9
54.7000E+0	35.4698E-6	-247.6851E-9	1.3139E-9
54.8000E+0	37.0996E-6	-247.9300E-9	1.3936E-9
54.9000E+0	38.7523E-6	-248.7609E-9	1.0494E-9
55.0000E+0	40.8918E-6	-247.4260E-9	1.4515E-9
55.1000E+0	42.6985E-6	-248.3371E-9	1.6851E-9
55.2000E+0	44.0402E-6	-249.0412E-9	695.4816E-12
55.3000E+0	45.8826E-6	-248.7814E-9	353.1149E-12
55.4000E+0	48.0828E-6	-248.4996E-9	236.8228E-12
55.5000E+0	50.1489E-6	-247.6022E-9	189.9245E-12
55.6000E+0	51.5659E-6	-249.4392E-9	991.4041E-12
55.7000E+0	53.7376E-6	-247.5339E-9	1.2075E-9
55.8000E+0	55.7100E-6	-248.3050E-9	657.6965E-12
55.9000E+0	57.3705E-6	-247.8437E-9	568.5019E-12
56.0000E+0	59.0987E-6	-247.6413E-9	968.3031E-12
56.1000E+0	61.1657E-6	-248.2498E-9	902.5426E-12
56.2000E+0	63.1186E-6	-247.7740E-9	1.3488E-9
56.3000E+0	64.7280E-6	-248.6009E-9	1.2069E-9
56.4000E+0	67.1092E-6	-247.6756E-9	703.2323E-12
56.5000E+0	69.0047E-6	-248.3588E-9	798.7547E-12
56.6000E+0	71.4812E-6	-248.2211E-9	1.1630E-9
56.7000E+0	73.7071E-6	-248.7352E-9	1.1079E-9
56.8000E+0	74.9620E-6	-249.1801E-9	665.1142E-12
56.9000E+0	77.1577E-6	-248.9647E-9	778.9842E-12
57.0000E+0	79.5671E-6	-249.4741E-9	868.8751E-12
57.1000E+0	81.5681E-6	-248.7044E-9	780.8007E-12
57.2000E+0	83.1527E-6	-249.0654E-9	538.6493E-12
57.3000E+0	85.3448E-6	-248.3412E-9	548.6102E-12
57.4000E+0	87.3642E-6	-248.1282E-9	189.9245E-12
57.5000E+0	89.3150E-6	-248.3545E-9	481.2753E-12
57.6000E+0	91.7651E-6	-248.1101E-9	282.3587E-12
57.7000E+0	94.1091E-6	-248.3450E-9	746.8305E-12
57.8000E+0	97.0639E-6	-248.1878E-9	799.7236E-12
57.9000E+0	98.3293E-6	-248.0016E-9	1.0042E-9
58.0000E+0	100.6546E-6	-248.5767E-9	889.2209E-12
58.1000E+0	102.3619E-6	-248.0895E-9	415.5450E-12
58.2000E+0	105.2385E-6	-248.6329E-9	847.8632E-12
58.3000E+0	107.9007E-6	-249.1277E-9	951.5602E-12
58.4000E+0	109.4403E-6	-249.6215E-9	981.8973E-12
58.5000E+0	112.0791E-6	-248.7460E-9	808.4735E-12
58.6000E+0	115.3841E-6	-249.6073E-9	1.3607E-9
58.7000E+0	116.3603E-6	-248.4314E-9	930.6694E-12
58.8000E+0	118.9203E-6	-249.0474E-9	831.5139E-12
58.9000E+0	121.5499E-6	-248.4633E-9	877.9278E-12
59.0000E+0	124.5651E-6	-248.9098E-9	1.3404E-9
59.1000E+0	125.3049E-6	-248.7445E-9	1.4267E-9
59.2000E+0	128.1606E-6	-248.0343E-9	643.4060E-12
59.3000E+0	131.2151E-6	-248.6210E-9	884.5886E-12
59.4000E+0	133.5098E-6	-248.6340E-9	1.0608E-9
59.5000E+0	137.7743E-6	-249.0410E-9	190.9236E-12
59.6000E+0	137.6995E-6	-248.5027E-9	702.3846E-12
59.7000E+0	141.5606E-6	-248.0447E-9	1.2356E-9
59.8000E+0	143.6299E-6	-249.0704E-9	523.5110E-12
59.9000E+0	144.8281E-6	-248.2782E-9	941.6295E-12
60.0000E+0	149.2479E-6	-249.1663E-9	882.4390E-12
60.1000E+0	152.8492E-6	-248.4941E-9	507.9186E-12
60.2000E+0	154.5049E-6	-249.5013E-9	1.0236E-9
60.3000E+0	158.0167E-6	-248.8523E-9	484.4543E-12
60.4000E+0	161.1315E-6	-248.9095E-9	1.0618E-9
60.5000E+0	162.6498E-6	-248.9571E-9	667.9602E-12
60.6000E+0	164.8585E-6	-248.6955E-9	992.0702E-12
60.7000E+0	169.4078E-6	-247.9489E-9	707.1077E-12
60.8000E+0	171.2284E-6	-248.0885E-9	659.2406E-12
60.9000E+0	174.5966E-6	-247.4676E-9	669.6254E-12
61.0000E+0	178.9038E-6	-248.0594E-9	118.4720E-12
61.1000E+0	181.6072E-6	-248.5649E-9	457.2660E-12
61.2000E+0	182.5143E-6	-248.5121E-9	828.1532E-12
61.3000E+0	186.9726E-6	-248.7059E-9	273.6088E-12
61.4000E+0	190.1845E-6	-248.8332E-9	1.8233E-9
61.5000E+0	194.9960E-6	-248.8403E-9	938.7835E-12
61.6000E+0	196.4077E-6	-248.7504E-9	1.0457E-9
61.7000E+0	199.2413E-6	-249.1247E-9	871.9633E-12
61.8000E+0	203.2818E-6	-248.7933E-9	1.2904E-9
61.9000E+0	206.9032E-6	-248.6678E-9	339.0666E-12
62.0000E+0	209.4445E-6	-249.1040E-9	443.0058E-12
62.1000E+0	213.5172E-6	-248.2915E-9	587.7578E-12
62.2000E+0	217.5861E-6	-248.6900E-9	460.0212E-12
62.3000E+0	221.5754E-6	-248.3746E-9	947.2610E-12
62.4000E+0	225.0220E-6	-248.5428E-9	432.7118E-12
62.5000E+0	227.5487E-6	-248.5285E-9	285.5074E-12
62.6000E+0	230.6720E-6	-249.2020E-9	1.2193E-9
62.7000E+0	234.8153E-6	-248.9612E-9	227.5582E-12
62.8000E+0	238.3335E-6	-249.6150E-9	1.3217E-9
62.9000E+0	241.9056E-6	-249.3102E-9	1.3530E-9
63.0000E+0	246.0121E-6	-249.5730E-9	789.5507E-12
63.1000E+0	250.2464E-6	-249.2598E-9	953.4374E-12
63.2000E+0	253.9664E-6	-250.5752E-9	1.1813E-9
63.3000E+0	259.5561E-6	-248.0892E-9	1.3134E-9
63.4000E+0	260.9711E-6	-248.7660E-9	994.8254E-12
63.5000E+0	263.8781E-6	-249.5622E-9	1.2611E-9
63.6000E+0	267.8653E-6	-247.9699E-9	336.2508E-12
63.7000E+0	275.2198E-6	-247.9524E-9	1.4320E-9
63.8000E+0	279.0908E-6	-249.2805E-9	757.7603E-12
63.9000E+0	279.6783E-6	-249.0931E-9	1.5809E-9
