Voltage(V)	Current(A)	DiodeCurrent(A)	DiodeCurrent Std(A)
0.0000E+0	1.2674E-12	-710.0120E-12	1.2374E-12
2.0000E+0	32.3301E-12	-710.4587E-12	1.3934E-12
4.0000E+0	60.2555E-12	-710.1013E-12	1.3088E-12
6.0000E+0	161.1939E-12	-711.1484E-12	977.1742E-15
8.0000E+0	205.4118E-12	-712.0687E-12	1.2797E-12
10.0000E+0	244.5790E-12	-712.0266E-12	1.6903E-12
12.0000E+0	274.8913E-12	-710.0590E-12	3.1204E-12
14.0000E+0	301.0969E-12	-709.4149E-12	1.9279E-12
16.0000E+0	327.4763E-12	-711.8453E-12	1.1017E-12
18.0000E+0	357.7031E-12	-711.4536E-12	1.7239E-12
20.0000E+0	390.7381E-12	-710.4233E-12	643.1032E-15
22.0000E+0	425.6203E-12	-710.3960E-12	2.7889E-12
24.0000E+0	458.8378E-12	-710.8966E-12	1.5705E-12
26.0000E+0	481.2398E-12	-709.5534E-12	1.2637E-12
28.0000E+0	495.6880E-12	-709.6944E-12	837.9628E-15
30.0000E+0	507.5796E-12	-708.7074E-12	569.1074E-15
32.0000E+0	516.3961E-12	-708.8019E-12	2.9035E-12
34.0000E+0	527.0616E-12	-709.0525E-12	1.1748E-12
36.0000E+0	534.9917E-12	-711.4159E-12	1.9663E-12
38.0000E+0	545.9504E-12	-709.9697E-12	1.8664E-12
40.0000E+0	559.4665E-12	-710.2314E-12	1.3514E-12
42.0000E+0	569.8035E-12	-710.5643E-12	580.0675E-15
44.0000E+0	582.2646E-12	-710.6431E-12	1.6081E-12
46.0000E+0	597.2717E-12	-710.8080E-12	2.5539E-12
48.0000E+0	612.6394E-12	-709.7309E-12	1.0171E-12
50.0000E+0	630.3924E-12	-708.3143E-12	1.0259E-12
50.1000E+0	630.5663E-12	-710.7102E-12	904.4500E-15
50.2000E+0	632.0205E-12	-707.1444E-12	1.9240E-12
50.3000E+0	633.5862E-12	-709.6621E-12	671.0484E-15
50.4000E+0	633.9985E-12	-709.8970E-12	1.0621E-12
50.5000E+0	635.4272E-12	-710.3349E-12	3.2337E-12
50.6000E+0	636.3946E-12	-710.9138E-12	1.9295E-12
50.7000E+0	637.1327E-12	-711.7697E-12	1.1448E-12
50.8000E+0	638.6466E-12	-712.0182E-12	1.6219E-12
50.9000E+0	640.7110E-12	-710.8756E-12	1.9184E-12
51.0000E+0	641.9283E-12	-710.3991E-12	1.2531E-12
51.1000E+0	642.0406E-12	-710.3271E-12	813.2874E-15
51.2000E+0	646.0282E-12	-709.3265E-12	1.0059E-12
51.3000E+0	648.8478E-12	-708.9302E-12	1.0896E-12
51.4000E+0	652.0296E-12	-708.7423E-12	1.5442E-12
51.5000E+0	659.2430E-12	-709.5848E-12	2.0540E-12
51.6000E+0	677.0520E-12	-710.0989E-12	883.3170E-15
51.7000E+0	741.9180E-12	-711.0313E-12	1.3898E-12
51.8000E+0	1.0901E-9	-711.4621E-12	1.6042E-12
51.9000E+0	2.2985E-9	-707.7477E-12	442.5517E-15
52.0000E+0	4.7186E-9	-710.5219E-12	547.5203E-15
52.1000E+0	8.0040E-9	-710.6717E-12	922.9792E-15
52.2000E+0	11.8717E-9	-710.8363E-12	2.2147E-12
52.3000E+0	16.2361E-9	-711.7347E-12	1.0885E-12
52.4000E+0	21.0199E-9	-710.5154E-12	1.0082E-12
52.5000E+0	27.0485E-9	-709.6143E-12	841.9290E-15
52.6000E+0	35.8566E-9	-709.5159E-12	949.6528E-15
52.7000E+0	41.5768E-9	-710.0889E-12	1.4717E-12
52.8000E+0	48.0880E-9	-709.6571E-12	1.4712E-12
52.9000E+0	57.1432E-9	-708.7348E-12	1.2423E-12
53.0000E+0	66.7172E-9	-707.2773E-12	2.2997E-12
53.1000E+0	73.9818E-9	-711.5030E-12	2.2046E-12
53.2000E+0	85.0486E-9	-709.6125E-12	946.0499E-15
53.3000E+0	94.9143E-9	-712.2466E-12	1.5734E-12
53.4000E+0	104.6135E-9	-708.6589E-12	1.0911E-12
53.5000E+0	113.3063E-9	-710.5588E-12	1.4943E-12
53.6000E+0	131.2055E-9	-710.3428E-12	957.7669E-15
53.7000E+0	140.8711E-9	-708.7809E-12	1.9676E-12
53.8000E+0	153.2481E-9	-711.7067E-12	1.1228E-12
53.9000E+0	168.2343E-9	-709.7871E-12	2.4091E-12
54.0000E+0	178.2953E-9	-710.0410E-12	1.6807E-12
54.1000E+0	195.0703E-9	-710.0748E-12	1.1646E-12
54.2000E+0	203.9019E-9	-710.6262E-12	1.7255E-12
54.3000E+0	221.2080E-9	-708.6287E-12	3.2618E-12
54.4000E+0	236.2860E-9	-708.1760E-12	734.7805E-15
54.5000E+0	252.3302E-9	-709.5892E-12	1.3542E-12
54.6000E+0	270.9094E-9	-709.7471E-12	435.2853E-15
54.7000E+0	285.4103E-9	-708.6140E-12	883.5592E-15
54.8000E+0	302.5183E-9	-708.3390E-12	821.0382E-15
54.9000E+0	317.0242E-9	-708.1975E-12	1.2868E-12
55.0000E+0	340.5651E-9	-710.1005E-12	1.3857E-12
55.1000E+0	361.2958E-9	-709.9274E-12	1.6101E-12
55.2000E+0	377.2541E-9	-709.2351E-12	519.9081E-15
55.3000E+0	394.8904E-9	-710.7994E-12	1.4677E-12
55.4000E+0	417.5992E-9	-710.7359E-12	2.7599E-12
55.5000E+0	429.3416E-9	-708.8693E-12	1.2261E-12
55.6000E+0	456.5133E-9	-713.0712E-12	1.6765E-12
55.7000E+0	486.0796E-9	-712.0796E-12	2.3510E-12
55.8000E+0	504.0806E-9	-710.9643E-12	1.1256E-12
55.9000E+0	521.2570E-9	-710.2801E-12	2.0116E-12
56.0000E+0	549.2921E-9	-710.2036E-12	1.3521E-12
56.1000E+0	574.2862E-9	-708.3501E-12	787.5827E-15
56.2000E+0	610.5382E-9	-708.7812E-12	997.9136E-15
56.3000E+0	610.1271E-9	-708.2228E-12	371.7652E-15
56.4000E+0	641.7948E-9	-709.2796E-12	1.6152E-12
56.5000E+0	666.6828E-9	-709.1215E-12	1.3690E-12
56.6000E+0	692.0759E-9	-709.3555E-12	464.6535E-15
56.7000E+0	732.5474E-9	-710.1492E-12	1.1823E-12
56.8000E+0	742.2385E-9	-709.2936E-12	2.1726E-12
56.9000E+0	771.6325E-9	-710.2714E-12	1.3821E-12
57.0000E+0	797.7017E-9	-712.0125E-12	1.5374E-12
57.1000E+0	812.0880E-9	-712.8058E-12	1.0526E-12
57.2000E+0	857.3476E-9	-713.2187E-12	1.9776E-12
57.3000E+0	893.7560E-9	-711.4184E-12	1.2094E-12
57.4000E+0	926.0276E-9	-710.2744E-12	2.0317E-12
57.5000E+0	961.5376E-9	-708.8819E-12	779.7108E-15
57.6000E+0	961.6776E-9	-709.0245E-12	1.0525E-12
57.7000E+0	982.7324E-9	-708.4474E-12	1.1167E-12
57.8000E+0	1.0605E-6	-707.0798E-12	567.6239E-15
57.9000E+0	1.0724E-6	-707.1839E-12	911.9888E-15
58.0000E+0	1.1024E-6	-706.9875E-12	953.3163E-15
58.1000E+0	1.1400E-6	-707.6509E-12	2.2491E-12
58.2000E+0	1.2039E-6	-706.3189E-12	399.2563E-15
58.3000E+0	1.2047E-6	-707.2233E-12	2.9266E-12
58.4000E+0	1.2705E-6	-709.0674E-12	983.7744E-15
58.5000E+0	1.3165E-6	-708.6069E-12	1.5146E-12
58.6000E+0	1.3579E-6	-710.2142E-12	1.6956E-12
58.7000E+0	1.3899E-6	-711.1328E-12	1.2235E-12
58.8000E+0	1.4040E-6	-711.9576E-12	1.2166E-12
58.9000E+0	1.4321E-6	-709.8607E-12	906.9024E-15
59.0000E+0	1.5164E-6	-708.6957E-12	784.0706E-15
59.1000E+0	1.5246E-6	-708.7395E-12	1.0814E-12
59.2000E+0	1.5921E-6	-708.7420E-12	1.6095E-12
59.3000E+0	1.6246E-6	-709.4697E-12	1.0574E-12
59.4000E+0	1.6732E-6	-708.4246E-12	707.4711E-15
59.5000E+0	1.6941E-6	-707.9080E-12	625.6034E-15
59.6000E+0	1.7497E-6	-708.7020E-12	733.9933E-15
59.7000E+0	1.8265E-6	-708.4150E-12	1.1547E-12
59.8000E+0	1.8747E-6	-709.2373E-12	1.2780E-12
59.9000E+0	1.9387E-6	-707.8479E-12	657.5754E-15
60.0000E+0	2.0251E-6	-709.7933E-12	534.1684E-15
60.1000E+0	2.0445E-6	-711.3607E-12	1.1630E-12
60.2000E+0	2.1015E-6	-710.5451E-12	536.0455E-15
60.3000E+0	2.1557E-6	-710.5869E-12	1.2060E-12
60.4000E+0	2.2072E-6	-712.2787E-12	791.9425E-15
60.5000E+0	2.2715E-6	-712.4997E-12	2.3220E-12
60.6000E+0	2.3283E-6	-711.3225E-12	1.7702E-12
60.7000E+0	2.3987E-6	-709.7304E-12	1.3241E-12
60.8000E+0	2.4673E-6	-709.2609E-12	473.3429E-15
60.9000E+0	2.4981E-6	-708.4748E-12	1.7461E-12
61.0000E+0	2.5971E-6	-707.5388E-12	481.6689E-15
61.1000E+0	2.6617E-6	-710.0163E-12	1.0827E-12
61.2000E+0	2.6920E-6	-707.8925E-12	817.5564E-15
61.3000E+0	2.8343E-6	-708.5501E-12	1.5350E-12
61.4000E+0	2.8399E-6	-708.4837E-12	1.8650E-12
61.5000E+0	2.9880E-6	-708.4567E-12	1.5531E-12
61.6000E+0	2.9757E-6	-708.4889E-12	318.7208E-15
61.7000E+0	3.1042E-6	-709.5862E-12	774.5335E-15
61.8000E+0	3.1539E-6	-710.5832E-12	1.4396E-12
61.9000E+0	3.2609E-6	-711.7934E-12	1.7427E-12
62.0000E+0	3.3480E-6	-710.6586E-12	2.4191E-12
62.1000E+0	3.3932E-6	-710.6545E-12	176.4817E-15
62.2000E+0	3.5004E-6	-708.1180E-12	583.3979E-15
62.3000E+0	3.5878E-6	-709.5639E-12	1.0055E-12
62.4000E+0	3.6726E-6	-707.8745E-12	1.2278E-12
62.5000E+0	3.8374E-6	-710.5428E-12	547.5506E-15
62.6000E+0	3.9038E-6	-710.9184E-12	813.1663E-15
62.7000E+0	3.9339E-6	-710.7210E-12	1.7261E-12
62.8000E+0	4.0327E-6	-708.9617E-12	1.9670E-12
62.9000E+0	4.1355E-6	-709.5269E-12	1.2574E-12
63.0000E+0	4.3208E-6	-709.1335E-12	814.1957E-15
63.1000E+0	4.3792E-6	-710.7602E-12	1.3084E-12
63.2000E+0	4.5653E-6	-711.5225E-12	1.6731E-12
63.3000E+0	4.5971E-6	-711.3162E-12	956.7375E-15
63.4000E+0	4.7068E-6	-711.1483E-12	1.6932E-12
63.5000E+0	4.8602E-6	-712.2701E-12	2.4205E-12
63.6000E+0	4.9599E-6	-712.6146E-12	1.1753E-12
63.7000E+0	5.0260E-6	-710.3743E-12	805.8394E-15
63.8000E+0	5.1846E-6	-710.0222E-12	2.0538E-12
63.9000E+0	5.2985E-6	-709.5140E-12	1.3247E-12
