Voltage(V)	Current(A)	DiodeCurrent(A)	DiodeCurrent Std(A)
0.0000E+0	14.3180E-12	-267.4179E-9	289.6553E-12
2.0000E+0	48.4778E-12	-268.5869E-9	883.9831E-12
4.0000E+0	83.1609E-12	-268.4024E-9	1.4482E-9
6.0000E+0	204.1252E-12	-268.0367E-9	284.9322E-12
8.0000E+0	262.2389E-12	-269.2216E-9	499.0779E-12
10.0000E+0	307.1218E-12	-269.0376E-9	445.6399E-12
12.0000E+0	344.5723E-12	-269.1398E-9	1.0256E-9
14.0000E+0	375.7254E-12	-268.5798E-9	986.4690E-12
16.0000E+0	406.7225E-12	-267.9594E-9	303.7944E-12
18.0000E+0	443.4956E-12	-268.2529E-9	1.1125E-9
20.0000E+0	484.2385E-12	-267.4122E-9	437.0413E-12
22.0000E+0	525.1094E-12	-267.3838E-9	1.1431E-9
24.0000E+0	564.2842E-12	-267.6291E-9	670.3521E-12
26.0000E+0	591.0655E-12	-267.8382E-9	937.8450E-12
28.0000E+0	610.5239E-12	-267.6833E-9	419.4810E-12
30.0000E+0	624.3557E-12	-268.2946E-9	994.6740E-12
32.0000E+0	639.1760E-12	-268.2442E-9	620.5472E-12
34.0000E+0	653.4875E-12	-268.0951E-9	1.6200E-9
36.0000E+0	671.1149E-12	-268.4428E-9	877.6856E-12
38.0000E+0	691.1204E-12	-269.0115E-9	1.6203E-9
40.0000E+0	714.5308E-12	-268.3144E-9	1.5257E-9
42.0000E+0	742.7683E-12	-269.3525E-9	649.7338E-12
44.0000E+0	780.2027E-12	-268.4774E-9	395.5625E-12
46.0000E+0	835.9002E-12	-268.6322E-9	1.1146E-9
48.0000E+0	930.5864E-12	-267.3075E-9	963.9433E-12
50.0000E+0	1.1972E-9	-266.7412E-9	1.0837E-9
50.1000E+0	1.2213E-9	-266.0357E-9	810.6231E-12
50.2000E+0	1.2521E-9	-266.4934E-9	790.8828E-12
50.3000E+0	1.2840E-9	-266.8247E-9	1.2508E-9
50.4000E+0	1.3302E-9	-265.1921E-9	928.4290E-12
50.5000E+0	1.3763E-9	-265.6559E-9	651.3990E-12
50.6000E+0	1.4204E-9	-267.3205E-9	1.3814E-9
50.7000E+0	1.4904E-9	-267.4264E-9	999.4879E-12
50.8000E+0	1.5642E-9	-266.2934E-9	1.5753E-9
50.9000E+0	1.6500E-9	-267.9936E-9	534.3803E-12
51.0000E+0	1.7656E-9	-267.8076E-9	1.2510E-9
51.1000E+0	1.9174E-9	-266.4756E-9	1.7247E-9
51.2000E+0	2.0540E-9	-269.3594E-9	1.4135E-9
51.3000E+0	2.3636E-9	-269.3021E-9	672.7439E-12
51.4000E+0	2.7384E-9	-268.4768E-9	1.2055E-9
51.5000E+0	3.3669E-9	-267.4476E-9	531.5040E-12
51.6000E+0	4.4906E-9	-267.8073E-9	832.6341E-12
51.7000E+0	7.2527E-9	-266.2742E-9	393.6248E-12
51.8000E+0	18.0440E-9	-267.3939E-9	571.4690E-12
51.9000E+0	74.9988E-9	-266.3513E-9	632.9303E-12
52.0000E+0	285.8895E-9	-267.9853E-9	957.6155E-12
52.1000E+0	730.6842E-9	-267.1571E-9	572.3470E-12
52.2000E+0	1.3475E-6	-266.4790E-9	1.3074E-9
52.3000E+0	2.0791E-6	-268.3984E-9	875.5662E-12
52.4000E+0	2.8814E-6	-267.9236E-9	731.2381E-12
52.5000E+0	3.8629E-6	-267.2097E-9	563.3852E-12
52.6000E+0	4.9430E-6	-268.5207E-9	1.4237E-9
52.7000E+0	6.1011E-6	-269.0076E-9	805.2036E-12
52.8000E+0	7.3205E-6	-268.8436E-9	849.0137E-12
52.9000E+0	8.4953E-6	-268.6011E-9	799.2997E-12
53.0000E+0	9.9522E-6	-268.3208E-9	937.6936E-12
53.1000E+0	11.2803E-6	-268.0451E-9	847.4999E-12
53.2000E+0	12.7472E-6	-267.7610E-9	582.2474E-12
53.3000E+0	14.2009E-6	-267.6788E-9	1.6899E-9
53.4000E+0	15.7014E-6	-269.6379E-9	1.1017E-9
53.5000E+0	17.3053E-6	-267.8390E-9	801.8732E-12
53.6000E+0	18.9275E-6	-268.4426E-9	1.6000E-9
53.7000E+0	20.5613E-6	-268.9025E-9	912.2311E-12
53.8000E+0	22.2848E-6	-268.9885E-9	1.2384E-9
53.9000E+0	23.9035E-6	-267.4361E-9	1.4564E-9
54.0000E+0	25.6571E-6	-268.6069E-9	976.7503E-12
54.1000E+0	27.2918E-6	-269.2612E-9	719.6422E-12
54.2000E+0	29.4104E-6	-269.2789E-9	489.6922E-12
54.3000E+0	31.2470E-6	-269.6303E-9	1.3890E-9
54.4000E+0	32.9291E-6	-268.9083E-9	951.3180E-12
54.5000E+0	34.3003E-6	-268.9422E-9	1.0693E-9
54.6000E+0	36.4291E-6	-268.4929E-9	924.3114E-12
54.7000E+0	38.1762E-6	-267.7699E-9	1.3839E-9
54.8000E+0	40.1291E-6	-267.8651E-9	478.2779E-12
54.9000E+0	42.1782E-6	-267.5396E-9	687.1555E-12
55.0000E+0	44.2312E-6	-267.4736E-9	1.3761E-9
55.1000E+0	45.9802E-6	-268.8085E-9	941.2359E-12
55.2000E+0	48.1417E-6	-267.7458E-9	525.0551E-12
55.3000E+0	49.8963E-6	-267.9157E-9	741.0477E-12
55.4000E+0	51.5989E-6	-269.1925E-9	968.0609E-12
55.5000E+0	53.8909E-6	-267.8343E-9	585.6990E-12
55.6000E+0	55.6338E-6	-267.5928E-9	2.5878E-9
55.7000E+0	58.3812E-6	-268.2038E-9	1.5332E-9
55.8000E+0	59.4224E-6	-268.4906E-9	1.9150E-9
55.9000E+0	62.2749E-6	-269.7373E-9	1.1091E-9
56.0000E+0	64.9443E-6	-268.9744E-9	621.1225E-12
56.1000E+0	66.1541E-6	-268.2518E-9	750.8270E-12
56.2000E+0	68.4791E-6	-268.8959E-9	1.2673E-9
56.3000E+0	70.5532E-6	-268.9354E-9	1.2874E-9
56.4000E+0	72.8719E-6	-267.4283E-9	1.5934E-9
56.5000E+0	75.4766E-6	-268.7080E-9	879.5022E-12
56.6000E+0	77.2342E-6	-268.0469E-9	617.9737E-12
56.7000E+0	78.9920E-6	-267.3388E-9	591.9965E-12
56.8000E+0	81.2383E-6	-267.5252E-9	1.4966E-9
56.9000E+0	83.9448E-6	-268.6868E-9	947.8362E-12
57.0000E+0	85.9113E-6	-268.2419E-9	1.5166E-9
57.1000E+0	88.4883E-6	-270.0527E-9	1.7884E-9
57.2000E+0	89.8363E-6	-269.2127E-9	984.8947E-12
57.3000E+0	92.5860E-6	-268.0286E-9	1.6989E-9
57.4000E+0	94.2995E-6	-268.3911E-9	927.7932E-12
57.5000E+0	98.1390E-6	-268.7938E-9	840.0821E-12
57.6000E+0	98.9872E-6	-268.3413E-9	546.0065E-12
57.7000E+0	101.5539E-6	-268.5105E-9	295.7712E-12
57.8000E+0	104.7847E-6	-267.9862E-9	1.5907E-9
57.9000E+0	106.4063E-6	-268.3884E-9	1.0733E-9
58.0000E+0	108.5137E-6	-268.9557E-9	871.7211E-12
58.1000E+0	111.0818E-6	-267.2761E-9	1.8289E-9
58.2000E+0	114.0602E-6	-268.1730E-9	1.5174E-9
58.3000E+0	117.4105E-6	-267.5137E-9	1.7704E-9
58.4000E+0	118.5497E-6	-267.6589E-9	948.3509E-12
58.5000E+0	120.6603E-6	-266.9580E-9	1.8172E-9
58.6000E+0	124.6741E-6	-266.3810E-9	1.2281E-9
58.7000E+0	124.9834E-6	-267.8767E-9	1.6927E-9
58.8000E+0	127.6611E-6	-268.7144E-9	1.1812E-9
58.9000E+0	131.8221E-6	-268.0967E-9	1.4052E-9
59.0000E+0	134.1812E-6	-269.2026E-9	1.2622E-9
59.1000E+0	136.2700E-6	-267.6198E-9	673.5008E-12
59.2000E+0	139.1761E-6	-267.2602E-9	558.1171E-12
59.3000E+0	140.5504E-6	-267.4226E-9	1.1590E-9
59.4000E+0	143.6904E-6	-267.1173E-9	1.1330E-9
59.5000E+0	146.1932E-6	-267.0960E-9	903.1481E-12
59.6000E+0	149.2375E-6	-266.8066E-9	1.0984E-9
59.7000E+0	151.8663E-6	-266.1984E-9	914.6229E-12
59.8000E+0	154.5061E-6	-266.3935E-9	604.5309E-12
59.9000E+0	157.8522E-6	-267.1700E-9	1.3722E-9
60.0000E+0	160.3845E-6	-267.3506E-9	527.9617E-12
60.1000E+0	163.3249E-6	-267.4834E-9	1.8756E-9
60.2000E+0	168.3360E-6	-269.8019E-9	1.6661E-9
60.3000E+0	171.1215E-6	-268.9111E-9	1.4667E-9
60.4000E+0	174.1040E-6	-268.9920E-9	367.1632E-12
60.5000E+0	176.0097E-6	-268.7422E-9	835.5709E-12
60.6000E+0	181.0062E-6	-269.1591E-9	677.6790E-12
60.7000E+0	182.8137E-6	-267.3846E-9	703.5957E-12
60.8000E+0	186.5706E-6	-267.4338E-9	789.8231E-12
60.9000E+0	188.6324E-6	-266.7549E-9	816.4665E-12
61.0000E+0	191.8959E-6	-266.4873E-9	635.7157E-12
61.1000E+0	193.8204E-6	-266.3635E-9	751.1601E-12
61.2000E+0	198.1948E-6	-266.5036E-9	1.1421E-9
61.3000E+0	200.9161E-6	-267.3337E-9	696.9046E-12
61.4000E+0	203.9147E-6	-267.0771E-9	981.9578E-12
61.5000E+0	207.7480E-6	-267.5895E-9	918.1652E-12
61.6000E+0	211.7289E-6	-268.1034E-9	1.4784E-9
61.7000E+0	214.9290E-6	-268.1027E-9	1.5239E-9
61.8000E+0	219.6087E-6	-267.4541E-9	1.3294E-9
61.9000E+0	223.6868E-6	-269.3838E-9	1.2892E-9
62.0000E+0	227.0713E-6	-270.5743E-9	1.5823E-9
62.1000E+0	230.6057E-6	-269.9878E-9	1.2560E-9
62.2000E+0	235.5864E-6	-268.9553E-9	429.5630E-12
62.3000E+0	237.3256E-6	-268.0766E-9	838.4775E-12
62.4000E+0	241.1557E-6	-268.0568E-9	593.5406E-12
62.5000E+0	243.7682E-6	-267.3989E-9	1.0170E-9
62.6000E+0	247.2924E-6	-266.7960E-9	729.2399E-12
62.7000E+0	252.3567E-6	-267.1155E-9	507.2828E-12
62.8000E+0	254.1448E-6	-266.6839E-9	370.4330E-12
62.9000E+0	258.0067E-6	-267.5576E-9	605.6209E-12
63.0000E+0	262.2020E-6	-266.8969E-9	830.6662E-12
63.1000E+0	267.0105E-6	-267.1623E-9	1.0068E-9
63.2000E+0	270.3316E-6	-268.0447E-9	697.7523E-12
63.3000E+0	274.3923E-6	-268.0319E-9	987.8315E-12
63.4000E+0	279.6811E-6	-269.2843E-9	1.6456E-9
63.5000E+0	285.1322E-6	-269.3817E-9	873.5982E-12
63.6000E+0	288.1291E-6	-266.9576E-9	1.5257E-9
63.7000E+0	295.9160E-6	-270.2458E-9	974.6309E-12
63.8000E+0	296.2437E-6	-269.0556E-9	829.1826E-12
63.9000E+0	302.9258E-6	-268.2249E-9	398.1057E-12
