Voltage(V)	Current(A)	DiodeCurrent(A)	DiodeCurrent Std(A)
0.0000E+0	5.4945E-12	-7.1978E-9	89.0462E-12
2.0000E+0	36.5712E-12	-7.2549E-9	68.2656E-12
4.0000E+0	62.4947E-12	-7.2519E-9	79.1740E-12
6.0000E+0	166.3340E-12	-7.2690E-9	65.6086E-12
8.0000E+0	218.6493E-12	-7.2474E-9	70.0792E-12
10.0000E+0	255.3224E-12	-7.2742E-9	65.1823E-12
12.0000E+0	287.6782E-12	-7.2787E-9	58.8348E-12
14.0000E+0	314.3643E-12	-7.2525E-9	72.2894E-12
16.0000E+0	340.9048E-12	-7.2219E-9	79.1195E-12
18.0000E+0	373.8523E-12	-7.2371E-9	56.7497E-12
20.0000E+0	407.7232E-12	-7.2312E-9	69.3184E-12
22.0000E+0	441.4059E-12	-7.2444E-9	75.2795E-12
24.0000E+0	477.4297E-12	-7.1948E-9	77.5654E-12
26.0000E+0	502.1520E-12	-7.2058E-9	87.0162E-12
28.0000E+0	515.7860E-12	-7.1809E-9	68.1482E-12
30.0000E+0	525.6958E-12	-7.2044E-9	85.7170E-12
32.0000E+0	537.0274E-12	-7.2326E-9	81.7287E-12
34.0000E+0	546.3557E-12	-7.2320E-9	57.2059E-12
36.0000E+0	557.5285E-12	-7.2244E-9	68.8306E-12
38.0000E+0	570.1366E-12	-7.2445E-9	80.8056E-12
40.0000E+0	580.6285E-12	-7.2338E-9	75.1354E-12
42.0000E+0	594.0198E-12	-7.2441E-9	60.0350E-12
44.0000E+0	607.4380E-12	-7.2293E-9	75.1287E-12
46.0000E+0	623.1832E-12	-7.2292E-9	83.8117E-12
48.0000E+0	639.5087E-12	-7.2376E-9	68.8784E-12
50.0000E+0	657.4448E-12	-7.2485E-9	83.8986E-12
50.1000E+0	657.4781E-12	-7.2037E-9	74.0518E-12
50.2000E+0	659.5757E-12	-7.1867E-9	73.3936E-12
50.3000E+0	660.1729E-12	-7.1742E-9	94.5584E-12
50.4000E+0	661.8793E-12	-7.2160E-9	80.7695E-12
50.5000E+0	663.0334E-12	-7.2044E-9	69.1022E-12
50.6000E+0	663.0780E-12	-7.2298E-9	72.9046E-12
50.7000E+0	665.0025E-12	-7.2270E-9	83.8520E-12
50.8000E+0	665.9656E-12	-7.2514E-9	72.5044E-12
50.9000E+0	667.4914E-12	-7.2236E-9	76.9341E-12
51.0000E+0	669.0893E-12	-7.2216E-9	86.2783E-12
51.1000E+0	671.1629E-12	-7.2194E-9	68.4697E-12
51.2000E+0	673.7788E-12	-7.2737E-9	64.1459E-12
51.3000E+0	677.1906E-12	-7.2304E-9	69.4546E-12
51.4000E+0	681.1690E-12	-7.2366E-9	76.2583E-12
51.5000E+0	688.0500E-12	-7.2294E-9	72.7850E-12
51.6000E+0	702.1619E-12	-7.2789E-9	64.8078E-12
51.7000E+0	751.3665E-12	-7.2223E-9	65.0015E-12
51.8000E+0	1.0147E-9	-7.2384E-9	78.7864E-12
51.9000E+0	2.0665E-9	-7.2211E-9	65.8366E-12
52.0000E+0	4.5183E-9	-7.1953E-9	84.3594E-12
52.1000E+0	8.3527E-9	-7.2438E-9	88.0559E-12
52.2000E+0	12.8923E-9	-7.2328E-9	70.9348E-12
52.3000E+0	18.1458E-9	-7.2208E-9	75.0921E-12
52.4000E+0	24.5702E-9	-7.2055E-9	54.0959E-12
52.5000E+0	30.2688E-9	-7.2160E-9	80.9912E-12
52.6000E+0	38.3247E-9	-7.1992E-9	74.1995E-12
52.7000E+0	47.6469E-9	-7.2529E-9	66.4218E-12
52.8000E+0	57.8242E-9	-7.2565E-9	80.4958E-12
52.9000E+0	66.7540E-9	-7.2153E-9	73.3645E-12
53.0000E+0	78.2742E-9	-7.2375E-9	65.4418E-12
53.1000E+0	87.5745E-9	-7.1995E-9	85.5093E-12
53.2000E+0	99.2445E-9	-7.1942E-9	72.0127E-12
53.3000E+0	108.7076E-9	-7.1893E-9	74.6428E-12
53.4000E+0	122.3251E-9	-7.2017E-9	74.3685E-12
53.5000E+0	137.4341E-9	-7.2218E-9	72.5595E-12
53.6000E+0	146.7272E-9	-7.2257E-9	76.4494E-12
53.7000E+0	165.2895E-9	-7.2354E-9	83.5410E-12
53.8000E+0	177.3158E-9	-7.2543E-9	80.6748E-12
53.9000E+0	193.8516E-9	-7.2271E-9	83.4905E-12
54.0000E+0	209.3469E-9	-7.2430E-9	65.8390E-12
54.1000E+0	223.9285E-9	-7.2384E-9	69.3925E-12
54.2000E+0	245.1236E-9	-7.2118E-9	77.4561E-12
54.3000E+0	265.2107E-9	-7.2606E-9	84.7352E-12
54.4000E+0	277.9605E-9	-7.2362E-9	66.2441E-12
54.5000E+0	298.4911E-9	-7.2190E-9	88.5694E-12
54.6000E+0	315.2568E-9	-7.2228E-9	77.9335E-12
54.7000E+0	338.0249E-9	-7.1934E-9	88.2454E-12
54.8000E+0	353.1738E-9	-7.2250E-9	65.5498E-12
54.9000E+0	372.8971E-9	-7.2199E-9	83.5568E-12
55.0000E+0	396.7840E-9	-7.2124E-9	74.8962E-12
55.1000E+0	419.2757E-9	-7.2459E-9	60.1388E-12
55.2000E+0	443.1214E-9	-7.2842E-9	59.1933E-12
55.3000E+0	461.5251E-9	-7.2672E-9	85.5021E-12
55.4000E+0	484.2287E-9	-7.2412E-9	81.5640E-12
55.5000E+0	504.4050E-9	-7.2744E-9	62.9379E-12
55.6000E+0	526.5048E-9	-7.2482E-9	77.7622E-12
55.7000E+0	547.1539E-9	-7.2603E-9	77.9732E-12
55.8000E+0	574.2378E-9	-7.2304E-9	57.1405E-12
55.9000E+0	603.5821E-9	-7.2370E-9	105.1887E-12
56.0000E+0	634.0820E-9	-7.2192E-9	70.0650E-12
56.1000E+0	653.3484E-9	-7.2290E-9	75.7261E-12
56.2000E+0	683.5961E-9	-7.2313E-9	78.9750E-12
56.3000E+0	697.8876E-9	-7.2311E-9	62.4547E-12
56.4000E+0	745.6159E-9	-7.2361E-9	64.8066E-12
56.5000E+0	744.1524E-9	-7.2222E-9	74.2677E-12
56.6000E+0	798.9216E-9	-7.2718E-9	79.3705E-12
56.7000E+0	828.6050E-9	-7.2436E-9	64.7654E-12
56.8000E+0	863.9582E-9	-7.2551E-9	63.9888E-12
56.9000E+0	888.0791E-9	-7.2282E-9	85.0334E-12
57.0000E+0	937.0380E-9	-7.2193E-9	71.9364E-12
57.1000E+0	951.4833E-9	-7.2265E-9	81.7469E-12
57.2000E+0	980.2650E-9	-7.3235E-9	34.3899E-12
57.3000E+0	1.0055E-6	-7.2494E-9	81.5119E-12
57.4000E+0	1.0460E-6	-7.2599E-9	61.6729E-12
57.5000E+0	1.0945E-6	-7.2425E-9	94.3761E-12
57.6000E+0	1.1285E-6	-7.2044E-9	91.7209E-12
57.7000E+0	1.1605E-6	-7.2289E-9	65.5550E-12
57.8000E+0	1.1868E-6	-7.2694E-9	89.0296E-12
57.9000E+0	1.2522E-6	-7.2459E-9	84.5187E-12
58.0000E+0	1.2848E-6	-7.2638E-9	77.6732E-12
58.1000E+0	1.3207E-6	-7.2758E-9	70.0084E-12
58.2000E+0	1.3316E-6	-7.2498E-9	78.0837E-12
58.3000E+0	1.4178E-6	-7.2346E-9	76.0276E-12
58.4000E+0	1.4276E-6	-7.2544E-9	86.8975E-12
58.5000E+0	1.4659E-6	-7.2291E-9	73.0060E-12
58.6000E+0	1.5084E-6	-7.2614E-9	82.3642E-12
58.7000E+0	1.5329E-6	-7.2680E-9	61.9572E-12
58.8000E+0	1.5745E-6	-7.2346E-9	71.1013E-12
58.9000E+0	1.6521E-6	-7.2337E-9	87.2318E-12
59.0000E+0	1.7008E-6	-7.2395E-9	71.5706E-12
59.1000E+0	1.7161E-6	-7.2258E-9	92.5995E-12
59.2000E+0	1.8040E-6	-7.2378E-9	68.1500E-12
59.3000E+0	1.8586E-6	-7.2571E-9	77.5251E-12
59.4000E+0	1.8975E-6	-7.2539E-9	89.8065E-12
59.5000E+0	1.9641E-6	-7.2433E-9	69.3934E-12
59.6000E+0	2.0276E-6	-7.2411E-9	71.9303E-12
59.7000E+0	2.0439E-6	-7.2287E-9	87.8694E-12
59.8000E+0	2.0967E-6	-7.2293E-9	76.8899E-12
59.9000E+0	2.1854E-6	-7.2404E-9	80.0795E-12
60.0000E+0	2.2295E-6	-7.2717E-9	69.9732E-12
60.1000E+0	2.2902E-6	-7.2523E-9	62.6715E-12
60.2000E+0	2.3358E-6	-7.2380E-9	92.1169E-12
60.3000E+0	2.4423E-6	-7.2053E-9	74.0712E-12
60.4000E+0	2.4947E-6	-7.2267E-9	82.9207E-12
60.5000E+0	2.4987E-6	-7.2680E-9	58.6868E-12
60.6000E+0	2.6201E-6	-7.2268E-9	88.7846E-12
60.7000E+0	2.6601E-6	-7.2524E-9	71.9394E-12
60.8000E+0	2.7599E-6	-7.2435E-9	61.4819E-12
60.9000E+0	2.8439E-6	-7.2467E-9	57.3912E-12
61.0000E+0	2.8379E-6	-7.2448E-9	87.3504E-12
61.1000E+0	2.9328E-6	-7.2505E-9	80.6611E-12
61.2000E+0	3.0043E-6	-7.2432E-9	73.6264E-12
61.3000E+0	3.1234E-6	-7.2309E-9	83.5435E-12
61.4000E+0	3.1888E-6	-7.2351E-9	79.2106E-12
61.5000E+0	3.2460E-6	-7.2552E-9	83.0161E-12
61.6000E+0	3.3979E-6	-7.2345E-9	85.7655E-12
61.7000E+0	3.4613E-6	-7.2311E-9	56.7890E-12
61.8000E+0	3.5151E-6	-7.2302E-9	70.4849E-12
61.9000E+0	3.5814E-6	-7.2282E-9	80.2400E-12
62.0000E+0	3.7080E-6	-7.2283E-9	95.4594E-12
62.1000E+0	3.8207E-6	-7.2082E-9	87.6808E-12
62.2000E+0	3.8860E-6	-7.2195E-9	70.2239E-12
62.3000E+0	3.9665E-6	-7.2203E-9	88.9109E-12
62.4000E+0	4.0774E-6	-7.2395E-9	74.6183E-12
62.5000E+0	4.2426E-6	-7.2717E-9	58.2947E-12
62.6000E+0	4.3718E-6	-7.2564E-9	69.8209E-12
62.7000E+0	4.3633E-6	-7.2639E-9	87.0858E-12
62.8000E+0	4.5496E-6	-7.2581E-9	74.0575E-12
62.9000E+0	4.6777E-6	-7.2685E-9	90.2652E-12
63.0000E+0	4.6736E-6	-7.2427E-9	84.6292E-12
63.1000E+0	4.8415E-6	-7.2529E-9	69.3362E-12
63.2000E+0	4.9750E-6	-7.2637E-9	91.0381E-12
63.3000E+0	5.0917E-6	-7.2453E-9	86.4325E-12
63.4000E+0	5.2083E-6	-7.2153E-9	64.4877E-12
63.5000E+0	5.3166E-6	-7.2073E-9	96.4879E-12
63.6000E+0	5.3736E-6	-7.2261E-9	71.3920E-12
63.7000E+0	5.5798E-6	-7.1933E-9	86.5823E-12
63.8000E+0	5.6841E-6	-7.2556E-9	59.5611E-12
63.9000E+0	5.9457E-6	-7.2349E-9	80.7308E-12
